EESchema Schematic File Version 2
LIBS:power
LIBS:device
LIBS:transistors
LIBS:conn
LIBS:linear
LIBS:regul
LIBS:74xx
LIBS:cmos4000
LIBS:adc-dac
LIBS:memory
LIBS:xilinx
LIBS:microcontrollers
LIBS:dsp
LIBS:microchip
LIBS:analog_switches
LIBS:motorola
LIBS:texas
LIBS:intel
LIBS:audio
LIBS:interface
LIBS:digital-audio
LIBS:philips
LIBS:display
LIBS:cypress
LIBS:siliconi
LIBS:opto
LIBS:atmel
LIBS:contrib
LIBS:valves
LIBS:vl53l0x
LIBS:switch_findecourse
LIBS:oled_screen
LIBS:mpu-6050
LIBS:arduino_nano
LIBS:zener
LIBS:xtal
LIBS:vutmi
LIBS:vusb
LIBS:vtarget
LIBS:vpll
LIBS:vout
LIBS:vio
LIBS:vin
LIBS:vcore
LIBS:vbu
LIBS:varef
LIBS:vana
LIBS:USB3300
LIBS:usb334x
LIBS:usb
LIBS:usb-c
LIBS:ts3usb31
LIBS:tps27081a
LIBS:tps6040x
LIBS:tpd4s012
LIBS:tp4056
LIBS:tp4055
LIBS:TMC2130
LIBS:tlv713
LIBS:thermistor
LIBS:testpoint
LIBS:test
LIBS:tactile-4
LIBS:tactile-2
LIBS:spiflash
LIBS:solder-jumper-nc
LIBS:slide-spdt
LIBS:sit1602
LIBS:sip32401a
LIBS:si8410
LIBS:schottky
LIBS:SAM3U-144
LIBS:rs485trx-fullduplex
LIBS:relay
LIBS:r4
LIBS:r
LIBS:pwr
LIBS:powersyms
LIBS:power_flag
LIBS:pot
LIBS:pnp
LIBS:pmos
LIBS:phone-3
LIBS:op-amp
LIBS:nup4114
LIBS:npn
LIBS:nmos
LIBS:nmos-pmos-sot23-6
LIBS:nmos-pmos-sot-666
LIBS:mun53
LIBS:mpu6050
LIBS:mpl3115a2
LIBS:mounting-hole
LIBS:mounthole
LIBS:mkl27zxxvfm4
LIBS:MKL26ZxxVFM4
LIBS:mkl03zxxvfk4
LIBS:mkl03zxxvfg4
LIBS:microsd
LIBS:mic23031
LIBS:mic9409x
LIBS:mic5365
LIBS:mic5205
LIBS:mcp3221
LIBS:mcp47x6-sot-23-6
LIBS:mchck
LIBS:max9938
LIBS:max6070
LIBS:max4737eud
LIBS:mag3110
LIBS:ltc3260
LIBS:ltc3251
LIBS:lt6106
LIBS:lt6102
LIBS:lpddrx16
LIBS:lpc824
LIBS:lpc812
LIBS:ln1410
LIBS:lm27313
LIBS:lm3671
LIBS:lm78xx-so8
LIBS:lis2-lga12
LIBS:led
LIBS:ldo-sot-23-5
LIBS:lcd5110
LIBS:l
LIBS:k22f-64lqfp
LIBS:jumper
LIBS:jtag
LIBS:isp130301
LIBS:ip425xcz12
LIBS:ina199
LIBS:in-amp
LIBS:ICM-20689
LIBS:ICE40HX4K-144
LIBS:gnd
LIBS:fuse
LIBS:ferrite
LIBS:esp-12
LIBS:erc12864-1
LIBS:dtc-npn
LIBS:drv8839
LIBS:drv8838
LIBS:drv883x
LIBS:drdc3105
LIBS:debugheader
LIBS:de-9
LIBS:d
LIBS:cp
LIBS:conn-10
LIBS:conn-8
LIBS:conn-7
LIBS:conn-6
LIBS:conn-5
LIBS:conn-4
LIBS:conn-3
LIBS:conn-2x5
LIBS:conn-2x4
LIBS:conn-2
LIBS:conn-1
LIBS:com
LIBS:cm1624
LIBS:c
LIBS:button-dpdt
LIBS:buck-sot23-6
LIBS:buck-sot23-5
LIBS:bt51013b
LIBS:bq5105xb
LIBS:bat
LIBS:AP3402
LIBS:aoz128x
LIBS:ant
LIBS:ad8429
LIBS:acs711ex
LIBS:aat3681a
LIBS:aat1217
LIBS:74vc2t45
LIBS:74vc1t45
LIBS:74lvc1g
LIBS:74avc4t245
LIBS:2-spst
LIBS:+vs
LIBS:+15v
LIBS:+12v
LIBS:+5v
LIBS:+3v3
LIBS:+3v
LIBS:+1v8
LIBS:+1v2
LIBS:-vs
LIBS:-15v
LIBS:upc1406ha
LIBS:tea5767
LIBS:TDA1905
LIBS:mp2307
LIBS:jack_3p
LIBS:BZX84
LIBS:audio-jack-6
LIBS:AO3400A
LIBS:phoenix
LIBS:National
LIBS:Mec
LIBS:logo
LIBS:IRF
LIBS:cvra
LIBS:Comp2014
LIBS:_wireless
LIBS:_transceiver
LIBS:_stm32
LIBS:_sensors
LIBS:_power
LIBS:_motor_drivers
LIBS:_linear-regulators
LIBS:_ic
LIBS:_div
LIBS:_discrete
LIBS:_connectors
LIBS:_charge-pump-regulators
LIBS:_audio
LIBS:_antenna
LIBS:3615_KicadLibrary
LIBS:KIANO-Phones-cache
EELAYER 25 0
EELAYER END
$Descr A4 11693 8268
encoding utf-8
Sheet 1 1
Title ""
Date ""
Rev ""
Comp ""
Comment1 ""
Comment2 ""
Comment3 ""
Comment4 ""
$EndDescr
$Comp
L TEA5767 U1
U 1 1 5B5996A3
P 3100 1850
F 0 "U1" H 3100 2300 60  0000 C CNN
F 1 "TEA5767" H 3150 2200 60  0000 C CNN
F 2 "3615_footprints:TEA5767_SMD" H 3250 1850 60  0001 C CNN
F 3 "" H 3250 1850 60  0000 C CNN
	1    3100 1850
	1    0    0    -1  
$EndComp
$Comp
L LCD5110 J4
U 1 1 5B5996D2
P 6000 1150
F 0 "J4" H 6200 1100 50  0000 C CNN
F 1 "LCD5110" H 6200 1000 50  0000 C CNN
F 2 "3615_footprints:Nokia5110" H 6000 1150 60  0001 C CNN
F 3 "" H 6000 1150 60  0001 C CNN
	1    6000 1150
	1    0    0    -1  
$EndComp
$Comp
L WeMos_mini U2
U 1 1 5B599A46
P 4550 3050
F 0 "U2" H 4550 3550 60  0000 C CNN
F 1 "WeMos_mini" H 4550 2550 60  0000 C CNN
F 2 "3615_footprints:D1_mini_board" H 5100 2350 60  0001 C CNN
F 3 "" H 5100 2350 60  0000 C CNN
	1    4550 3050
	1    0    0    -1  
$EndComp
$Comp
L Adafruit_LSM9DS1_9dof U3
U 1 1 5B59A053
P 6200 2600
F 0 "U3" H 6800 2100 60  0000 C CNN
F 1 "Adafruit_LSM9DS1_9dof" H 6250 1850 60  0000 C CNN
F 2 "3615_footprints:LSMD9DS1_Adafruit" H 6200 2600 60  0001 C CNN
F 3 "" H 6200 2600 60  0001 C CNN
	1    6200 2600
	1    0    0    -1  
$EndComp
Wire Wire Line
	5150 2700 5050 2700
Wire Wire Line
	5150 1450 5150 2700
Wire Wire Line
	5150 2450 2700 2450
Wire Wire Line
	3600 2000 4450 2000
$Comp
L GND #PWR01
U 1 1 5B59D29F
P 3700 2000
F 0 "#PWR01" H 3700 1750 50  0001 C CNN
F 1 "GND" H 3700 1850 50  0000 C CNN
F 2 "" H 3700 2000 50  0001 C CNN
F 3 "" H 3700 2000 50  0001 C CNN
	1    3700 2000
	1    0    0    -1  
$EndComp
$Comp
L GND #PWR02
U 1 1 5B59D2D5
P 3800 2800
F 0 "#PWR02" H 3800 2550 50  0001 C CNN
F 1 "GND" H 3800 2650 50  0000 C CNN
F 2 "" H 3800 2800 50  0001 C CNN
F 3 "" H 3800 2800 50  0001 C CNN
	1    3800 2800
	1    0    0    -1  
$EndComp
Wire Wire Line
	4050 2800 3800 2800
Wire Wire Line
	2700 2450 2700 2000
$Comp
L +5V #PWR03
U 1 1 5B59D36A
P 3800 2700
F 0 "#PWR03" H 3800 2550 50  0001 C CNN
F 1 "+5V" H 3800 2840 50  0000 C CNN
F 2 "" H 3800 2700 50  0001 C CNN
F 3 "" H 3800 2700 50  0001 C CNN
	1    3800 2700
	1    0    0    -1  
$EndComp
Wire Wire Line
	3800 2700 4050 2700
Wire Wire Line
	2700 1800 2450 1800
$Comp
L GND #PWR04
U 1 1 5B59D3C2
P 2450 1800
F 0 "#PWR04" H 2450 1550 50  0001 C CNN
F 1 "GND" H 2450 1650 50  0000 C CNN
F 2 "" H 2450 1800 50  0001 C CNN
F 3 "" H 2450 1800 50  0001 C CNN
	1    2450 1800
	1    0    0    -1  
$EndComp
NoConn ~ 2700 1900
NoConn ~ 3600 1700
Wire Wire Line
	2700 1600 2300 1600
Wire Wire Line
	2300 1600 2300 3100
Wire Wire Line
	2300 3100 4050 3100
Wire Wire Line
	2700 1700 2350 1700
Wire Wire Line
	2350 1700 2350 3200
Wire Wire Line
	2350 3200 4050 3200
$Comp
L Conn_01x04 J1
U 1 1 5B59D424
P 4250 1050
F 0 "J1" H 4250 1250 50  0000 C CNN
F 1 "Connecteur_Audio (jack)" H 4250 750 50  0000 C CNN
F 2 "Pin_Headers:Pin_Header_Angled_1x04_Pitch2.54mm" H 4250 1050 50  0001 C CNN
F 3 "" H 4250 1050 50  0001 C CNN
	1    4250 1050
	0    -1   -1   0   
$EndComp
Wire Wire Line
	3600 1900 4350 1900
Wire Wire Line
	4350 1900 4350 1250
Wire Wire Line
	3600 1800 4250 1800
Wire Wire Line
	4250 1800 4250 1250
Wire Wire Line
	4450 2000 4450 1250
Connection ~ 3700 2000
Wire Wire Line
	3600 1600 4150 1600
Wire Wire Line
	4150 1600 4150 1250
Connection ~ 3900 3100
Connection ~ 3800 3200
Wire Wire Line
	3800 3200 3800 3800
Wire Wire Line
	3800 3800 5550 3800
Wire Wire Line
	5550 3800 5550 3450
Wire Wire Line
	5550 3450 6100 3450
Wire Wire Line
	6100 3450 6100 3550
Wire Wire Line
	6200 3550 6200 3400
Wire Wire Line
	6200 3400 5450 3400
Wire Wire Line
	5450 3400 5450 3700
Wire Wire Line
	5450 3700 3900 3700
Wire Wire Line
	3900 3700 3900 3100
$Comp
L +5V #PWR05
U 1 1 5B59DA5B
P 5800 3100
F 0 "#PWR05" H 5800 2950 50  0001 C CNN
F 1 "+5V" H 5800 3240 50  0000 C CNN
F 2 "" H 5800 3100 50  0001 C CNN
F 3 "" H 5800 3100 50  0001 C CNN
	1    5800 3100
	1    0    0    -1  
$EndComp
Wire Wire Line
	6000 3550 6000 3050
$Comp
L GND #PWR06
U 1 1 5B59DAA5
P 6000 3050
F 0 "#PWR06" H 6000 2800 50  0001 C CNN
F 1 "GND" H 6000 2900 50  0000 C CNN
F 2 "" H 6000 3050 50  0001 C CNN
F 3 "" H 6000 3050 50  0001 C CNN
	1    6000 3050
	-1   0    0    1   
$EndComp
NoConn ~ 5900 3550
NoConn ~ 6300 3550
NoConn ~ 6400 3550
NoConn ~ 6500 3550
NoConn ~ 6600 3550
NoConn ~ 6400 4500
NoConn ~ 6300 4500
NoConn ~ 6200 4500
NoConn ~ 6100 4500
NoConn ~ 6000 4500
Connection ~ 5150 2450
$Comp
L GND #PWR07
U 1 1 5B59DCA5
P 5300 1550
F 0 "#PWR07" H 5300 1300 50  0001 C CNN
F 1 "GND" H 5300 1400 50  0000 C CNN
F 2 "" H 5300 1550 50  0001 C CNN
F 3 "" H 5300 1550 50  0001 C CNN
	1    5300 1550
	1    0    0    -1  
$EndComp
$Comp
L Conn_01x02 J2
U 1 1 5B59DEA2
P 2650 3750
F 0 "J2" H 2650 3850 50  0000 C CNN
F 1 "Conn_01x02" H 2650 3550 50  0000 C CNN
F 2 "Pin_Headers:Pin_Header_Angled_1x02_Pitch2.54mm" H 2650 3750 50  0001 C CNN
F 3 "" H 2650 3750 50  0001 C CNN
	1    2650 3750
	-1   0    0    1   
$EndComp
Wire Wire Line
	2850 3650 3150 3650
Wire Wire Line
	3150 3650 3150 3300
Wire Wire Line
	3150 3300 4050 3300
Wire Wire Line
	4050 3400 3250 3400
Wire Wire Line
	3250 3400 3250 3750
Wire Wire Line
	3250 3750 2850 3750
$Comp
L Conn_01x02 J3
U 1 1 5B59DF79
P 2650 4400
F 0 "J3" H 2650 4500 50  0000 C CNN
F 1 "Conn_01x02" H 2650 4200 50  0000 C CNN
F 2 "Pin_Headers:Pin_Header_Angled_1x02_Pitch2.54mm" H 2650 4400 50  0001 C CNN
F 3 "" H 2650 4400 50  0001 C CNN
	1    2650 4400
	-1   0    0    1   
$EndComp
$Comp
L +5V #PWR08
U 1 1 5B59DFAB
P 2850 4300
F 0 "#PWR08" H 2850 4150 50  0001 C CNN
F 1 "+5V" H 2850 4440 50  0000 C CNN
F 2 "" H 2850 4300 50  0001 C CNN
F 3 "" H 2850 4300 50  0001 C CNN
	1    2850 4300
	1    0    0    -1  
$EndComp
$Comp
L GND #PWR09
U 1 1 5B59DFD2
P 2850 4400
F 0 "#PWR09" H 2850 4150 50  0001 C CNN
F 1 "GND" H 2850 4250 50  0000 C CNN
F 2 "" H 2850 4400 50  0001 C CNN
F 3 "" H 2850 4400 50  0001 C CNN
	1    2850 4400
	1    0    0    -1  
$EndComp
NoConn ~ 5050 3300
NoConn ~ 5050 3400
Wire Wire Line
	5150 1450 5800 1450
Wire Wire Line
	5300 1550 5800 1550
NoConn ~ 4050 2900
Wire Wire Line
	5800 1650 5450 1650
Wire Wire Line
	5450 1650 5450 2900
Wire Wire Line
	5450 2900 5050 2900
Wire Wire Line
	5800 1750 5550 1750
Wire Wire Line
	5550 1750 5550 2800
Wire Wire Line
	5550 2800 5050 2800
Wire Wire Line
	5800 1850 5650 1850
Wire Wire Line
	5650 1850 5650 3000
Wire Wire Line
	5650 3000 5050 3000
Wire Wire Line
	5800 2050 5350 2050
Wire Wire Line
	5350 2050 5350 3200
Wire Wire Line
	5350 3200 5050 3200
Wire Wire Line
	5800 2150 3950 2150
Wire Wire Line
	3950 2150 3950 3000
Wire Wire Line
	3950 3000 4050 3000
Wire Wire Line
	5800 3100 5800 3550
Wire Wire Line
	5800 1950 5250 1950
Wire Wire Line
	5250 1950 5250 3100
Wire Wire Line
	5250 3100 5050 3100
$EndSCHEMATC
