(kicad_pcb (version 4) (host pcbnew 4.0.7)

  (general
    (links 25)
    (no_connects 0)
    (area 97.924999 34.924999 148.075001 117.075001)
    (thickness 1.6)
    (drawings 4)
    (tracks 112)
    (zones 0)
    (modules 7)
    (nets 32)
  )

  (page A4)
  (layers
    (0 F.Cu signal)
    (31 B.Cu signal)
    (32 B.Adhes user)
    (33 F.Adhes user)
    (34 B.Paste user hide)
    (35 F.Paste user)
    (36 B.SilkS user)
    (37 F.SilkS user)
    (38 B.Mask user)
    (39 F.Mask user)
    (40 Dwgs.User user)
    (41 Cmts.User user)
    (42 Eco1.User user)
    (43 Eco2.User user hide)
    (44 Edge.Cuts user)
    (45 Margin user)
    (46 B.CrtYd user hide)
    (47 F.CrtYd user)
    (48 B.Fab user)
    (49 F.Fab user hide)
  )

  (setup
    (last_trace_width 0.5)
    (trace_clearance 0.1)
    (zone_clearance 0.508)
    (zone_45_only no)
    (trace_min 0.2)
    (segment_width 0.2)
    (edge_width 0.15)
    (via_size 0.6)
    (via_drill 0.4)
    (via_min_size 0.4)
    (via_min_drill 0.3)
    (uvia_size 0.3)
    (uvia_drill 0.1)
    (uvias_allowed no)
    (uvia_min_size 0.2)
    (uvia_min_drill 0.1)
    (pcb_text_width 0.3)
    (pcb_text_size 1.5 1.5)
    (mod_edge_width 0.15)
    (mod_text_size 1 1)
    (mod_text_width 0.15)
    (pad_size 1.7 1.7)
    (pad_drill 1)
    (pad_to_mask_clearance 0.2)
    (aux_axis_origin 0 0)
    (grid_origin 181.737 91.821)
    (visible_elements FFFFFF7F)
    (pcbplotparams
      (layerselection 0x010c0_80000001)
      (usegerberextensions false)
      (excludeedgelayer true)
      (linewidth 0.100000)
      (plotframeref false)
      (viasonmask false)
      (mode 1)
      (useauxorigin false)
      (hpglpennumber 1)
      (hpglpenspeed 20)
      (hpglpendiameter 15)
      (hpglpenoverlay 2)
      (psnegative false)
      (psa4output false)
      (plotreference true)
      (plotvalue true)
      (plotinvisibletext false)
      (padsonsilk false)
      (subtractmaskfromsilk false)
      (outputformat 1)
      (mirror false)
      (drillshape 0)
      (scaleselection 1)
      (outputdirectory PRINT_PROTO/))
  )

  (net 0 "")
  (net 1 "Net-(J1-Pad1)")
  (net 2 "Net-(J1-Pad2)")
  (net 3 "Net-(J1-Pad3)")
  (net 4 GND)
  (net 5 "Net-(J2-Pad1)")
  (net 6 "Net-(J2-Pad2)")
  (net 7 +5V)
  (net 8 "Net-(J4-Pad4)")
  (net 9 "Net-(J4-Pad3)")
  (net 10 "Net-(J4-Pad5)")
  (net 11 "Net-(J4-Pad6)")
  (net 12 "Net-(J4-Pad1)")
  (net 13 "Net-(U1-Pad1)")
  (net 14 "Net-(U1-Pad2)")
  (net 15 "Net-(U1-Pad4)")
  (net 16 "Net-(U1-Pad9)")
  (net 17 "Net-(U2-Pad10)")
  (net 18 "Net-(U2-Pad9)")
  (net 19 "Net-(U3-Pad2)")
  (net 20 "Net-(U3-Pad6)")
  (net 21 "Net-(U3-Pad7)")
  (net 22 "Net-(U3-Pad8)")
  (net 23 "Net-(U3-Pad9)")
  (net 24 "Net-(U3-Pad10)")
  (net 25 "Net-(U3-Pad11)")
  (net 26 "Net-(U3-Pad12)")
  (net 27 "Net-(U3-Pad13)")
  (net 28 "Net-(U3-Pad14)")
  (net 29 "Net-(U2-Pad3)")
  (net 30 "Net-(J4-Pad7)")
  (net 31 "Net-(J4-Pad8)")

  (net_class Default "Ceci est la Netclass par défaut"
    (clearance 0.1)
    (trace_width 0.5)
    (via_dia 0.6)
    (via_drill 0.4)
    (uvia_dia 0.3)
    (uvia_drill 0.1)
    (add_net +5V)
    (add_net GND)
    (add_net "Net-(J1-Pad1)")
    (add_net "Net-(J1-Pad2)")
    (add_net "Net-(J1-Pad3)")
    (add_net "Net-(J2-Pad1)")
    (add_net "Net-(J2-Pad2)")
    (add_net "Net-(J4-Pad1)")
    (add_net "Net-(J4-Pad3)")
    (add_net "Net-(J4-Pad4)")
    (add_net "Net-(J4-Pad5)")
    (add_net "Net-(J4-Pad6)")
    (add_net "Net-(J4-Pad7)")
    (add_net "Net-(J4-Pad8)")
    (add_net "Net-(U1-Pad1)")
    (add_net "Net-(U1-Pad2)")
    (add_net "Net-(U1-Pad4)")
    (add_net "Net-(U1-Pad9)")
    (add_net "Net-(U2-Pad10)")
    (add_net "Net-(U2-Pad3)")
    (add_net "Net-(U2-Pad9)")
    (add_net "Net-(U3-Pad10)")
    (add_net "Net-(U3-Pad11)")
    (add_net "Net-(U3-Pad12)")
    (add_net "Net-(U3-Pad13)")
    (add_net "Net-(U3-Pad14)")
    (add_net "Net-(U3-Pad2)")
    (add_net "Net-(U3-Pad6)")
    (add_net "Net-(U3-Pad7)")
    (add_net "Net-(U3-Pad8)")
    (add_net "Net-(U3-Pad9)")
  )

  (module Pin_Headers:Pin_Header_Angled_1x04_Pitch2.54mm (layer F.Cu) (tedit 5B5B178E) (tstamp 5B59E39B)
    (at 101.092 74.93 180)
    (descr "Through hole angled pin header, 1x04, 2.54mm pitch, 6mm pin length, single row")
    (tags "Through hole angled pin header THT 1x04 2.54mm single row")
    (path /5B59D424)
    (fp_text reference J1 (at 4.385 -2.27 180) (layer F.SilkS)
      (effects (font (size 1 1) (thickness 0.15)))
    )
    (fp_text value "Connecteur_Audio (jack)" (at 4.385 9.89 180) (layer F.Fab)
      (effects (font (size 1 1) (thickness 0.15)))
    )
    (fp_line (start 2.135 -1.27) (end 4.04 -1.27) (layer F.Fab) (width 0.1))
    (fp_line (start 4.04 -1.27) (end 4.04 8.89) (layer F.Fab) (width 0.1))
    (fp_line (start 4.04 8.89) (end 1.5 8.89) (layer F.Fab) (width 0.1))
    (fp_line (start 1.5 8.89) (end 1.5 -0.635) (layer F.Fab) (width 0.1))
    (fp_line (start 1.5 -0.635) (end 2.135 -1.27) (layer F.Fab) (width 0.1))
    (fp_line (start -0.32 -0.32) (end 1.5 -0.32) (layer F.Fab) (width 0.1))
    (fp_line (start -0.32 -0.32) (end -0.32 0.32) (layer F.Fab) (width 0.1))
    (fp_line (start -0.32 0.32) (end 1.5 0.32) (layer F.Fab) (width 0.1))
    (fp_line (start 4.04 -0.32) (end 10.04 -0.32) (layer F.Fab) (width 0.1))
    (fp_line (start 10.04 -0.32) (end 10.04 0.32) (layer F.Fab) (width 0.1))
    (fp_line (start 4.04 0.32) (end 10.04 0.32) (layer F.Fab) (width 0.1))
    (fp_line (start -0.32 2.22) (end 1.5 2.22) (layer F.Fab) (width 0.1))
    (fp_line (start -0.32 2.22) (end -0.32 2.86) (layer F.Fab) (width 0.1))
    (fp_line (start -0.32 2.86) (end 1.5 2.86) (layer F.Fab) (width 0.1))
    (fp_line (start 4.04 2.22) (end 10.04 2.22) (layer F.Fab) (width 0.1))
    (fp_line (start 10.04 2.22) (end 10.04 2.86) (layer F.Fab) (width 0.1))
    (fp_line (start 4.04 2.86) (end 10.04 2.86) (layer F.Fab) (width 0.1))
    (fp_line (start -0.32 4.76) (end 1.5 4.76) (layer F.Fab) (width 0.1))
    (fp_line (start -0.32 4.76) (end -0.32 5.4) (layer F.Fab) (width 0.1))
    (fp_line (start -0.32 5.4) (end 1.5 5.4) (layer F.Fab) (width 0.1))
    (fp_line (start 4.04 4.76) (end 10.04 4.76) (layer F.Fab) (width 0.1))
    (fp_line (start 10.04 4.76) (end 10.04 5.4) (layer F.Fab) (width 0.1))
    (fp_line (start 4.04 5.4) (end 10.04 5.4) (layer F.Fab) (width 0.1))
    (fp_line (start -0.32 7.3) (end 1.5 7.3) (layer F.Fab) (width 0.1))
    (fp_line (start -0.32 7.3) (end -0.32 7.94) (layer F.Fab) (width 0.1))
    (fp_line (start -0.32 7.94) (end 1.5 7.94) (layer F.Fab) (width 0.1))
    (fp_line (start 4.04 7.3) (end 10.04 7.3) (layer F.Fab) (width 0.1))
    (fp_line (start 10.04 7.3) (end 10.04 7.94) (layer F.Fab) (width 0.1))
    (fp_line (start 4.04 7.94) (end 10.04 7.94) (layer F.Fab) (width 0.1))
    (fp_line (start 1.44 -1.33) (end 1.44 8.95) (layer F.SilkS) (width 0.12))
    (fp_line (start 1.44 8.95) (end 4.1 8.95) (layer F.SilkS) (width 0.12))
    (fp_line (start 4.1 8.95) (end 4.1 -1.33) (layer F.SilkS) (width 0.12))
    (fp_line (start 4.1 -1.33) (end 1.44 -1.33) (layer F.SilkS) (width 0.12))
    (fp_line (start 4.1 -0.38) (end 10.1 -0.38) (layer F.SilkS) (width 0.12))
    (fp_line (start 10.1 -0.38) (end 10.1 0.38) (layer F.SilkS) (width 0.12))
    (fp_line (start 10.1 0.38) (end 4.1 0.38) (layer F.SilkS) (width 0.12))
    (fp_line (start 4.1 -0.32) (end 10.1 -0.32) (layer F.SilkS) (width 0.12))
    (fp_line (start 4.1 -0.2) (end 10.1 -0.2) (layer F.SilkS) (width 0.12))
    (fp_line (start 4.1 -0.08) (end 10.1 -0.08) (layer F.SilkS) (width 0.12))
    (fp_line (start 4.1 0.04) (end 10.1 0.04) (layer F.SilkS) (width 0.12))
    (fp_line (start 4.1 0.16) (end 10.1 0.16) (layer F.SilkS) (width 0.12))
    (fp_line (start 4.1 0.28) (end 10.1 0.28) (layer F.SilkS) (width 0.12))
    (fp_line (start 1.11 -0.38) (end 1.44 -0.38) (layer F.SilkS) (width 0.12))
    (fp_line (start 1.11 0.38) (end 1.44 0.38) (layer F.SilkS) (width 0.12))
    (fp_line (start 1.44 1.27) (end 4.1 1.27) (layer F.SilkS) (width 0.12))
    (fp_line (start 4.1 2.16) (end 10.1 2.16) (layer F.SilkS) (width 0.12))
    (fp_line (start 10.1 2.16) (end 10.1 2.92) (layer F.SilkS) (width 0.12))
    (fp_line (start 10.1 2.92) (end 4.1 2.92) (layer F.SilkS) (width 0.12))
    (fp_line (start 1.042929 2.16) (end 1.44 2.16) (layer F.SilkS) (width 0.12))
    (fp_line (start 1.042929 2.92) (end 1.44 2.92) (layer F.SilkS) (width 0.12))
    (fp_line (start 1.44 3.81) (end 4.1 3.81) (layer F.SilkS) (width 0.12))
    (fp_line (start 4.1 4.7) (end 10.1 4.7) (layer F.SilkS) (width 0.12))
    (fp_line (start 10.1 4.7) (end 10.1 5.46) (layer F.SilkS) (width 0.12))
    (fp_line (start 10.1 5.46) (end 4.1 5.46) (layer F.SilkS) (width 0.12))
    (fp_line (start 1.042929 4.7) (end 1.44 4.7) (layer F.SilkS) (width 0.12))
    (fp_line (start 1.042929 5.46) (end 1.44 5.46) (layer F.SilkS) (width 0.12))
    (fp_line (start 1.44 6.35) (end 4.1 6.35) (layer F.SilkS) (width 0.12))
    (fp_line (start 4.1 7.24) (end 10.1 7.24) (layer F.SilkS) (width 0.12))
    (fp_line (start 10.1 7.24) (end 10.1 8) (layer F.SilkS) (width 0.12))
    (fp_line (start 10.1 8) (end 4.1 8) (layer F.SilkS) (width 0.12))
    (fp_line (start 1.042929 7.24) (end 1.44 7.24) (layer F.SilkS) (width 0.12))
    (fp_line (start 1.042929 8) (end 1.44 8) (layer F.SilkS) (width 0.12))
    (fp_line (start -1.27 0) (end -1.27 -1.27) (layer F.SilkS) (width 0.12))
    (fp_line (start -1.27 -1.27) (end 0 -1.27) (layer F.SilkS) (width 0.12))
    (fp_line (start -1.8 -1.8) (end -1.8 9.4) (layer F.CrtYd) (width 0.05))
    (fp_line (start -1.8 9.4) (end 10.55 9.4) (layer F.CrtYd) (width 0.05))
    (fp_line (start 10.55 9.4) (end 10.55 -1.8) (layer F.CrtYd) (width 0.05))
    (fp_line (start 10.55 -1.8) (end -1.8 -1.8) (layer F.CrtYd) (width 0.05))
    (fp_text user %R (at 2.77 3.81 270) (layer F.Fab)
      (effects (font (size 1 1) (thickness 0.15)))
    )
    (pad 4 thru_hole rect (at 0 0 180) (size 1.7 1.7) (drill 1) (layers *.Mask B.Cu)
      (net 4 GND))
    (pad 3 thru_hole oval (at 0 2.54 180) (size 1.7 1.7) (drill 1) (layers *.Mask B.Cu)
      (net 3 "Net-(J1-Pad3)"))
    (pad 2 thru_hole oval (at 0 5.08 180) (size 1.7 1.7) (drill 1) (layers *.Mask B.Cu)
      (net 2 "Net-(J1-Pad2)"))
    (pad 1 thru_hole oval (at 0 7.62 180) (size 1.7 1.7) (drill 1) (layers *.Mask B.Cu)
      (net 1 "Net-(J1-Pad1)"))
    (model ${KISYS3DMOD}/Pin_Headers.3dshapes/Pin_Header_Angled_1x04_Pitch2.54mm.wrl
      (at (xyz 0 0 0))
      (scale (xyz 1 1 1))
      (rotate (xyz 0 0 0))
    )
  )

  (module Pin_Header_Angled_1x02_Pitch2.54mm (layer F.Cu) (tedit 5B5B1662) (tstamp 5B59E3A1)
    (at 108.458 87.122 180)
    (descr "Through hole angled pin header, 1x02, 2.54mm pitch, 6mm pin length, single row")
    (tags "Through hole angled pin header THT 1x02 2.54mm single row")
    (path /5B59DEA2)
    (fp_text reference J2 (at 4.385 -2.27 180) (layer F.SilkS)
      (effects (font (size 1 1) (thickness 0.15)))
    )
    (fp_text value Conn_01x02 (at 4.385 4.81 180) (layer F.Fab)
      (effects (font (size 1 1) (thickness 0.15)))
    )
    (fp_line (start 2.135 -1.27) (end 4.04 -1.27) (layer F.Fab) (width 0.1))
    (fp_line (start 4.04 -1.27) (end 4.04 3.81) (layer F.Fab) (width 0.1))
    (fp_line (start 4.04 3.81) (end 1.5 3.81) (layer F.Fab) (width 0.1))
    (fp_line (start 1.5 3.81) (end 1.5 -0.635) (layer F.Fab) (width 0.1))
    (fp_line (start 1.5 -0.635) (end 2.135 -1.27) (layer F.Fab) (width 0.1))
    (fp_line (start -0.32 -0.32) (end 1.5 -0.32) (layer F.Fab) (width 0.1))
    (fp_line (start -0.32 -0.32) (end -0.32 0.32) (layer F.Fab) (width 0.1))
    (fp_line (start -0.32 0.32) (end 1.5 0.32) (layer F.Fab) (width 0.1))
    (fp_line (start 4.04 -0.32) (end 10.04 -0.32) (layer F.Fab) (width 0.1))
    (fp_line (start 10.04 -0.32) (end 10.04 0.32) (layer F.Fab) (width 0.1))
    (fp_line (start 4.04 0.32) (end 10.04 0.32) (layer F.Fab) (width 0.1))
    (fp_line (start -0.32 2.22) (end 1.5 2.22) (layer F.Fab) (width 0.1))
    (fp_line (start -0.32 2.22) (end -0.32 2.86) (layer F.Fab) (width 0.1))
    (fp_line (start -0.32 2.86) (end 1.5 2.86) (layer F.Fab) (width 0.1))
    (fp_line (start 4.04 2.22) (end 10.04 2.22) (layer F.Fab) (width 0.1))
    (fp_line (start 10.04 2.22) (end 10.04 2.86) (layer F.Fab) (width 0.1))
    (fp_line (start 4.04 2.86) (end 10.04 2.86) (layer F.Fab) (width 0.1))
    (fp_line (start 1.44 -1.33) (end 1.44 3.87) (layer F.SilkS) (width 0.12))
    (fp_line (start 1.44 3.87) (end 4.1 3.87) (layer F.SilkS) (width 0.12))
    (fp_line (start 4.1 3.87) (end 4.1 -1.33) (layer F.SilkS) (width 0.12))
    (fp_line (start 4.1 -1.33) (end 1.44 -1.33) (layer F.SilkS) (width 0.12))
    (fp_line (start 4.1 -0.38) (end 10.1 -0.38) (layer F.SilkS) (width 0.12))
    (fp_line (start 10.1 -0.38) (end 10.1 0.38) (layer F.SilkS) (width 0.12))
    (fp_line (start 10.1 0.38) (end 4.1 0.38) (layer F.SilkS) (width 0.12))
    (fp_line (start 4.1 -0.32) (end 10.1 -0.32) (layer F.SilkS) (width 0.12))
    (fp_line (start 4.1 -0.2) (end 10.1 -0.2) (layer F.SilkS) (width 0.12))
    (fp_line (start 4.1 -0.08) (end 10.1 -0.08) (layer F.SilkS) (width 0.12))
    (fp_line (start 4.1 0.04) (end 10.1 0.04) (layer F.SilkS) (width 0.12))
    (fp_line (start 4.1 0.16) (end 10.1 0.16) (layer F.SilkS) (width 0.12))
    (fp_line (start 4.1 0.28) (end 10.1 0.28) (layer F.SilkS) (width 0.12))
    (fp_line (start 1.11 -0.38) (end 1.44 -0.38) (layer F.SilkS) (width 0.12))
    (fp_line (start 1.11 0.38) (end 1.44 0.38) (layer F.SilkS) (width 0.12))
    (fp_line (start 1.44 1.27) (end 4.1 1.27) (layer F.SilkS) (width 0.12))
    (fp_line (start 4.1 2.16) (end 10.1 2.16) (layer F.SilkS) (width 0.12))
    (fp_line (start 10.1 2.16) (end 10.1 2.92) (layer F.SilkS) (width 0.12))
    (fp_line (start 10.1 2.92) (end 4.1 2.92) (layer F.SilkS) (width 0.12))
    (fp_line (start 1.042929 2.16) (end 1.44 2.16) (layer F.SilkS) (width 0.12))
    (fp_line (start 1.042929 2.92) (end 1.44 2.92) (layer F.SilkS) (width 0.12))
    (fp_line (start -1.27 0) (end -1.27 -1.27) (layer F.SilkS) (width 0.12))
    (fp_line (start -1.27 -1.27) (end 0 -1.27) (layer F.SilkS) (width 0.12))
    (fp_line (start -1.8 -1.8) (end -1.8 4.35) (layer F.CrtYd) (width 0.05))
    (fp_line (start -1.8 4.35) (end 10.55 4.35) (layer F.CrtYd) (width 0.05))
    (fp_line (start 10.55 4.35) (end 10.55 -1.8) (layer F.CrtYd) (width 0.05))
    (fp_line (start 10.55 -1.8) (end -1.8 -1.8) (layer F.CrtYd) (width 0.05))
    (fp_text user %R (at 2.77 1.27 270) (layer F.Fab)
      (effects (font (size 1 1) (thickness 0.15)))
    )
    (pad 2 thru_hole rect (at 0 0 180) (size 1.7 1.7) (drill 1) (layers *.Mask B.Cu)
      (net 6 "Net-(J2-Pad2)"))
    (pad 1 thru_hole oval (at 0 2.54 180) (size 1.7 1.7) (drill 1) (layers *.Mask B.Cu)
      (net 5 "Net-(J2-Pad1)"))
    (model ${KISYS3DMOD}/Pin_Headers.3dshapes/Pin_Header_Angled_1x02_Pitch2.54mm.wrl
      (at (xyz 0 0 0))
      (scale (xyz 1 1 1))
      (rotate (xyz 0 0 0))
    )
  )

  (module D1_mini_board (layer F.Cu) (tedit 5B59EA71) (tstamp 5B59E3D5)
    (at 126.365 96.647 270)
    (path /5B599A46)
    (fp_text reference U2 (at 1.27 18.81 270) (layer F.SilkS)
      (effects (font (size 1 1) (thickness 0.15)))
    )
    (fp_text value WeMos_mini (at 1.27 -19.05 270) (layer F.Fab)
      (effects (font (size 1 1) (thickness 0.15)))
    )
    (fp_text user WeMos (at 0 -15.24 270) (layer F.SilkS)
      (effects (font (size 3 3) (thickness 0.15)))
    )
    (fp_line (start -6.35 3.81) (end -6.35 -10.16) (layer B.SilkS) (width 0.15))
    (fp_line (start -6.35 -10.16) (end 6.35 -10.16) (layer B.SilkS) (width 0.15))
    (fp_line (start 6.35 -10.16) (end 6.35 3.81) (layer B.SilkS) (width 0.15))
    (fp_line (start 6.35 3.81) (end -6.35 3.81) (layer B.SilkS) (width 0.15))
    (fp_line (start -8.89 5.08) (end 8.89 5.08) (layer B.SilkS) (width 0.15))
    (fp_line (start 8.89 5.08) (end 8.89 -17.78) (layer B.SilkS) (width 0.15))
    (fp_line (start 8.89 -17.78) (end -8.89 -17.78) (layer B.SilkS) (width 0.15))
    (fp_line (start -8.89 -17.78) (end -8.89 5.08) (layer B.SilkS) (width 0.15))
    (fp_line (start 10.817472 16.277228) (end 5.00618 16.277228) (layer F.SilkS) (width 0.1))
    (fp_line (start 5.00618 16.277228) (end 4.979849 14.993795) (layer F.SilkS) (width 0.1))
    (fp_line (start 4.979849 14.993795) (end -3.851373 15.000483) (layer F.SilkS) (width 0.1))
    (fp_line (start -3.851373 15.000483) (end -3.849397 16.202736) (layer F.SilkS) (width 0.1))
    (fp_line (start -3.849397 16.202736) (end -12.930193 16.176658) (layer F.SilkS) (width 0.1))
    (fp_line (start -12.930193 16.176658) (end -12.916195 -14.993493) (layer F.SilkS) (width 0.1))
    (fp_line (start -12.916195 -14.993493) (end -12.683384 -15.596286) (layer F.SilkS) (width 0.1))
    (fp_line (start -12.683384 -15.596286) (end -12.399901 -16.141167) (layer F.SilkS) (width 0.1))
    (fp_line (start -12.399901 -16.141167) (end -12.065253 -16.627577) (layer F.SilkS) (width 0.1))
    (fp_line (start -12.065253 -16.627577) (end -11.678953 -17.054952) (layer F.SilkS) (width 0.1))
    (fp_line (start -11.678953 -17.054952) (end -11.240512 -17.422741) (layer F.SilkS) (width 0.1))
    (fp_line (start -11.240512 -17.422741) (end -10.74944 -17.730377) (layer F.SilkS) (width 0.1))
    (fp_line (start -10.74944 -17.730377) (end -10.20525 -17.97731) (layer F.SilkS) (width 0.1))
    (fp_line (start -10.20525 -17.97731) (end -9.607453 -18.162976) (layer F.SilkS) (width 0.1))
    (fp_line (start -9.607453 -18.162976) (end 9.43046 -18.191734) (layer F.SilkS) (width 0.1))
    (fp_line (start 9.43046 -18.191734) (end 10.049824 -17.957741) (layer F.SilkS) (width 0.1))
    (fp_line (start 10.049824 -17.957741) (end 10.638018 -17.673258) (layer F.SilkS) (width 0.1))
    (fp_line (start 10.638018 -17.673258) (end 11.181445 -17.323743) (layer F.SilkS) (width 0.1))
    (fp_line (start 11.181445 -17.323743) (end 11.666503 -16.894658) (layer F.SilkS) (width 0.1))
    (fp_line (start 11.666503 -16.894658) (end 12.079595 -16.37146) (layer F.SilkS) (width 0.1))
    (fp_line (start 12.079595 -16.37146) (end 12.407122 -15.739613) (layer F.SilkS) (width 0.1))
    (fp_line (start 12.407122 -15.739613) (end 12.635482 -14.984575) (layer F.SilkS) (width 0.1))
    (fp_line (start 12.635482 -14.984575) (end 12.751078 -14.091807) (layer F.SilkS) (width 0.1))
    (fp_line (start 12.751078 -14.091807) (end 12.776026 8.463285) (layer F.SilkS) (width 0.1))
    (fp_line (start 12.776026 8.463285) (end 10.83248 9.424181) (layer F.SilkS) (width 0.1))
    (fp_line (start 10.83248 9.424181) (end 10.802686 16.232524) (layer F.SilkS) (width 0.1))
    (fp_line (start -3.17965 10.051451) (end 3.959931 10.051451) (layer F.SilkS) (width 0.1))
    (fp_line (start 3.959931 10.051451) (end 3.959931 15.865188) (layer F.SilkS) (width 0.1))
    (fp_line (start 3.959931 15.865188) (end -3.17965 15.865188) (layer F.SilkS) (width 0.1))
    (fp_line (start -3.17965 15.865188) (end -3.17965 10.051451) (layer F.SilkS) (width 0.1))
    (fp_line (start 10.7436 9.402349) (end 9.191378 9.402349) (layer F.SilkS) (width 0.1))
    (fp_line (start 9.191378 9.402349) (end 8.662211 9.931515) (layer F.SilkS) (width 0.1))
    (fp_line (start 8.662211 9.931515) (end 7.40985 9.931515) (layer F.SilkS) (width 0.1))
    (fp_line (start 7.40985 9.931515) (end 7.40985 14.993876) (layer F.SilkS) (width 0.1))
    (fp_line (start 7.40985 14.993876) (end 8.697489 14.993876) (layer F.SilkS) (width 0.1))
    (fp_line (start 8.697489 14.993876) (end 9.226656 15.487765) (layer F.SilkS) (width 0.1))
    (fp_line (start 9.226656 15.487765) (end 10.796517 15.487765) (layer F.SilkS) (width 0.1))
    (fp_line (start 10.796517 15.487765) (end 10.7436 9.402349) (layer F.SilkS) (width 0.1))
    (fp_line (start 10.778878 11.483738) (end 11.431517 11.483738) (layer F.SilkS) (width 0.1))
    (fp_line (start 11.431517 11.483738) (end 11.431517 13.476932) (layer F.SilkS) (width 0.1))
    (fp_line (start 11.431517 13.476932) (end 10.814156 13.476932) (layer F.SilkS) (width 0.1))
    (pad 9 thru_hole circle (at -11.43 -10.16 270) (size 1.8 1.8) (drill 1.016) (layers *.Mask B.Cu F.SilkS)
      (net 18 "Net-(U2-Pad9)"))
    (pad 10 thru_hole circle (at -11.43 -7.62 270) (size 1.8 1.8) (drill 1.016) (layers *.Mask B.Cu F.SilkS)
      (net 17 "Net-(U2-Pad10)"))
    (pad 11 thru_hole circle (at -11.43 -5.08 270) (size 1.8 1.8) (drill 1.016) (layers *.Mask B.Cu F.SilkS)
      (net 30 "Net-(J4-Pad7)"))
    (pad 12 thru_hole circle (at -11.43 -2.54 270) (size 1.8 1.8) (drill 1.016) (layers *.Mask B.Cu F.SilkS)
      (net 11 "Net-(J4-Pad6)"))
    (pad 13 thru_hole circle (at -11.43 0 270) (size 1.8 1.8) (drill 1.016) (layers *.Mask B.Cu F.SilkS)
      (net 10 "Net-(J4-Pad5)"))
    (pad 14 thru_hole circle (at -11.43 2.54 270) (size 1.8 1.8) (drill 1.016) (layers *.Mask B.Cu F.SilkS)
      (net 9 "Net-(J4-Pad3)"))
    (pad 15 thru_hole circle (at -11.43 5.08 270) (size 1.8 1.8) (drill 1.016) (layers *.Mask B.Cu F.SilkS)
      (net 8 "Net-(J4-Pad4)"))
    (pad 16 thru_hole circle (at -11.43 7.62 270) (size 1.8 1.8) (drill 1.016) (layers *.Mask B.Cu F.SilkS)
      (net 12 "Net-(J4-Pad1)"))
    (pad 1 thru_hole circle (at 11.43 7.62 270) (size 1.8 1.8) (drill 1.016) (layers *.Mask B.Cu F.SilkS)
      (net 7 +5V))
    (pad 2 thru_hole circle (at 11.43 5.08 270) (size 1.8 1.8) (drill 1.016) (layers *.Mask B.Cu F.SilkS)
      (net 4 GND))
    (pad 3 thru_hole circle (at 11.43 2.54 270) (size 1.8 1.8) (drill 1.016) (layers *.Mask B.Cu F.SilkS)
      (net 29 "Net-(U2-Pad3)"))
    (pad 4 thru_hole circle (at 11.43 0 270) (size 1.8 1.8) (drill 1.016) (layers *.Mask B.Cu F.SilkS)
      (net 31 "Net-(J4-Pad8)"))
    (pad 5 thru_hole circle (at 11.43 -2.54 270) (size 1.8 1.8) (drill 1.016) (layers *.Mask B.Cu F.SilkS)
      (net 13 "Net-(U1-Pad1)"))
    (pad 6 thru_hole circle (at 11.43 -5.08 270) (size 1.8 1.8) (drill 1.016) (layers *.Mask B.Cu F.SilkS)
      (net 14 "Net-(U1-Pad2)"))
    (pad 7 thru_hole circle (at 11.43 -7.62 270) (size 1.8 1.8) (drill 1.016) (layers *.Mask B.Cu F.SilkS)
      (net 6 "Net-(J2-Pad2)"))
    (pad 8 thru_hole circle (at 11.43 -10.16 270) (size 1.8 1.8) (drill 1.016) (layers *.Mask B.Cu F.SilkS)
      (net 5 "Net-(J2-Pad1)"))
  )

  (module 3615_footprints:LSMD9DS1_Adafruit (layer F.Cu) (tedit 5B59E4BC) (tstamp 5B59E3EB)
    (at 134.493 56.896 90)
    (path /5B59A053)
    (fp_text reference U3 (at 17.78 2.54 90) (layer F.SilkS)
      (effects (font (size 1 1) (thickness 0.15)))
    )
    (fp_text value Adafruit_LSM9DS1_9dof (at 7.62 2.54 90) (layer F.Fab)
      (effects (font (size 1 1) (thickness 0.15)))
    )
    (fp_line (start -16.7 0) (end -16.7 -20) (layer F.SilkS) (width 0.15))
    (fp_line (start -16.7 -20) (end 16.7 -20) (layer F.SilkS) (width 0.15))
    (fp_line (start 16.7 -20) (end 16.7 0) (layer F.SilkS) (width 0.15))
    (fp_line (start -16.7 0) (end 16.7 0) (layer F.SilkS) (width 0.15))
    (pad 1 thru_hole circle (at -10.23 -2.8 90) (size 2 2) (drill 0.762) (layers *.Mask B.Cu)
      (net 7 +5V))
    (pad 2 thru_hole circle (at -7.69 -2.8 90) (size 2 2) (drill 0.762) (layers *.Mask B.Cu)
      (net 19 "Net-(U3-Pad2)"))
    (pad 3 thru_hole circle (at -5.15 -2.8 90) (size 2 2) (drill 0.762) (layers *.Mask B.Cu)
      (net 4 GND))
    (pad 4 thru_hole circle (at -2.61 -2.8 90) (size 2 2) (drill 0.762) (layers *.Mask B.Cu)
      (net 14 "Net-(U1-Pad2)"))
    (pad 5 thru_hole circle (at -0.07 -2.8 90) (size 2 2) (drill 0.762) (layers *.Mask B.Cu)
      (net 13 "Net-(U1-Pad1)"))
    (pad 6 thru_hole circle (at 2.47 -2.8 90) (size 2 2) (drill 0.762) (layers *.Mask B.Cu)
      (net 20 "Net-(U3-Pad6)"))
    (pad 7 thru_hole circle (at 5.01 -2.8 90) (size 2 2) (drill 0.762) (layers *.Mask B.Cu)
      (net 21 "Net-(U3-Pad7)"))
    (pad 8 thru_hole circle (at 7.55 -2.8 90) (size 2 2) (drill 0.762) (layers *.Mask B.Cu)
      (net 22 "Net-(U3-Pad8)"))
    (pad 9 thru_hole circle (at 10.09 -2.8 90) (size 2 2) (drill 0.762) (layers *.Mask B.Cu)
      (net 23 "Net-(U3-Pad9)"))
    (pad 10 thru_hole circle (at -5.12 -17.2 90) (size 2 2) (drill 0.762) (layers *.Mask B.Cu)
      (net 24 "Net-(U3-Pad10)"))
    (pad 11 thru_hole circle (at -2.58 -17.2 90) (size 2 2) (drill 0.762) (layers *.Mask B.Cu)
      (net 25 "Net-(U3-Pad11)"))
    (pad 12 thru_hole circle (at -0.04 -17.2 90) (size 2 2) (drill 0.762) (layers *.Mask B.Cu)
      (net 26 "Net-(U3-Pad12)"))
    (pad 13 thru_hole circle (at 2.5 -17.2 90) (size 2 2) (drill 0.762) (layers *.Mask B.Cu)
      (net 27 "Net-(U3-Pad13)"))
    (pad 14 thru_hole circle (at 5.04 -17.2 90) (size 2 2) (drill 0.762) (layers *.Mask B.Cu)
      (net 28 "Net-(U3-Pad14)"))
  )

  (module Nokia5110 (layer F.Cu) (tedit 5B5AEFB7) (tstamp 5B59E3B3)
    (at 123.825 81.534)
    (path /5B5996D2)
    (fp_text reference J4 (at -10.16 -43.18) (layer F.SilkS)
      (effects (font (size 1 1) (thickness 0.15)))
    )
    (fp_text value LCD5110 (at -16.51 -43.18) (layer F.Fab)
      (effects (font (size 1 1) (thickness 0.15)))
    )
    (fp_line (start -20.86 -44.17) (end 20.86 -44.17) (layer F.SilkS) (width 0.15))
    (fp_line (start 20.86 -44.17) (end 20.86 0) (layer F.SilkS) (width 0.15))
    (fp_line (start -20.86 0) (end 20.86 0) (layer F.SilkS) (width 0.15))
    (fp_line (start -20.86 -44.17) (end -20.86 0) (layer F.SilkS) (width 0.15))
    (pad 4 thru_hole circle (at -9.36 -1.84) (size 2 2) (drill 0.762) (layers *.Mask B.Cu)
      (net 8 "Net-(J4-Pad4)"))
    (pad 3 thru_hole circle (at -6.82 -1.84) (size 2 2) (drill 0.762) (layers *.Mask B.Cu)
      (net 9 "Net-(J4-Pad3)"))
    (pad 5 thru_hole circle (at -4.28 -1.84) (size 2 2) (drill 0.762) (layers *.Mask B.Cu)
      (net 10 "Net-(J4-Pad5)"))
    (pad 6 thru_hole circle (at -1.74 -1.84) (size 2 2) (drill 0.762) (layers *.Mask B.Cu)
      (net 11 "Net-(J4-Pad6)"))
    (pad 7 thru_hole circle (at 0.8 -1.84) (size 2 2) (drill 0.762) (layers *.Mask B.Cu)
      (net 30 "Net-(J4-Pad7)"))
    (pad 1 thru_hole circle (at 3.34 -1.84) (size 2 2) (drill 0.762) (layers *.Mask B.Cu)
      (net 12 "Net-(J4-Pad1)"))
    (pad 8 thru_hole circle (at 5.88 -1.84) (size 2 2) (drill 0.762) (layers *.Mask B.Cu)
      (net 31 "Net-(J4-Pad8)"))
    (pad 2 thru_hole circle (at 8.42 -1.84) (size 2 2) (drill 0.762) (layers *.Mask B.Cu)
      (net 4 GND))
  )

  (module Pin_Headers:Pin_Header_Angled_1x02_Pitch2.54mm (layer F.Cu) (tedit 5B59E531) (tstamp 5B59E3A7)
    (at 121.285 112.268 270)
    (descr "Through hole angled pin header, 1x02, 2.54mm pitch, 6mm pin length, single row")
    (tags "Through hole angled pin header THT 1x02 2.54mm single row")
    (path /5B59DF79)
    (fp_text reference J3 (at 4.385 -2.27 270) (layer F.SilkS)
      (effects (font (size 1 1) (thickness 0.15)))
    )
    (fp_text value Conn_01x02 (at 4.385 4.81 270) (layer F.Fab)
      (effects (font (size 1 1) (thickness 0.15)))
    )
    (fp_line (start 2.135 -1.27) (end 4.04 -1.27) (layer F.Fab) (width 0.1))
    (fp_line (start 4.04 -1.27) (end 4.04 3.81) (layer F.Fab) (width 0.1))
    (fp_line (start 4.04 3.81) (end 1.5 3.81) (layer F.Fab) (width 0.1))
    (fp_line (start 1.5 3.81) (end 1.5 -0.635) (layer F.Fab) (width 0.1))
    (fp_line (start 1.5 -0.635) (end 2.135 -1.27) (layer F.Fab) (width 0.1))
    (fp_line (start -0.32 -0.32) (end 1.5 -0.32) (layer F.Fab) (width 0.1))
    (fp_line (start -0.32 -0.32) (end -0.32 0.32) (layer F.Fab) (width 0.1))
    (fp_line (start -0.32 0.32) (end 1.5 0.32) (layer F.Fab) (width 0.1))
    (fp_line (start 4.04 -0.32) (end 10.04 -0.32) (layer F.Fab) (width 0.1))
    (fp_line (start 10.04 -0.32) (end 10.04 0.32) (layer F.Fab) (width 0.1))
    (fp_line (start 4.04 0.32) (end 10.04 0.32) (layer F.Fab) (width 0.1))
    (fp_line (start -0.32 2.22) (end 1.5 2.22) (layer F.Fab) (width 0.1))
    (fp_line (start -0.32 2.22) (end -0.32 2.86) (layer F.Fab) (width 0.1))
    (fp_line (start -0.32 2.86) (end 1.5 2.86) (layer F.Fab) (width 0.1))
    (fp_line (start 4.04 2.22) (end 10.04 2.22) (layer F.Fab) (width 0.1))
    (fp_line (start 10.04 2.22) (end 10.04 2.86) (layer F.Fab) (width 0.1))
    (fp_line (start 4.04 2.86) (end 10.04 2.86) (layer F.Fab) (width 0.1))
    (fp_line (start 1.44 -1.33) (end 1.44 3.87) (layer F.SilkS) (width 0.12))
    (fp_line (start 1.44 3.87) (end 4.1 3.87) (layer F.SilkS) (width 0.12))
    (fp_line (start 4.1 3.87) (end 4.1 -1.33) (layer F.SilkS) (width 0.12))
    (fp_line (start 4.1 -1.33) (end 1.44 -1.33) (layer F.SilkS) (width 0.12))
    (fp_line (start 4.1 -0.38) (end 10.1 -0.38) (layer F.SilkS) (width 0.12))
    (fp_line (start 10.1 -0.38) (end 10.1 0.38) (layer F.SilkS) (width 0.12))
    (fp_line (start 10.1 0.38) (end 4.1 0.38) (layer F.SilkS) (width 0.12))
    (fp_line (start 4.1 -0.32) (end 10.1 -0.32) (layer F.SilkS) (width 0.12))
    (fp_line (start 4.1 -0.2) (end 10.1 -0.2) (layer F.SilkS) (width 0.12))
    (fp_line (start 4.1 -0.08) (end 10.1 -0.08) (layer F.SilkS) (width 0.12))
    (fp_line (start 4.1 0.04) (end 10.1 0.04) (layer F.SilkS) (width 0.12))
    (fp_line (start 4.1 0.16) (end 10.1 0.16) (layer F.SilkS) (width 0.12))
    (fp_line (start 4.1 0.28) (end 10.1 0.28) (layer F.SilkS) (width 0.12))
    (fp_line (start 1.11 -0.38) (end 1.44 -0.38) (layer F.SilkS) (width 0.12))
    (fp_line (start 1.11 0.38) (end 1.44 0.38) (layer F.SilkS) (width 0.12))
    (fp_line (start 1.44 1.27) (end 4.1 1.27) (layer F.SilkS) (width 0.12))
    (fp_line (start 4.1 2.16) (end 10.1 2.16) (layer F.SilkS) (width 0.12))
    (fp_line (start 10.1 2.16) (end 10.1 2.92) (layer F.SilkS) (width 0.12))
    (fp_line (start 10.1 2.92) (end 4.1 2.92) (layer F.SilkS) (width 0.12))
    (fp_line (start 1.042929 2.16) (end 1.44 2.16) (layer F.SilkS) (width 0.12))
    (fp_line (start 1.042929 2.92) (end 1.44 2.92) (layer F.SilkS) (width 0.12))
    (fp_line (start -1.27 0) (end -1.27 -1.27) (layer F.SilkS) (width 0.12))
    (fp_line (start -1.27 -1.27) (end 0 -1.27) (layer F.SilkS) (width 0.12))
    (fp_line (start -1.8 -1.8) (end -1.8 4.35) (layer F.CrtYd) (width 0.05))
    (fp_line (start -1.8 4.35) (end 10.55 4.35) (layer F.CrtYd) (width 0.05))
    (fp_line (start 10.55 4.35) (end 10.55 -1.8) (layer F.CrtYd) (width 0.05))
    (fp_line (start 10.55 -1.8) (end -1.8 -1.8) (layer F.CrtYd) (width 0.05))
    (fp_text user %R (at 2.77 1.27 360) (layer F.Fab)
      (effects (font (size 1 1) (thickness 0.15)))
    )
    (pad 1 thru_hole rect (at 0 0 270) (size 1.7 1.7) (drill 1) (layers *.Mask B.Cu)
      (net 4 GND))
    (pad 2 thru_hole oval (at 0 2.54 270) (size 1.7 1.7) (drill 1) (layers *.Mask B.Cu)
      (net 7 +5V))
    (model ${KISYS3DMOD}/Pin_Headers.3dshapes/Pin_Header_Angled_1x02_Pitch2.54mm.wrl
      (at (xyz 0 0 0))
      (scale (xyz 1 1 1))
      (rotate (xyz 0 0 0))
    )
  )

  (module 3615_footprints:TEA5767_SMD (layer B.Cu) (tedit 56675FD4) (tstamp 5B59E3C1)
    (at 111.379 71.247 180)
    (path /5B5996A3)
    (fp_text reference U1 (at 0 6.5 180) (layer B.SilkS)
      (effects (font (size 1 1) (thickness 0.15)) (justify mirror))
    )
    (fp_text value TEA5767 (at -1 8 180) (layer B.SilkS)
      (effects (font (size 1 1) (thickness 0.15)) (justify mirror))
    )
    (fp_line (start -5.5 -5.5) (end 5.5 -5.5) (layer B.SilkS) (width 0.15))
    (fp_line (start 5.5 -5.5) (end 5.5 5.5) (layer B.SilkS) (width 0.15))
    (fp_line (start 5.5 5.5) (end -5.5 5.5) (layer B.SilkS) (width 0.15))
    (fp_line (start -5.5 5.5) (end -5.5 -5.5) (layer B.SilkS) (width 0.15))
    (pad 1 smd oval (at -5.5 4 180) (size 3 1.5) (layers B.Cu B.Paste B.Mask)
      (net 13 "Net-(U1-Pad1)"))
    (pad 2 smd oval (at -5.5 2 180) (size 3 1.5) (layers B.Cu B.Paste B.Mask)
      (net 14 "Net-(U1-Pad2)"))
    (pad 3 smd oval (at -5.5 0 180) (size 3 1.5) (layers B.Cu B.Paste B.Mask)
      (net 4 GND))
    (pad 4 smd oval (at -5.5 -2 180) (size 3 1.5) (layers B.Cu B.Paste B.Mask)
      (net 15 "Net-(U1-Pad4)"))
    (pad 5 smd oval (at -5.5 -4 180) (size 3 1.5) (layers B.Cu B.Paste B.Mask)
      (net 12 "Net-(J4-Pad1)"))
    (pad 6 smd oval (at 5.5 -4 180) (size 3 1.5) (layers B.Cu B.Paste B.Mask)
      (net 4 GND))
    (pad 7 smd oval (at 5.5 -2 180) (size 3 1.5) (layers B.Cu B.Paste B.Mask)
      (net 3 "Net-(J1-Pad3)"))
    (pad 8 smd oval (at 5.5 0 180) (size 3 1.5) (layers B.Cu B.Paste B.Mask)
      (net 2 "Net-(J1-Pad2)"))
    (pad 9 smd oval (at 5.5 2 180) (size 3 1.5) (layers B.Cu B.Paste B.Mask)
      (net 16 "Net-(U1-Pad9)"))
    (pad 10 smd oval (at 5.5 4 180) (size 3 1.5) (layers B.Cu B.Paste B.Mask)
      (net 1 "Net-(J1-Pad1)"))
  )

  (gr_line (start 98 117) (end 98 35) (angle 90) (layer Edge.Cuts) (width 0.15))
  (gr_line (start 148 117) (end 98 117) (angle 90) (layer Edge.Cuts) (width 0.15))
  (gr_line (start 148 35) (end 148 117) (angle 90) (layer Edge.Cuts) (width 0.15))
  (gr_line (start 98 35) (end 148 35) (angle 90) (layer Edge.Cuts) (width 0.15))

  (segment (start 101.092 67.31) (end 105.816 67.31) (width 0.5) (layer B.Cu) (net 1))
  (segment (start 105.816 67.31) (end 105.879 67.247) (width 0.5) (layer B.Cu) (net 1) (tstamp 5B5B1A0B))
  (segment (start 101.092 69.85) (end 102.108 69.85) (width 0.5) (layer B.Cu) (net 2))
  (segment (start 103.505 71.247) (end 105.879 71.247) (width 0.5) (layer B.Cu) (net 2) (tstamp 5B5B1A0F))
  (segment (start 102.108 69.85) (end 103.505 71.247) (width 0.5) (layer B.Cu) (net 2) (tstamp 5B5B1A0E))
  (segment (start 101.092 72.39) (end 102.108 72.39) (width 0.5) (layer B.Cu) (net 3))
  (segment (start 102.965 73.247) (end 105.879 73.247) (width 0.5) (layer B.Cu) (net 3) (tstamp 5B5B1A13))
  (segment (start 102.108 72.39) (end 102.965 73.247) (width 0.5) (layer B.Cu) (net 3) (tstamp 5B5B1A12))
  (segment (start 101.092 74.93) (end 102.616 74.93) (width 0.5) (layer B.Cu) (net 4))
  (segment (start 102.933 75.247) (end 105.879 75.247) (width 0.5) (layer B.Cu) (net 4) (tstamp 5B5B1A17))
  (segment (start 102.616 74.93) (end 102.933 75.247) (width 0.5) (layer B.Cu) (net 4) (tstamp 5B5B1A16))
  (segment (start 126.492 71.247) (end 126.492 67.247) (width 0.5) (layer B.Cu) (net 4))
  (segment (start 126.492 67.247) (end 131.693 62.046) (width 0.5) (layer B.Cu) (net 4) (tstamp 5B5B17D1))
  (segment (start 132.245 79.694) (end 132.245 77) (width 0.5) (layer B.Cu) (net 4))
  (segment (start 126.492 71.247) (end 116.879 71.247) (width 0.5) (layer B.Cu) (net 4) (tstamp 5B5B17CD))
  (segment (start 132.245 77) (end 126.492 71.247) (width 0.5) (layer B.Cu) (net 4) (tstamp 5B5B17CB))
  (segment (start 121.285 112.268) (end 138.684 112.268) (width 0.5) (layer B.Cu) (net 4))
  (segment (start 137.352 79.694) (end 132.245 79.694) (width 0.5) (layer B.Cu) (net 4) (tstamp 5B5B1786))
  (segment (start 141.224 83.566) (end 137.352 79.694) (width 0.5) (layer B.Cu) (net 4) (tstamp 5B5B1784))
  (segment (start 141.224 109.728) (end 141.224 83.566) (width 0.5) (layer B.Cu) (net 4) (tstamp 5B5B1782))
  (segment (start 138.684 112.268) (end 141.224 109.728) (width 0.5) (layer B.Cu) (net 4) (tstamp 5B5B1781))
  (segment (start 121.285 112.268) (end 121.285 108.077) (width 0.5) (layer B.Cu) (net 4))
  (segment (start 105.879 75.247) (end 105.879 76.366) (width 0.5) (layer B.Cu) (net 4))
  (segment (start 105.879 76.366) (end 104.013 78.232) (width 0.5) (layer B.Cu) (net 4) (tstamp 5B5B15AD))
  (segment (start 104.013 78.232) (end 104.013 104.394) (width 0.5) (layer B.Cu) (net 4) (tstamp 5B5B15B1))
  (segment (start 104.013 104.394) (end 105.791 106.172) (width 0.5) (layer B.Cu) (net 4) (tstamp 5B5B15BA))
  (segment (start 105.791 106.172) (end 119.38 106.172) (width 0.5) (layer B.Cu) (net 4) (tstamp 5B5B15BC))
  (segment (start 119.38 106.172) (end 121.285 108.077) (width 0.5) (layer B.Cu) (net 4) (tstamp 5B5B15BD))
  (segment (start 121.412 112.141) (end 121.285 112.268) (width 0.25) (layer B.Cu) (net 4) (tstamp 5B5B0822) (status 30))
  (segment (start 108.458 84.582) (end 109.982 84.582) (width 0.5) (layer B.Cu) (net 5))
  (segment (start 136.525 101.346) (end 136.525 108.077) (width 0.5) (layer B.Cu) (net 5) (tstamp 5B5B1729))
  (segment (start 128.524 93.345) (end 136.525 101.346) (width 0.5) (layer B.Cu) (net 5) (tstamp 5B5B1727))
  (segment (start 118.745 93.345) (end 128.524 93.345) (width 0.5) (layer B.Cu) (net 5) (tstamp 5B5B1725))
  (segment (start 109.982 84.582) (end 118.745 93.345) (width 0.5) (layer B.Cu) (net 5) (tstamp 5B5B1724))
  (segment (start 108.458 87.122) (end 109.982 87.122) (width 0.5) (layer B.Cu) (net 6))
  (segment (start 133.985 102.235) (end 133.985 108.077) (width 0.5) (layer B.Cu) (net 6) (tstamp 5B5B1732))
  (segment (start 126.746 94.996) (end 133.985 102.235) (width 0.5) (layer B.Cu) (net 6) (tstamp 5B5B1730))
  (segment (start 117.856 94.996) (end 126.746 94.996) (width 0.5) (layer B.Cu) (net 6) (tstamp 5B5B172E))
  (segment (start 109.982 87.122) (end 117.856 94.996) (width 0.5) (layer B.Cu) (net 6) (tstamp 5B5B172D))
  (segment (start 118.745 112.268) (end 118.745 113.157) (width 0.5) (layer B.Cu) (net 7))
  (segment (start 131.693 71.495) (end 131.693 67.126) (width 0.5) (layer B.Cu) (net 7) (tstamp 5B5B17ED))
  (segment (start 143.129 82.931) (end 131.693 71.495) (width 0.5) (layer B.Cu) (net 7) (tstamp 5B5B17EB))
  (segment (start 143.129 110.363) (end 143.129 82.931) (width 0.5) (layer B.Cu) (net 7) (tstamp 5B5B17E9))
  (segment (start 139.192 114.3) (end 143.129 110.363) (width 0.5) (layer B.Cu) (net 7) (tstamp 5B5B17E7))
  (segment (start 119.888 114.3) (end 139.192 114.3) (width 0.5) (layer B.Cu) (net 7) (tstamp 5B5B17E6))
  (segment (start 118.745 113.157) (end 119.888 114.3) (width 0.5) (layer B.Cu) (net 7) (tstamp 5B5B17E5))
  (segment (start 118.745 112.268) (end 118.745 108.077) (width 0.5) (layer B.Cu) (net 7))
  (segment (start 118.618 108.204) (end 118.745 108.077) (width 0.25) (layer B.Cu) (net 7) (tstamp 5B5B07C3))
  (segment (start 114.465 79.694) (end 114.465 82.207) (width 0.5) (layer B.Cu) (net 8))
  (segment (start 119.761 83.693) (end 121.285 85.217) (width 0.5) (layer B.Cu) (net 8) (tstamp 5B5B17A0))
  (segment (start 115.951 83.693) (end 119.761 83.693) (width 0.5) (layer B.Cu) (net 8) (tstamp 5B5B179F))
  (segment (start 114.465 82.207) (end 115.951 83.693) (width 0.5) (layer B.Cu) (net 8) (tstamp 5B5B179E))
  (segment (start 117.005 79.694) (end 117.005 82.08) (width 0.5) (layer B.Cu) (net 9))
  (segment (start 121.158 82.55) (end 123.825 85.217) (width 0.5) (layer B.Cu) (net 9) (tstamp 5B5B17A5))
  (segment (start 117.475 82.55) (end 121.158 82.55) (width 0.5) (layer B.Cu) (net 9) (tstamp 5B5B17A4))
  (segment (start 117.005 82.08) (end 117.475 82.55) (width 0.5) (layer B.Cu) (net 9) (tstamp 5B5B17A3))
  (segment (start 119.545 79.694) (end 119.699 79.694) (width 0.5) (layer B.Cu) (net 10))
  (segment (start 119.699 79.694) (end 122.301 82.296) (width 0.5) (layer B.Cu) (net 10) (tstamp 5B5B17A9))
  (segment (start 123.444 82.296) (end 126.365 85.217) (width 0.5) (layer B.Cu) (net 10) (tstamp 5B5B17AB))
  (segment (start 122.301 82.296) (end 123.444 82.296) (width 0.5) (layer B.Cu) (net 10) (tstamp 5B5B17AA))
  (segment (start 119.545 79.694) (end 119.826 79.694) (width 0.25) (layer B.Cu) (net 10))
  (segment (start 122.085 79.694) (end 122.239 79.694) (width 0.5) (layer B.Cu) (net 11))
  (segment (start 122.239 79.694) (end 124.714 82.169) (width 0.5) (layer B.Cu) (net 11) (tstamp 5B5B17AE))
  (segment (start 125.857 82.169) (end 128.905 85.217) (width 0.5) (layer B.Cu) (net 11) (tstamp 5B5B17B0))
  (segment (start 124.714 82.169) (end 125.857 82.169) (width 0.5) (layer B.Cu) (net 11) (tstamp 5B5B17AF))
  (segment (start 122.085 79.694) (end 122.085 80.302) (width 0.25) (layer B.Cu) (net 11))
  (segment (start 116.879 75.247) (end 120.967 75.247) (width 0.5) (layer B.Cu) (net 12))
  (segment (start 124.56 77.089) (end 127.165 79.694) (width 0.5) (layer B.Cu) (net 12) (tstamp 5B5B17C5))
  (segment (start 122.809 77.089) (end 124.56 77.089) (width 0.5) (layer B.Cu) (net 12) (tstamp 5B5B17C4))
  (segment (start 120.967 75.247) (end 122.809 77.089) (width 0.5) (layer B.Cu) (net 12) (tstamp 5B5B17C3))
  (segment (start 116.879 75.247) (end 114.618 75.247) (width 0.5) (layer B.Cu) (net 12))
  (segment (start 113.284 85.217) (end 118.745 85.217) (width 0.5) (layer B.Cu) (net 12) (tstamp 5B5B17BF))
  (segment (start 111.633 83.566) (end 113.284 85.217) (width 0.5) (layer B.Cu) (net 12) (tstamp 5B5B17BE))
  (segment (start 111.633 78.232) (end 111.633 83.566) (width 0.5) (layer B.Cu) (net 12) (tstamp 5B5B17BC))
  (segment (start 114.618 75.247) (end 111.633 78.232) (width 0.5) (layer B.Cu) (net 12) (tstamp 5B5B17BA))
  (segment (start 116.879 67.247) (end 122.745 67.247) (width 0.5) (layer B.Cu) (net 13))
  (segment (start 127 61.659) (end 131.693 56.966) (width 0.5) (layer B.Cu) (net 13) (tstamp 5B5B17E1))
  (segment (start 127 62.992) (end 127 61.659) (width 0.5) (layer B.Cu) (net 13) (tstamp 5B5B17DF))
  (segment (start 122.745 67.247) (end 127 62.992) (width 0.5) (layer B.Cu) (net 13) (tstamp 5B5B17DD))
  (segment (start 116.879 67.247) (end 110.045 67.247) (width 0.5) (layer B.Cu) (net 13))
  (segment (start 125.476 104.648) (end 128.905 108.077) (width 0.5) (layer B.Cu) (net 13) (tstamp 5B5B15DC))
  (segment (start 106.426 104.648) (end 125.476 104.648) (width 0.5) (layer B.Cu) (net 13) (tstamp 5B5B15DA))
  (segment (start 105.283 103.505) (end 106.426 104.648) (width 0.5) (layer B.Cu) (net 13) (tstamp 5B5B15D9))
  (segment (start 105.283 78.994) (end 105.283 103.505) (width 0.5) (layer B.Cu) (net 13) (tstamp 5B5B15CE))
  (segment (start 108.204 76.073) (end 105.283 78.994) (width 0.5) (layer B.Cu) (net 13) (tstamp 5B5B15CA))
  (segment (start 108.204 69.088) (end 108.204 76.073) (width 0.5) (layer B.Cu) (net 13) (tstamp 5B5B15C8))
  (segment (start 110.045 67.247) (end 108.204 69.088) (width 0.5) (layer B.Cu) (net 13) (tstamp 5B5B15C7))
  (segment (start 116.879 69.247) (end 123.031 69.247) (width 0.5) (layer B.Cu) (net 14))
  (segment (start 128.397 62.802) (end 131.693 59.506) (width 0.5) (layer B.Cu) (net 14) (tstamp 5B5B17DA))
  (segment (start 128.397 63.881) (end 128.397 62.802) (width 0.5) (layer B.Cu) (net 14) (tstamp 5B5B17D8))
  (segment (start 123.031 69.247) (end 128.397 63.881) (width 0.5) (layer B.Cu) (net 14) (tstamp 5B5B17D7))
  (segment (start 116.879 69.247) (end 110.331 69.247) (width 0.5) (layer B.Cu) (net 14))
  (segment (start 126.492 103.124) (end 131.445 108.077) (width 0.5) (layer B.Cu) (net 14) (tstamp 5B5B15EA))
  (segment (start 107.188 103.124) (end 126.492 103.124) (width 0.5) (layer B.Cu) (net 14) (tstamp 5B5B15E9))
  (segment (start 106.68 102.616) (end 107.188 103.124) (width 0.5) (layer B.Cu) (net 14) (tstamp 5B5B15E8))
  (segment (start 106.68 79.629) (end 106.68 102.616) (width 0.5) (layer B.Cu) (net 14) (tstamp 5B5B15E6))
  (segment (start 109.601 76.708) (end 106.68 79.629) (width 0.5) (layer B.Cu) (net 14) (tstamp 5B5B15E3))
  (segment (start 109.601 69.977) (end 109.601 76.708) (width 0.5) (layer B.Cu) (net 14) (tstamp 5B5B15E2))
  (segment (start 110.331 69.247) (end 109.601 69.977) (width 0.5) (layer B.Cu) (net 14) (tstamp 5B5B15E1))
  (segment (start 124.625 79.694) (end 124.779 79.694) (width 0.5) (layer B.Cu) (net 30))
  (segment (start 124.779 79.694) (end 127.254 82.169) (width 0.5) (layer B.Cu) (net 30) (tstamp 5B5B17B3))
  (segment (start 128.397 82.169) (end 131.445 85.217) (width 0.5) (layer B.Cu) (net 30) (tstamp 5B5B17B6))
  (segment (start 127.254 82.169) (end 128.397 82.169) (width 0.5) (layer B.Cu) (net 30) (tstamp 5B5B17B4))
  (segment (start 124.625 79.694) (end 124.906 79.694) (width 0.25) (layer B.Cu) (net 30))
  (segment (start 126.365 108.077) (end 126.365 109.22) (width 0.5) (layer B.Cu) (net 31))
  (segment (start 132.561 82.55) (end 129.705 79.694) (width 0.5) (layer B.Cu) (net 31) (tstamp 5B5B1794))
  (segment (start 137.414 82.55) (end 132.561 82.55) (width 0.5) (layer B.Cu) (net 31) (tstamp 5B5B1792))
  (segment (start 139.446 84.582) (end 137.414 82.55) (width 0.5) (layer B.Cu) (net 31) (tstamp 5B5B1790))
  (segment (start 139.446 108.839) (end 139.446 84.582) (width 0.5) (layer B.Cu) (net 31) (tstamp 5B5B178F))
  (segment (start 137.541 110.744) (end 139.446 108.839) (width 0.5) (layer B.Cu) (net 31) (tstamp 5B5B178D))
  (segment (start 127.889 110.744) (end 137.541 110.744) (width 0.5) (layer B.Cu) (net 31) (tstamp 5B5B178C))
  (segment (start 126.365 109.22) (end 127.889 110.744) (width 0.5) (layer B.Cu) (net 31) (tstamp 5B5B178B))

  (zone (net 4) (net_name GND) (layer B.Cu) (tstamp 5B5F0CE0) (hatch edge 0.508)
    (connect_pads (clearance 0.508))
    (min_thickness 0.254)
    (fill yes (arc_segments 16) (thermal_gap 0.508) (thermal_bridge_width 0.508))
    (polygon
      (pts
        (xy 98.933 35.941) (xy 146.685 36.449) (xy 146.685 115.697) (xy 99.441 115.697)
      )
    )
    (filled_polygon
      (pts
        (xy 146.558 36.574656) (xy 146.558 115.57) (xy 99.567193 115.57) (xy 99.521404 108.380991) (xy 117.209735 108.380991)
        (xy 117.442932 108.945371) (xy 117.86 109.363169) (xy 117.86 111.078568) (xy 117.694946 111.188853) (xy 117.373039 111.670622)
        (xy 117.26 112.238907) (xy 117.26 112.297093) (xy 117.373039 112.865378) (xy 117.694946 113.347147) (xy 117.935539 113.507906)
        (xy 118.04666 113.67421) (xy 118.11921 113.78279) (xy 119.262208 114.925787) (xy 119.26221 114.92579) (xy 119.549325 115.117633)
        (xy 119.888 115.185001) (xy 119.888005 115.185) (xy 139.191995 115.185) (xy 139.192 115.185001) (xy 139.474484 115.12881)
        (xy 139.530675 115.117633) (xy 139.81779 114.92579) (xy 139.817791 114.925789) (xy 143.754787 110.988792) (xy 143.75479 110.98879)
        (xy 143.946633 110.701675) (xy 143.95781 110.645484) (xy 144.014001 110.363) (xy 144.014 110.362995) (xy 144.014 82.931)
        (xy 143.946633 82.592325) (xy 143.75479 82.30521) (xy 143.754787 82.305208) (xy 132.578 71.12842) (xy 132.578 68.529398)
        (xy 132.617943 68.512894) (xy 133.078278 68.053363) (xy 133.327716 67.452648) (xy 133.328284 66.802205) (xy 133.079894 66.201057)
        (xy 132.735241 65.855801) (xy 133.078278 65.513363) (xy 133.327716 64.912648) (xy 133.328284 64.262205) (xy 133.079894 63.661057)
        (xy 132.653022 63.233438) (xy 132.665927 63.198532) (xy 131.693 62.225605) (xy 130.720073 63.198532) (xy 130.733164 63.233938)
        (xy 130.307722 63.658637) (xy 130.058284 64.259352) (xy 130.057716 64.909795) (xy 130.306106 65.510943) (xy 130.650759 65.856199)
        (xy 130.307722 66.198637) (xy 130.058284 66.799352) (xy 130.057716 67.449795) (xy 130.306106 68.050943) (xy 130.765637 68.511278)
        (xy 130.808 68.528869) (xy 130.808 71.494995) (xy 130.807999 71.495) (xy 130.861549 71.76421) (xy 130.875367 71.833675)
        (xy 130.901503 71.87279) (xy 131.06721 72.12079) (xy 142.244 83.297579) (xy 142.244 109.996421) (xy 138.82542 113.415)
        (xy 122.699297 113.415) (xy 122.77 113.244309) (xy 122.77 112.55375) (xy 122.61125 112.395) (xy 121.412 112.395)
        (xy 121.412 112.415) (xy 121.158 112.415) (xy 121.158 112.395) (xy 121.138 112.395) (xy 121.138 112.141)
        (xy 121.158 112.141) (xy 121.158 110.94175) (xy 121.412 110.94175) (xy 121.412 112.141) (xy 122.61125 112.141)
        (xy 122.77 111.98225) (xy 122.77 111.291691) (xy 122.673327 111.058302) (xy 122.494699 110.879673) (xy 122.26131 110.783)
        (xy 121.57075 110.783) (xy 121.412 110.94175) (xy 121.158 110.94175) (xy 120.99925 110.783) (xy 120.30869 110.783)
        (xy 120.075301 110.879673) (xy 119.896673 111.058302) (xy 119.824403 111.232777) (xy 119.795054 111.188853) (xy 119.63 111.078568)
        (xy 119.63 109.362468) (xy 119.835668 109.157159) (xy 120.384446 109.157159) (xy 120.470852 109.413643) (xy 121.044336 109.623458)
        (xy 121.65446 109.597839) (xy 122.099148 109.413643) (xy 122.185554 109.157159) (xy 121.285 108.256605) (xy 120.384446 109.157159)
        (xy 119.835668 109.157159) (xy 120.045551 108.947643) (xy 120.054203 108.926806) (xy 120.204841 108.977554) (xy 121.105395 108.077)
        (xy 120.204841 107.176446) (xy 120.054673 107.227035) (xy 120.047068 107.208629) (xy 119.83565 106.996841) (xy 120.384446 106.996841)
        (xy 121.285 107.897395) (xy 122.185554 106.996841) (xy 122.099148 106.740357) (xy 121.525664 106.530542) (xy 120.91554 106.556161)
        (xy 120.470852 106.740357) (xy 120.384446 106.996841) (xy 119.83565 106.996841) (xy 119.615643 106.776449) (xy 119.05167 106.542267)
        (xy 118.441009 106.541735) (xy 117.876629 106.774932) (xy 117.444449 107.206357) (xy 117.210267 107.77033) (xy 117.209735 108.380991)
        (xy 99.521404 108.380991) (xy 99.310161 75.21575) (xy 99.607 75.21575) (xy 99.607 75.90631) (xy 99.703673 76.139699)
        (xy 99.882302 76.318327) (xy 100.115691 76.415) (xy 100.80625 76.415) (xy 100.965 76.25625) (xy 100.965 75.057)
        (xy 101.219 75.057) (xy 101.219 76.25625) (xy 101.37775 76.415) (xy 102.068309 76.415) (xy 102.301698 76.318327)
        (xy 102.480327 76.139699) (xy 102.577 75.90631) (xy 102.577 75.588185) (xy 103.786682 75.588185) (xy 103.800827 75.659684)
        (xy 104.059855 76.13654) (xy 104.481651 76.477972) (xy 105.002 76.632) (xy 105.752 76.632) (xy 105.752 75.374)
        (xy 103.909344 75.374) (xy 103.786682 75.588185) (xy 102.577 75.588185) (xy 102.577 75.21575) (xy 102.41825 75.057)
        (xy 101.219 75.057) (xy 100.965 75.057) (xy 99.76575 75.057) (xy 99.607 75.21575) (xy 99.310161 75.21575)
        (xy 99.259805 67.31) (xy 99.577907 67.31) (xy 99.690946 67.878285) (xy 100.012853 68.360054) (xy 100.342026 68.58)
        (xy 100.012853 68.799946) (xy 99.690946 69.281715) (xy 99.577907 69.85) (xy 99.690946 70.418285) (xy 100.012853 70.900054)
        (xy 100.342026 71.12) (xy 100.012853 71.339946) (xy 99.690946 71.821715) (xy 99.577907 72.39) (xy 99.690946 72.958285)
        (xy 100.012853 73.440054) (xy 100.056777 73.469403) (xy 99.882302 73.541673) (xy 99.703673 73.720301) (xy 99.607 73.95369)
        (xy 99.607 74.64425) (xy 99.76575 74.803) (xy 100.965 74.803) (xy 100.965 74.783) (xy 101.219 74.783)
        (xy 101.219 74.803) (xy 102.41825 74.803) (xy 102.577 74.64425) (xy 102.577 74.031675) (xy 102.626325 74.064633)
        (xy 102.682516 74.07581) (xy 102.965 74.132001) (xy 102.965005 74.132) (xy 104.044792 74.132) (xy 104.10783 74.226343)
        (xy 104.170282 74.268072) (xy 104.059855 74.35746) (xy 103.800827 74.834316) (xy 103.786682 74.905815) (xy 103.909344 75.12)
        (xy 105.752 75.12) (xy 105.752 75.1) (xy 106.006 75.1) (xy 106.006 75.12) (xy 106.026 75.12)
        (xy 106.026 75.374) (xy 106.006 75.374) (xy 106.006 76.632) (xy 106.393421 76.632) (xy 104.65721 78.36821)
        (xy 104.465367 78.655325) (xy 104.465367 78.655326) (xy 104.397999 78.994) (xy 104.398 78.994005) (xy 104.398 103.504995)
        (xy 104.397999 103.505) (xy 104.446692 103.749789) (xy 104.465367 103.843675) (xy 104.575833 104.009) (xy 104.65721 104.13079)
        (xy 105.800208 105.273787) (xy 105.80021 105.27379) (xy 106.087325 105.465633) (xy 106.426 105.533001) (xy 106.426005 105.533)
        (xy 125.10942 105.533) (xy 126.118205 106.541785) (xy 126.061009 106.541735) (xy 125.496629 106.774932) (xy 125.094677 107.176182)
        (xy 124.695643 106.776449) (xy 124.13167 106.542267) (xy 123.521009 106.541735) (xy 122.956629 106.774932) (xy 122.524449 107.206357)
        (xy 122.515797 107.227194) (xy 122.365159 107.176446) (xy 121.464605 108.077) (xy 122.365159 108.977554) (xy 122.515327 108.926965)
        (xy 122.522932 108.945371) (xy 122.954357 109.377551) (xy 123.51833 109.611733) (xy 124.128991 109.612265) (xy 124.693371 109.379068)
        (xy 125.095323 108.977818) (xy 125.494357 109.377551) (xy 125.512867 109.385237) (xy 125.518518 109.413643) (xy 125.547367 109.558675)
        (xy 125.657833 109.724) (xy 125.73921 109.84579) (xy 127.263208 111.369787) (xy 127.26321 111.36979) (xy 127.550325 111.561633)
        (xy 127.889 111.629) (xy 137.540995 111.629) (xy 137.541 111.629001) (xy 137.823484 111.57281) (xy 137.879675 111.561633)
        (xy 138.16679 111.36979) (xy 138.166791 111.369789) (xy 140.071787 109.464792) (xy 140.07179 109.46479) (xy 140.263633 109.177675)
        (xy 140.306136 108.964) (xy 140.331001 108.839) (xy 140.331 108.838995) (xy 140.331 84.582005) (xy 140.331001 84.582)
        (xy 140.263633 84.243326) (xy 140.263633 84.243325) (xy 140.07179 83.95621) (xy 140.071787 83.956208) (xy 138.03979 81.92421)
        (xy 137.956153 81.868326) (xy 137.752675 81.732367) (xy 137.696484 81.72119) (xy 137.414 81.664999) (xy 137.413995 81.665)
        (xy 132.927579 81.665) (xy 132.580292 81.317712) (xy 132.63046 81.315856) (xy 133.119264 81.113387) (xy 133.217927 80.846532)
        (xy 132.245 79.873605) (xy 132.230858 79.887748) (xy 132.051253 79.708143) (xy 132.065395 79.694) (xy 132.424605 79.694)
        (xy 133.397532 80.666927) (xy 133.664387 80.568264) (xy 133.890908 79.958539) (xy 133.866856 79.30854) (xy 133.664387 78.819736)
        (xy 133.397532 78.721073) (xy 132.424605 79.694) (xy 132.065395 79.694) (xy 131.092468 78.721073) (xy 131.057062 78.734164)
        (xy 130.864703 78.541468) (xy 131.272073 78.541468) (xy 132.245 79.514395) (xy 133.217927 78.541468) (xy 133.119264 78.274613)
        (xy 132.509539 78.048092) (xy 131.85954 78.072144) (xy 131.370736 78.274613) (xy 131.272073 78.541468) (xy 130.864703 78.541468)
        (xy 130.632363 78.308722) (xy 130.031648 78.059284) (xy 129.381205 78.058716) (xy 128.780057 78.307106) (xy 128.434801 78.651759)
        (xy 128.092363 78.308722) (xy 127.491648 78.059284) (xy 126.841205 78.058716) (xy 126.798812 78.076233) (xy 125.18579 76.46321)
        (xy 125.04528 76.369325) (xy 124.898675 76.271367) (xy 124.822677 76.25625) (xy 124.56 76.203999) (xy 124.559995 76.204)
        (xy 123.175579 76.204) (xy 121.59279 74.62121) (xy 121.305675 74.429367) (xy 121.249484 74.41819) (xy 120.967 74.361999)
        (xy 120.966995 74.362) (xy 118.713208 74.362) (xy 118.65017 74.267657) (xy 118.619255 74.247) (xy 118.65017 74.226343)
        (xy 118.9504 73.777017) (xy 119.055827 73.247) (xy 118.9504 72.716983) (xy 118.65017 72.267657) (xy 118.587718 72.225928)
        (xy 118.698145 72.13654) (xy 118.957173 71.659684) (xy 118.971318 71.588185) (xy 118.848656 71.374) (xy 117.006 71.374)
        (xy 117.006 71.394) (xy 116.752 71.394) (xy 116.752 71.374) (xy 114.909344 71.374) (xy 114.786682 71.588185)
        (xy 114.800827 71.659684) (xy 115.059855 72.13654) (xy 115.170282 72.225928) (xy 115.10783 72.267657) (xy 114.8076 72.716983)
        (xy 114.702173 73.247) (xy 114.8076 73.777017) (xy 115.10783 74.226343) (xy 115.138745 74.247) (xy 115.10783 74.267657)
        (xy 115.044792 74.362) (xy 114.618 74.362) (xy 114.279325 74.429367) (xy 113.99221 74.62121) (xy 113.992208 74.621213)
        (xy 111.00721 77.60621) (xy 110.815367 77.893325) (xy 110.815367 77.893326) (xy 110.747999 78.232) (xy 110.748 78.232005)
        (xy 110.748 83.565995) (xy 110.747999 83.566) (xy 110.784328 83.748633) (xy 110.815367 83.904675) (xy 111.00721 84.19179)
        (xy 112.658208 85.842787) (xy 112.65821 85.84279) (xy 112.82459 85.953961) (xy 112.945326 86.034634) (xy 113.284 86.102001)
        (xy 113.284005 86.102) (xy 117.459532 86.102) (xy 117.874357 86.517551) (xy 118.43833 86.751733) (xy 119.048991 86.752265)
        (xy 119.613371 86.519068) (xy 120.015323 86.117818) (xy 120.414357 86.517551) (xy 120.97833 86.751733) (xy 121.588991 86.752265)
        (xy 122.153371 86.519068) (xy 122.555323 86.117818) (xy 122.954357 86.517551) (xy 123.51833 86.751733) (xy 124.128991 86.752265)
        (xy 124.693371 86.519068) (xy 125.095323 86.117818) (xy 125.494357 86.517551) (xy 126.05833 86.751733) (xy 126.668991 86.752265)
        (xy 127.233371 86.519068) (xy 127.635323 86.117818) (xy 128.034357 86.517551) (xy 128.59833 86.751733) (xy 129.208991 86.752265)
        (xy 129.773371 86.519068) (xy 130.175323 86.117818) (xy 130.574357 86.517551) (xy 131.13833 86.751733) (xy 131.748991 86.752265)
        (xy 132.313371 86.519068) (xy 132.715323 86.117818) (xy 133.114357 86.517551) (xy 133.67833 86.751733) (xy 134.288991 86.752265)
        (xy 134.853371 86.519068) (xy 135.255323 86.117818) (xy 135.654357 86.517551) (xy 136.21833 86.751733) (xy 136.828991 86.752265)
        (xy 137.393371 86.519068) (xy 137.825551 86.087643) (xy 138.059733 85.52367) (xy 138.060265 84.913009) (xy 137.827068 84.348629)
        (xy 137.395643 83.916449) (xy 136.83167 83.682267) (xy 136.221009 83.681735) (xy 135.656629 83.914932) (xy 135.254677 84.316182)
        (xy 134.855643 83.916449) (xy 134.29167 83.682267) (xy 133.681009 83.681735) (xy 133.116629 83.914932) (xy 132.714677 84.316182)
        (xy 132.315643 83.916449) (xy 131.75167 83.682267) (xy 131.161332 83.681753) (xy 129.02279 81.54321) (xy 128.889591 81.45421)
        (xy 128.735675 81.351367) (xy 128.678067 81.339908) (xy 128.397 81.283999) (xy 128.396995 81.284) (xy 127.620579 81.284)
        (xy 127.614092 81.277512) (xy 128.089943 81.080894) (xy 128.435199 80.736241) (xy 128.777637 81.079278) (xy 129.378352 81.328716)
        (xy 130.028795 81.329284) (xy 130.071188 81.311768) (xy 131.935208 83.175787) (xy 131.93521 83.17579) (xy 132.222325 83.367633)
        (xy 132.278516 83.37881) (xy 132.561 83.435001) (xy 132.561005 83.435) (xy 137.04742 83.435) (xy 138.561 84.948579)
        (xy 138.561 108.472421) (xy 137.17442 109.859) (xy 128.255579 109.859) (xy 127.504746 109.108167) (xy 127.635323 108.977818)
        (xy 128.034357 109.377551) (xy 128.59833 109.611733) (xy 129.208991 109.612265) (xy 129.773371 109.379068) (xy 130.175323 108.977818)
        (xy 130.574357 109.377551) (xy 131.13833 109.611733) (xy 131.748991 109.612265) (xy 132.313371 109.379068) (xy 132.715323 108.977818)
        (xy 133.114357 109.377551) (xy 133.67833 109.611733) (xy 134.288991 109.612265) (xy 134.853371 109.379068) (xy 135.255323 108.977818)
        (xy 135.654357 109.377551) (xy 136.21833 109.611733) (xy 136.828991 109.612265) (xy 137.393371 109.379068) (xy 137.825551 108.947643)
        (xy 138.059733 108.38367) (xy 138.060265 107.773009) (xy 137.827068 107.208629) (xy 137.41 106.790831) (xy 137.41 101.346005)
        (xy 137.410001 101.346) (xy 137.342633 101.007326) (xy 137.342633 101.007325) (xy 137.15079 100.72021) (xy 137.150787 100.720208)
        (xy 129.14979 92.71921) (xy 128.862675 92.527367) (xy 128.806484 92.51619) (xy 128.524 92.459999) (xy 128.523995 92.46)
        (xy 119.111579 92.46) (xy 110.60779 83.95621) (xy 110.53066 83.904674) (xy 110.320675 83.764367) (xy 110.264484 83.75319)
        (xy 109.982 83.696999) (xy 109.981995 83.697) (xy 109.647432 83.697) (xy 109.537147 83.531946) (xy 109.055378 83.210039)
        (xy 108.487093 83.097) (xy 108.428907 83.097) (xy 107.860622 83.210039) (xy 107.565 83.407567) (xy 107.565 79.99558)
        (xy 110.226787 77.333792) (xy 110.22679 77.33379) (xy 110.418633 77.046675) (xy 110.449672 76.890633) (xy 110.486001 76.708)
        (xy 110.486 76.707995) (xy 110.486 70.34358) (xy 110.697579 70.132) (xy 115.044792 70.132) (xy 115.10783 70.226343)
        (xy 115.170282 70.268072) (xy 115.059855 70.35746) (xy 114.800827 70.834316) (xy 114.786682 70.905815) (xy 114.909344 71.12)
        (xy 116.752 71.12) (xy 116.752 71.1) (xy 117.006 71.1) (xy 117.006 71.12) (xy 118.848656 71.12)
        (xy 118.971318 70.905815) (xy 118.957173 70.834316) (xy 118.698145 70.35746) (xy 118.587718 70.268072) (xy 118.65017 70.226343)
        (xy 118.713208 70.132) (xy 123.030995 70.132) (xy 123.031 70.132001) (xy 123.313484 70.07581) (xy 123.369675 70.064633)
        (xy 123.65679 69.87279) (xy 123.656791 69.872789) (xy 129.022787 64.506792) (xy 129.02279 64.50679) (xy 129.214633 64.219675)
        (xy 129.22581 64.163484) (xy 129.282001 63.881) (xy 129.282 63.880995) (xy 129.282 63.16858) (xy 130.069288 62.381292)
        (xy 130.071144 62.43146) (xy 130.273613 62.920264) (xy 130.540468 63.018927) (xy 131.513395 62.046) (xy 131.872605 62.046)
        (xy 132.845532 63.018927) (xy 133.112387 62.920264) (xy 133.338908 62.310539) (xy 133.314856 61.66054) (xy 133.112387 61.171736)
        (xy 132.845532 61.073073) (xy 131.872605 62.046) (xy 131.513395 62.046) (xy 131.499253 62.031858) (xy 131.678858 61.852253)
        (xy 131.693 61.866395) (xy 132.665927 60.893468) (xy 132.652836 60.858062) (xy 133.078278 60.433363) (xy 133.327716 59.832648)
        (xy 133.328284 59.182205) (xy 133.079894 58.581057) (xy 132.735241 58.235801) (xy 133.078278 57.893363) (xy 133.327716 57.292648)
        (xy 133.328284 56.642205) (xy 133.079894 56.041057) (xy 132.735241 55.695801) (xy 133.078278 55.353363) (xy 133.327716 54.752648)
        (xy 133.328284 54.102205) (xy 133.079894 53.501057) (xy 132.735241 53.155801) (xy 133.078278 52.813363) (xy 133.327716 52.212648)
        (xy 133.328284 51.562205) (xy 133.079894 50.961057) (xy 132.735241 50.615801) (xy 133.078278 50.273363) (xy 133.327716 49.672648)
        (xy 133.328284 49.022205) (xy 133.079894 48.421057) (xy 132.735241 48.075801) (xy 133.078278 47.733363) (xy 133.327716 47.132648)
        (xy 133.328284 46.482205) (xy 133.079894 45.881057) (xy 132.620363 45.420722) (xy 132.019648 45.171284) (xy 131.369205 45.170716)
        (xy 130.768057 45.419106) (xy 130.307722 45.878637) (xy 130.058284 46.479352) (xy 130.057716 47.129795) (xy 130.306106 47.730943)
        (xy 130.650759 48.076199) (xy 130.307722 48.418637) (xy 130.058284 49.019352) (xy 130.057716 49.669795) (xy 130.306106 50.270943)
        (xy 130.650759 50.616199) (xy 130.307722 50.958637) (xy 130.058284 51.559352) (xy 130.057716 52.209795) (xy 130.306106 52.810943)
        (xy 130.650759 53.156199) (xy 130.307722 53.498637) (xy 130.058284 54.099352) (xy 130.057716 54.749795) (xy 130.306106 55.350943)
        (xy 130.650759 55.696199) (xy 130.307722 56.038637) (xy 130.058284 56.639352) (xy 130.057716 57.289795) (xy 130.075233 57.332188)
        (xy 126.37421 61.03321) (xy 126.182367 61.320325) (xy 126.182367 61.320326) (xy 126.114999 61.659) (xy 126.115 61.659005)
        (xy 126.115 62.625421) (xy 122.37842 66.362) (xy 118.713208 66.362) (xy 118.65017 66.267657) (xy 118.200844 65.967427)
        (xy 117.670827 65.862) (xy 116.087173 65.862) (xy 115.557156 65.967427) (xy 115.10783 66.267657) (xy 115.044792 66.362)
        (xy 110.045005 66.362) (xy 110.045 66.361999) (xy 109.728279 66.425) (xy 109.706325 66.429367) (xy 109.41921 66.62121)
        (xy 109.419208 66.621213) (xy 107.699274 68.341146) (xy 107.65017 68.267657) (xy 107.619255 68.247) (xy 107.65017 68.226343)
        (xy 107.9504 67.777017) (xy 108.055827 67.247) (xy 107.9504 66.716983) (xy 107.65017 66.267657) (xy 107.200844 65.967427)
        (xy 106.670827 65.862) (xy 105.087173 65.862) (xy 104.557156 65.967427) (xy 104.10783 66.267657) (xy 104.002697 66.425)
        (xy 102.281432 66.425) (xy 102.171147 66.259946) (xy 101.689378 65.938039) (xy 101.121093 65.825) (xy 101.062907 65.825)
        (xy 100.494622 65.938039) (xy 100.012853 66.259946) (xy 99.690946 66.741715) (xy 99.577907 67.31) (xy 99.259805 67.31)
        (xy 99.163435 52.179795) (xy 115.657716 52.179795) (xy 115.906106 52.780943) (xy 116.250759 53.126199) (xy 115.907722 53.468637)
        (xy 115.658284 54.069352) (xy 115.657716 54.719795) (xy 115.906106 55.320943) (xy 116.250759 55.666199) (xy 115.907722 56.008637)
        (xy 115.658284 56.609352) (xy 115.657716 57.259795) (xy 115.906106 57.860943) (xy 116.250759 58.206199) (xy 115.907722 58.548637)
        (xy 115.658284 59.149352) (xy 115.657716 59.799795) (xy 115.906106 60.400943) (xy 116.250759 60.746199) (xy 115.907722 61.088637)
        (xy 115.658284 61.689352) (xy 115.657716 62.339795) (xy 115.906106 62.940943) (xy 116.365637 63.401278) (xy 116.966352 63.650716)
        (xy 117.616795 63.651284) (xy 118.217943 63.402894) (xy 118.678278 62.943363) (xy 118.927716 62.342648) (xy 118.928284 61.692205)
        (xy 118.679894 61.091057) (xy 118.335241 60.745801) (xy 118.678278 60.403363) (xy 118.927716 59.802648) (xy 118.928284 59.152205)
        (xy 118.679894 58.551057) (xy 118.335241 58.205801) (xy 118.678278 57.863363) (xy 118.927716 57.262648) (xy 118.928284 56.612205)
        (xy 118.679894 56.011057) (xy 118.335241 55.665801) (xy 118.678278 55.323363) (xy 118.927716 54.722648) (xy 118.928284 54.072205)
        (xy 118.679894 53.471057) (xy 118.335241 53.125801) (xy 118.678278 52.783363) (xy 118.927716 52.182648) (xy 118.928284 51.532205)
        (xy 118.679894 50.931057) (xy 118.220363 50.470722) (xy 117.619648 50.221284) (xy 116.969205 50.220716) (xy 116.368057 50.469106)
        (xy 115.907722 50.928637) (xy 115.658284 51.529352) (xy 115.657716 52.179795) (xy 99.163435 52.179795) (xy 99.06082 36.069367)
      )
    )
  )
)
