<?xml version="1.0" standalone="no"?>
 <!DOCTYPE svg PUBLIC "-//W3C//DTD SVG 1.1//EN" 
 "http://www.w3.org/Graphics/SVG/1.1/DTD/svg11.dtd"> 
<svg xmlns="http://www.w3.org/2000/svg" version="1.1" 
    width="29.7002cm" height="21.0007cm" viewBox="0 0 116930 82680 ">
<title>SVG Picture created as KIANO-Phones-drl_map.svg date 2018/07/30 15:35:44 </title>
  <desc>Picture generated by PCBNEW </desc>
<g style="fill:#000000; fill-opacity:1;stroke:#000000; stroke-opacity:1;
stroke-linecap:round; stroke-linejoin:round; "
 transform="translate(0 0) scale(1 1)">
</g>
<g style="fill:#000000; fill-opacity:0.0; 
stroke:#000000; stroke-width:-0.000393701; stroke-opacity:1; 
stroke-linecap:round; stroke-linejoin:round;">
</g>
<g style="fill:#000000; fill-opacity:0.0; 
stroke:#000000; stroke-width:59.0551; stroke-opacity:1; 
stroke-linecap:round; stroke-linejoin:round;">
<path d="M38582 46062
L38582 13779
" />
<path d="M58267 46062
L38582 46062
" />
<path d="M58267 13779
L58267 46062
" />
<path d="M38582 13779
L58267 13779
" />
</g>
<g style="fill:#000000; fill-opacity:0.0; 
stroke:#000000; stroke-width:78.7402; stroke-opacity:1; 
stroke-linecap:round; stroke-linejoin:round;">
<path d="M44914 31225
L45214 31525
" />
<path d="M45214 31225
L44914 31525
" />
<path d="M45914 31225
L46214 31525
" />
<path d="M46214 31225
L45914 31525
" />
<path d="M46028 20265
L46328 20565
" />
<path d="M46328 20265
L46028 20565
" />
<path d="M46028 21265
L46328 21565
" />
<path d="M46328 21265
L46028 21565
" />
<path d="M46028 22265
L46328 22565
" />
<path d="M46328 22265
L46028 22565
" />
<path d="M46028 23265
L46328 23565
" />
<path d="M46328 23265
L46028 23565
" />
<path d="M46028 24265
L46328 24565
" />
<path d="M46328 24265
L46028 24565
" />
<path d="M46914 31225
L47214 31525
" />
<path d="M47214 31225
L46914 31525
" />
<path d="M47914 31225
L48214 31525
" />
<path d="M48214 31225
L47914 31525
" />
<path d="M48914 31225
L49214 31525
" />
<path d="M49214 31225
L48914 31525
" />
<path d="M49914 31225
L50214 31525
" />
<path d="M50214 31225
L49914 31525
" />
<path d="M50914 31225
L51214 31525
" />
<path d="M51214 31225
L50914 31525
" />
<path d="M51697 18277
L51997 18577
" />
<path d="M51997 18277
L51697 18577
" />
<path d="M51697 19277
L51997 19577
" />
<path d="M51997 19277
L51697 19577
" />
<path d="M51697 20277
L51997 20577
" />
<path d="M51997 20277
L51697 20577
" />
<path d="M51697 21277
L51997 21577
" />
<path d="M51997 21277
L51697 21577
" />
<path d="M51697 22277
L51997 22577
" />
<path d="M51997 22277
L51697 22577
" />
<path d="M51697 23277
L51997 23577
" />
<path d="M51997 23277
L51697 23577
" />
<path d="M51697 24277
L51997 24577
" />
<path d="M51997 24277
L51697 24577
" />
<path d="M51697 25277
L51997 25577
" />
<path d="M51997 25277
L51697 25577
" />
<path d="M51697 26277
L51997 26577
" />
<path d="M51997 26277
L51697 26577
" />
<path d="M51914 31225
L52214 31525
" />
<path d="M52214 31225
L51914 31525
" />
<circle cx="39800" cy="26500" r="196.85" /> 
<circle cx="39800" cy="27500" r="196.85" /> 
<circle cx="39800" cy="28500" r="196.85" /> 
<circle cx="39800" cy="29500" r="196.85" /> 
<circle cx="42700" cy="33300" r="196.85" /> 
<circle cx="42700" cy="34300" r="196.85" /> 
<circle cx="46750" cy="44200" r="196.85" /> 
<circle cx="47750" cy="44200" r="196.85" /> 
<path d="M46750 33350
L46750 33750
" />
<path d="M46550 33550
L46950 33550
" />
<path d="M46750 42350
L46750 42750
" />
<path d="M46550 42550
L46950 42550
" />
<path d="M47750 33350
L47750 33750
" />
<path d="M47550 33550
L47950 33550
" />
<path d="M47750 42350
L47750 42750
" />
<path d="M47550 42550
L47950 42550
" />
<path d="M48750 33350
L48750 33750
" />
<path d="M48550 33550
L48950 33550
" />
<path d="M48750 42350
L48750 42750
" />
<path d="M48550 42550
L48950 42550
" />
<path d="M49750 33350
L49750 33750
" />
<path d="M49550 33550
L49950 33550
" />
<path d="M49750 42350
L49750 42750
" />
<path d="M49550 42550
L49950 42550
" />
<path d="M50750 33350
L50750 33750
" />
<path d="M50550 33550
L50950 33550
" />
<path d="M50750 42350
L50750 42750
" />
<path d="M50550 42550
L50950 42550
" />
<path d="M51750 33350
L51750 33750
" />
<path d="M51550 33550
L51950 33550
" />
<path d="M51750 42350
L51750 42750
" />
<path d="M51550 42550
L51950 42550
" />
<path d="M52750 33350
L52750 33750
" />
<path d="M52550 33550
L52950 33550
" />
<path d="M52750 42350
L52750 42750
" />
<path d="M52550 42550
L52950 42550
" />
<path d="M53750 33350
L53750 33750
" />
<path d="M53550 33550
L53950 33550
" />
<path d="M53750 42350
L53750 42750
" />
<path d="M53550 42550
L53950 42550
" />
</g>
<g style="fill:#000000; fill-opacity:0.0; 
stroke:#000000; stroke-width:118.11; stroke-opacity:1; 
stroke-linecap:round; stroke-linejoin:round;">
<path d="M39621 47926
L39621 46744
L39902 46744
L40071 46801
L40184 46913
L40240 47026
L40296 47251
L40296 47419
L40240 47644
L40184 47757
L40071 47869
L39902 47926
L39621 47926
" />
<path d="M40802 47926
L40802 47138
" />
<path d="M40802 47363
L40859 47251
L40915 47194
L41027 47138
L41140 47138
" />
<path d="M41534 47926
L41534 47138
" />
<path d="M41534 46744
L41477 46801
L41534 46857
L41590 46801
L41534 46744
L41534 46857
" />
<path d="M42265 47926
L42152 47869
L42096 47757
L42096 46744
" />
<path d="M42883 47926
L42771 47869
L42715 47757
L42715 46744
" />
<path d="M44233 47926
L44233 46744
L44627 47588
L45021 46744
L45021 47926
" />
<path d="M46089 47926
L46089 47307
L46033 47194
L45920 47138
L45696 47138
L45583 47194
" />
<path d="M46089 47869
L45977 47926
L45696 47926
L45583 47869
L45527 47757
L45527 47644
L45583 47532
L45696 47476
L45977 47476
L46089 47419
" />
<path d="M46652 47138
L46652 48319
" />
<path d="M46652 47194
L46764 47138
L46989 47138
L47102 47194
L47158 47251
L47214 47363
L47214 47701
L47158 47813
L47102 47869
L46989 47926
L46764 47926
L46652 47869
" />
<path d="M47720 47813
L47776 47869
L47720 47926
L47664 47869
L47720 47813
L47720 47926
" />
<path d="M47720 47194
L47776 47251
L47720 47307
L47664 47251
L47720 47194
L47720 47307
" />
<path d="M38253 49722
L38553 50022
" />
<path d="M38553 49722
L38253 50022
" />
<path d="M39846 49225
L39959 49225
L40071 49281
L40127 49337
L40184 49450
L40240 49675
L40240 49956
L40184 50181
L40127 50293
L40071 50350
L39959 50406
L39846 50406
L39734 50350
L39678 50293
L39621 50181
L39565 49956
L39565 49675
L39621 49450
L39678 49337
L39734 49281
L39846 49225
" />
<path d="M40746 50293
L40802 50350
L40746 50406
L40690 50350
L40746 50293
L40746 50406
" />
<path d="M41196 49225
L41983 49225
L41477 50406
" />
<path d="M42940 49225
L42715 49225
L42602 49281
L42546 49337
L42433 49506
L42377 49731
L42377 50181
L42433 50293
L42490 50350
L42602 50406
L42827 50406
L42940 50350
L42996 50293
L43052 50181
L43052 49900
L42996 49787
L42940 49731
L42827 49675
L42602 49675
L42490 49731
L42433 49787
L42377 49900
" />
<path d="M43558 50406
L43558 49618
" />
<path d="M43558 49731
L43615 49675
L43727 49618
L43896 49618
L44008 49675
L44064 49787
L44064 50406
" />
<path d="M44064 49787
L44121 49675
L44233 49618
L44402 49618
L44514 49675
L44571 49787
L44571 50406
" />
<path d="M45133 50406
L45133 49618
" />
<path d="M45133 49731
L45189 49675
L45302 49618
L45471 49618
L45583 49675
L45639 49787
L45639 50406
" />
<path d="M45639 49787
L45696 49675
L45808 49618
L45977 49618
L46089 49675
L46145 49787
L46145 50406
" />
<path d="M48451 49169
L47439 50687
" />
<path d="M49970 49225
L50082 49225
L50195 49281
L50251 49337
L50307 49450
L50364 49675
L50364 49956
L50307 50181
L50251 50293
L50195 50350
L50082 50406
L49970 50406
L49857 50350
L49801 50293
L49745 50181
L49689 49956
L49689 49675
L49745 49450
L49801 49337
L49857 49281
L49970 49225
" />
<path d="M50870 50293
L50926 50350
L50870 50406
L50814 50350
L50870 50293
L50870 50406
" />
<path d="M51657 49225
L51770 49225
L51882 49281
L51938 49337
L51995 49450
L52051 49675
L52051 49956
L51995 50181
L51938 50293
L51882 50350
L51770 50406
L51657 50406
L51545 50350
L51489 50293
L51432 50181
L51376 49956
L51376 49675
L51432 49450
L51489 49337
L51545 49281
L51657 49225
" />
<path d="M52445 49225
L53176 49225
L52782 49675
L52951 49675
L53063 49731
L53120 49787
L53176 49900
L53176 50181
L53120 50293
L53063 50350
L52951 50406
L52613 50406
L52501 50350
L52445 50293
" />
<path d="M53907 49225
L54019 49225
L54132 49281
L54188 49337
L54244 49450
L54301 49675
L54301 49956
L54244 50181
L54188 50293
L54132 50350
L54019 50406
L53907 50406
L53794 50350
L53738 50293
L53682 50181
L53626 49956
L53626 49675
L53682 49450
L53738 49337
L53794 49281
L53907 49225
" />
<path d="M54751 49225
L54751 49450
" />
<path d="M55201 49225
L55201 49450
" />
<path d="M56944 50856
L56888 50800
L56775 50631
L56719 50518
L56663 50350
L56607 50068
L56607 49843
L56663 49562
L56719 49393
L56775 49281
L56888 49112
L56944 49056
" />
<path d="M57338 49337
L57394 49281
L57507 49225
L57788 49225
L57900 49281
L57956 49337
L58013 49450
L58013 49562
L57956 49731
L57282 50406
L58013 50406
" />
<path d="M58463 49337
L58519 49281
L58631 49225
L58913 49225
L59025 49281
L59081 49337
L59138 49450
L59138 49562
L59081 49731
L58406 50406
L59138 50406
" />
<path d="M60544 50406
L60544 49225
" />
<path d="M61050 50406
L61050 49787
L60994 49675
L60881 49618
L60712 49618
L60600 49675
L60544 49731
" />
<path d="M61781 50406
L61669 50350
L61612 50293
L61556 50181
L61556 49843
L61612 49731
L61669 49675
L61781 49618
L61950 49618
L62062 49675
L62118 49731
L62175 49843
L62175 50181
L62118 50293
L62062 50350
L61950 50406
L61781 50406
" />
<path d="M62850 50406
L62737 50350
L62681 50237
L62681 49225
" />
<path d="M63749 50350
L63637 50406
L63412 50406
L63300 50350
L63243 50237
L63243 49787
L63300 49675
L63412 49618
L63637 49618
L63749 49675
L63806 49787
L63806 49900
L63243 50012
" />
<path d="M64256 50350
L64368 50406
L64593 50406
L64706 50350
L64762 50237
L64762 50181
L64706 50068
L64593 50012
L64424 50012
L64312 49956
L64256 49843
L64256 49787
L64312 49675
L64424 49618
L64593 49618
L64706 49675
" />
<path d="M65156 50856
L65212 50800
L65324 50631
L65381 50518
L65437 50350
L65493 50068
L65493 49843
L65437 49562
L65381 49393
L65324 49281
L65212 49112
L65156 49056
" />
<circle cx="38356.3" cy="51431.1" r="196.85" /> 
<path d="M40240 51965
L39565 51965
" />
<path d="M39902 51965
L39902 50784
L39790 50953
L39678 51065
L39565 51121
" />
<path d="M40746 51852
L40802 51909
L40746 51965
L40690 51909
L40746 51852
L40746 51965
" />
<path d="M41534 50784
L41646 50784
L41758 50840
L41815 50896
L41871 51009
L41927 51234
L41927 51515
L41871 51740
L41815 51852
L41758 51909
L41646 51965
L41534 51965
L41421 51909
L41365 51852
L41309 51740
L41252 51515
L41252 51234
L41309 51009
L41365 50896
L41421 50840
L41534 50784
" />
<path d="M42658 50784
L42771 50784
L42883 50840
L42940 50896
L42996 51009
L43052 51234
L43052 51515
L42996 51740
L42940 51852
L42883 51909
L42771 51965
L42658 51965
L42546 51909
L42490 51852
L42433 51740
L42377 51515
L42377 51234
L42433 51009
L42490 50896
L42546 50840
L42658 50784
" />
<path d="M43558 51965
L43558 51178
" />
<path d="M43558 51290
L43615 51234
L43727 51178
L43896 51178
L44008 51234
L44064 51346
L44064 51965
" />
<path d="M44064 51346
L44121 51234
L44233 51178
L44402 51178
L44514 51234
L44571 51346
L44571 51965
" />
<path d="M45133 51965
L45133 51178
" />
<path d="M45133 51290
L45189 51234
L45302 51178
L45471 51178
L45583 51234
L45639 51346
L45639 51965
" />
<path d="M45639 51346
L45696 51234
L45808 51178
L45977 51178
L46089 51234
L46145 51346
L46145 51965
" />
<path d="M48451 50728
L47439 52246
" />
<path d="M49970 50784
L50082 50784
L50195 50840
L50251 50896
L50307 51009
L50364 51234
L50364 51515
L50307 51740
L50251 51852
L50195 51909
L50082 51965
L49970 51965
L49857 51909
L49801 51852
L49745 51740
L49689 51515
L49689 51234
L49745 51009
L49801 50896
L49857 50840
L49970 50784
" />
<path d="M50870 51852
L50926 51909
L50870 51965
L50814 51909
L50870 51852
L50870 51965
" />
<path d="M51657 50784
L51770 50784
L51882 50840
L51938 50896
L51995 51009
L52051 51234
L52051 51515
L51995 51740
L51938 51852
L51882 51909
L51770 51965
L51657 51965
L51545 51909
L51489 51852
L51432 51740
L51376 51515
L51376 51234
L51432 51009
L51489 50896
L51545 50840
L51657 50784
" />
<path d="M52445 50784
L53176 50784
L52782 51234
L52951 51234
L53063 51290
L53120 51346
L53176 51459
L53176 51740
L53120 51852
L53063 51909
L52951 51965
L52613 51965
L52501 51909
L52445 51852
" />
<path d="M53738 51965
L53963 51965
L54076 51909
L54132 51852
L54244 51684
L54301 51459
L54301 51009
L54244 50896
L54188 50840
L54076 50784
L53851 50784
L53738 50840
L53682 50896
L53626 51009
L53626 51290
L53682 51402
L53738 51459
L53851 51515
L54076 51515
L54188 51459
L54244 51402
L54301 51290
" />
<path d="M54751 50784
L54751 51009
" />
<path d="M55201 50784
L55201 51009
" />
<path d="M56944 52415
L56888 52359
L56775 52190
L56719 52077
L56663 51909
L56607 51627
L56607 51402
L56663 51121
L56719 50953
L56775 50840
L56888 50671
L56944 50615
" />
<path d="M57563 51290
L57450 51234
L57394 51178
L57338 51065
L57338 51009
L57394 50896
L57450 50840
L57563 50784
L57788 50784
L57900 50840
L57956 50896
L58013 51009
L58013 51065
L57956 51178
L57900 51234
L57788 51290
L57563 51290
L57450 51346
L57394 51402
L57338 51515
L57338 51740
L57394 51852
L57450 51909
L57563 51965
L57788 51965
L57900 51909
L57956 51852
L58013 51740
L58013 51515
L57956 51402
L57900 51346
L57788 51290
" />
<path d="M59419 51965
L59419 50784
" />
<path d="M59925 51965
L59925 51346
L59869 51234
L59756 51178
L59588 51178
L59475 51234
L59419 51290
" />
<path d="M60656 51965
L60544 51909
L60487 51852
L60431 51740
L60431 51402
L60487 51290
L60544 51234
L60656 51178
L60825 51178
L60937 51234
L60994 51290
L61050 51402
L61050 51740
L60994 51852
L60937 51909
L60825 51965
L60656 51965
" />
<path d="M61725 51965
L61612 51909
L61556 51796
L61556 50784
" />
<path d="M62625 51909
L62512 51965
L62287 51965
L62175 51909
L62118 51796
L62118 51346
L62175 51234
L62287 51178
L62512 51178
L62625 51234
L62681 51346
L62681 51459
L62118 51571
" />
<path d="M63131 51909
L63243 51965
L63468 51965
L63581 51909
L63637 51796
L63637 51740
L63581 51627
L63468 51571
L63300 51571
L63187 51515
L63131 51402
L63131 51346
L63187 51234
L63300 51178
L63468 51178
L63581 51234
" />
<path d="M64031 52415
L64087 52359
L64199 52190
L64256 52077
L64312 51909
L64368 51627
L64368 51402
L64312 51121
L64256 50953
L64199 50840
L64087 50671
L64031 50615
" />
<path d="M38353 52790
L38353 53190
" />
<path d="M38153 52990
L38553 52990
" />
<path d="M40240 53524
L39565 53524
" />
<path d="M39902 53524
L39902 52343
L39790 52512
L39678 52624
L39565 52680
" />
<path d="M40746 53411
L40802 53468
L40746 53524
L40690 53468
L40746 53411
L40746 53524
" />
<path d="M41534 52343
L41646 52343
L41758 52399
L41815 52455
L41871 52568
L41927 52793
L41927 53074
L41871 53299
L41815 53411
L41758 53468
L41646 53524
L41534 53524
L41421 53468
L41365 53411
L41309 53299
L41252 53074
L41252 52793
L41309 52568
L41365 52455
L41421 52399
L41534 52343
" />
<path d="M42377 52455
L42433 52399
L42546 52343
L42827 52343
L42940 52399
L42996 52455
L43052 52568
L43052 52680
L42996 52849
L42321 53524
L43052 53524
" />
<path d="M43558 53524
L43558 52737
" />
<path d="M43558 52849
L43615 52793
L43727 52737
L43896 52737
L44008 52793
L44064 52905
L44064 53524
" />
<path d="M44064 52905
L44121 52793
L44233 52737
L44402 52737
L44514 52793
L44571 52905
L44571 53524
" />
<path d="M45133 53524
L45133 52737
" />
<path d="M45133 52849
L45189 52793
L45302 52737
L45471 52737
L45583 52793
L45639 52905
L45639 53524
" />
<path d="M45639 52905
L45696 52793
L45808 52737
L45977 52737
L46089 52793
L46145 52905
L46145 53524
" />
<path d="M48451 52287
L47439 53805
" />
<path d="M49970 52343
L50082 52343
L50195 52399
L50251 52455
L50307 52568
L50364 52793
L50364 53074
L50307 53299
L50251 53411
L50195 53468
L50082 53524
L49970 53524
L49857 53468
L49801 53411
L49745 53299
L49689 53074
L49689 52793
L49745 52568
L49801 52455
L49857 52399
L49970 52343
" />
<path d="M50870 53411
L50926 53468
L50870 53524
L50814 53468
L50870 53411
L50870 53524
" />
<path d="M51657 52343
L51770 52343
L51882 52399
L51938 52455
L51995 52568
L52051 52793
L52051 53074
L51995 53299
L51938 53411
L51882 53468
L51770 53524
L51657 53524
L51545 53468
L51489 53411
L51432 53299
L51376 53074
L51376 52793
L51432 52568
L51489 52455
L51545 52399
L51657 52343
" />
<path d="M53063 52737
L53063 53524
" />
<path d="M52782 52287
L52501 53130
L53232 53130
" />
<path d="M53907 52343
L54019 52343
L54132 52399
L54188 52455
L54244 52568
L54301 52793
L54301 53074
L54244 53299
L54188 53411
L54132 53468
L54019 53524
L53907 53524
L53794 53468
L53738 53411
L53682 53299
L53626 53074
L53626 52793
L53682 52568
L53738 52455
L53794 52399
L53907 52343
" />
<path d="M54751 52343
L54751 52568
" />
<path d="M55201 52343
L55201 52568
" />
<path d="M56944 53974
L56888 53918
L56775 53749
L56719 53636
L56663 53468
L56607 53187
L56607 52962
L56663 52680
L56719 52512
L56775 52399
L56888 52230
L56944 52174
" />
<path d="M58013 53524
L57338 53524
" />
<path d="M57675 53524
L57675 52343
L57563 52512
L57450 52624
L57338 52680
" />
<path d="M59025 52343
L58800 52343
L58688 52399
L58631 52455
L58519 52624
L58463 52849
L58463 53299
L58519 53411
L58575 53468
L58688 53524
L58913 53524
L59025 53468
L59081 53411
L59138 53299
L59138 53018
L59081 52905
L59025 52849
L58913 52793
L58688 52793
L58575 52849
L58519 52905
L58463 53018
" />
<path d="M60544 53524
L60544 52343
" />
<path d="M61050 53524
L61050 52905
L60994 52793
L60881 52737
L60712 52737
L60600 52793
L60544 52849
" />
<path d="M61781 53524
L61669 53468
L61612 53411
L61556 53299
L61556 52962
L61612 52849
L61669 52793
L61781 52737
L61950 52737
L62062 52793
L62118 52849
L62175 52962
L62175 53299
L62118 53411
L62062 53468
L61950 53524
L61781 53524
" />
<path d="M62850 53524
L62737 53468
L62681 53355
L62681 52343
" />
<path d="M63749 53468
L63637 53524
L63412 53524
L63300 53468
L63243 53355
L63243 52905
L63300 52793
L63412 52737
L63637 52737
L63749 52793
L63806 52905
L63806 53018
L63243 53130
" />
<path d="M64256 53468
L64368 53524
L64593 53524
L64706 53468
L64762 53355
L64762 53299
L64706 53187
L64593 53130
L64424 53130
L64312 53074
L64256 52962
L64256 52905
L64312 52793
L64424 52737
L64593 52737
L64706 52793
" />
<path d="M65156 53974
L65212 53918
L65324 53749
L65381 53636
L65437 53468
L65493 53187
L65493 52962
L65437 52680
L65381 52512
L65324 52399
L65212 52230
L65156 52174
" />
</g> 
</svg>
