<?xml version="1.0" standalone="no"?>
 <!DOCTYPE svg PUBLIC "-//W3C//DTD SVG 1.1//EN" 
 "http://www.w3.org/Graphics/SVG/1.1/DTD/svg11.dtd"> 
<svg xmlns="http://www.w3.org/2000/svg" version="1.1" 
    width="6.06298cm" height="8.8011cm" viewBox="0 0 23870 34650 ">
<title>SVG Picture created as KIANO-Phones-brd.svg date 2018/07/30 15:34:46 </title>
  <desc>Picture generated by PCBNEW </desc>
<g style="fill:#000000; fill-opacity:1;stroke:#000000; stroke-opacity:1;
stroke-linecap:round; stroke-linejoin:round; "
 transform="translate(0 0) scale(1 1)">
</g>
<g style="fill:#000000; fill-opacity:0.0; 
stroke:#000000; stroke-width:-0.000393701; stroke-opacity:1; 
stroke-linecap:round; stroke-linejoin:round;">
</g>
<g style="fill:#000000; fill-opacity:0.0; 
stroke:#000000; stroke-width:39.3701; stroke-opacity:1; 
stroke-linecap:round; stroke-linejoin:round;">
<polyline fill="none;"
points="22327,20770
22329,20770
22332,20771
22334,20772
22337,20773
22339,20774
22341,20776
22343,20777
22345,20779
22347,20781
22348,20783
22350,20785
22351,20787
22352,20789
22352,20792
22353,20794
22353,20797
22354,20800
22354,27800
22353,27802
22353,27805
22352,27807
22352,27810
22351,27812
22350,27814
22348,27816
22347,27818
22345,27820
22343,27822
22341,27823
22339,27825
22337,27826
22334,27827
22332,27828
22329,27829
22327,27829
22324,27829
13324,27829
13322,27829
13319,27829
13317,27828
13314,27827
13312,27826
13309,27825
13307,27823
13305,27822
13304,27820
13302,27818
13300,27816
13299,27814
13298,27812
13296,27810
13296,27807
13295,27805
13295,27802
13295,27800
13295,20800
13295,20797
13295,20794
13296,20792
13296,20789
13298,20787
13299,20785
13300,20783
13302,20781
13304,20779
13305,20777
13307,20776
13309,20774
13312,20773
13314,20772
13317,20771
13319,20770
13322,20770
13324,20770
22324,20770
22327,20770
" /> 
<polyline fill="none;"
points="13354,20829
13354,27770
22295,27770
22295,20829
13354,20829
" /> 
<polyline fill="none;"
points="19327,21770
19329,21770
19332,21771
19334,21772
19337,21773
19339,21774
19341,21776
19343,21777
19345,21779
19347,21781
19348,21783
19350,21785
19351,21787
19352,21789
19352,21792
19353,21794
19353,21797
19354,21800
19354,26800
19353,26802
19353,26805
19352,26807
19352,26810
19351,26812
19350,26814
19348,26816
19347,26818
19345,26820
19343,26822
19341,26823
19339,26825
19337,26826
19334,26827
19332,26828
19329,26829
19327,26829
19324,26829
13824,26829
13822,26829
13819,26829
13817,26828
13814,26827
13812,26826
13809,26825
13807,26823
13805,26822
13804,26820
13802,26818
13800,26816
13799,26814
13798,26812
13796,26810
13796,26807
13795,26805
13795,26802
13795,26800
13795,21800
13795,21797
13795,21794
13796,21792
13796,21789
13798,21787
13799,21785
13800,21783
13802,21781
13804,21779
13805,21777
13807,21776
13809,21774
13812,21773
13814,21772
13817,21771
13819,21770
13822,21770
13824,21770
19324,21770
19327,21770
" /> 
<polyline fill="none;"
points="13854,21829
13854,26770
19295,26770
19295,21829
13854,21829
" /> 
<polyline fill="none;"
points="11592,12105
11595,12105
11597,12106
11600,12106
11602,12108
11604,12109
11606,12110
11609,12112
11610,12114
11612,12115
11613,12117
11615,12119
11616,12122
11617,12124
11618,12127
11619,12129
11619,12132
11619,12134
11619,16465
11619,16467
11619,16470
11618,16472
11617,16475
11616,16477
11615,16480
11613,16482
11612,16484
11610,16485
11609,16487
11606,16489
11604,16490
11602,16491
11600,16493
11597,16493
11595,16494
11592,16494
11590,16494
7259,16494
7256,16494
7254,16494
7251,16493
7249,16493
7246,16491
7244,16490
7242,16489
7240,16487
7238,16485
7236,16484
7235,16482
7233,16480
7232,16477
7231,16475
7231,16472
7230,16470
7230,16467
7229,16465
7229,12134
7230,12132
7230,12129
7231,12127
7231,12124
7232,12122
7233,12119
7235,12117
7236,12115
7238,12114
7240,12112
7242,12110
7244,12109
7246,12108
7249,12106
7251,12106
7254,12105
7256,12105
7259,12105
11590,12105
11592,12105
" /> 
<polyline fill="none;"
points="7288,12164
7288,16435
11560,16435
11560,12164
7288,12164
" /> 
<polyline fill="none;"
points="9220,11496
9223,11496
9225,11496
9226,11497
9229,11498
9233,11499
9234,11500
9235,11501
9238,11504
9241,11506
9241,11507
9243,11508
9278,11562
9310,11594
9344,11611
9352,11617
9358,11626
9360,11636
9359,11646
9354,11655
9347,11662
9337,11666
9327,11667
9317,11664
9280,11645
9276,11642
9272,11639
9247,11615
9247,11889
9330,11889
9341,11891
9349,11896
9356,11904
9360,11913
9360,11924
9356,11933
9349,11941
9341,11946
9330,11948
9105,11948
9095,11946
9086,11941
9080,11933
9076,11924
9076,11913
9080,11904
9086,11896
9095,11891
9105,11889
9188,11889
9188,11525
9189,11523
9189,11522
9190,11518
9190,11515
9191,11513
9191,11512
9194,11509
9195,11506
9197,11505
9198,11503
9200,11502
9203,11499
9205,11499
9206,11498
9210,11497
9213,11496
9214,11496
9216,11495
9220,11496
" /> 
<polyline fill="none;"
points="9514,11499
9522,11506
9527,11515
9529,11525
9529,11837
9542,11864
9554,11876
9581,11889
9642,11889
9669,11876
9681,11864
9695,11837
9695,11525
9696,11515
9702,11506
9709,11499
9719,11496
9729,11496
9739,11499
9747,11506
9752,11515
9754,11525
9754,11844
9753,11845
9753,11847
9752,11850
9752,11854
9751,11855
9751,11857
9732,11894
9729,11898
9726,11902
9708,11921
9704,11923
9700,11926
9662,11945
9661,11945
9659,11946
9656,11947
9653,11948
9651,11948
9649,11948
9574,11948
9572,11948
9571,11948
9567,11947
9564,11946
9563,11945
9561,11945
9523,11926
9520,11923
9516,11921
9497,11902
9494,11898
9492,11894
9473,11857
9472,11855
9471,11854
9471,11850
9470,11847
9470,11845
9470,11844
9470,11525
9471,11515
9477,11506
9484,11499
9494,11496
9504,11496
9514,11499
" /> 
<polyline fill="none;"
points="9135,10905
9137,10905
9140,10906
9144,10907
9145,10907
9147,10908
9184,10927
9188,10929
9192,10932
9211,10951
9212,10953
9214,10955
9252,11012
9254,11016
9256,11021
9275,11096
9275,11099
9276,11103
9276,11253
9275,11255
9275,11256
9274,11260
9274,11263
9273,11265
9272,11266
9254,11304
9251,11308
9248,11311
9229,11330
9226,11333
9222,11336
9184,11354
9183,11355
9181,11356
9178,11356
9174,11357
9173,11357
9171,11358
9096,11358
9094,11357
9093,11357
9089,11356
9086,11356
9085,11355
9083,11354
9045,11336
9042,11333
9038,11330
9019,11311
9016,11308
9013,11304
8995,11266
8994,11265
8993,11263
8993,11260
8992,11256
8992,11255
8992,11253
8992,11159
8992,11158
8992,11156
8993,11153
8993,11149
8994,11148
8995,11146
9013,11109
9016,11105
9019,11101
9038,11082
9042,11079
9045,11077
9083,11058
9085,11057
9086,11057
9089,11056
9093,11055
9094,11055
9096,11055
9171,11055
9173,11055
9174,11055
9178,11056
9181,11057
9183,11057
9184,11058
9207,11069
9200,11040
9167,10991
9154,10977
9127,10964
9059,10964
9048,10962
9040,10957
9033,10949
9030,10939
9030,10929
9033,10920
9040,10912
9048,10907
9059,10905
9134,10905
9135,10905
" /> 
<polyline fill="none;"
points="9103,11114
9076,11127
9064,11139
9051,11166
9051,11246
9064,11273
9076,11285
9103,11298
9164,11298
9191,11285
9203,11273
9217,11246
9217,11166
9203,11139
9191,11127
9164,11114
9103,11114
" /> 
<polyline fill="none;"
points="10673,10905
10676,10905
10678,10906
10681,10907
10683,10908
10686,10909
10688,10910
10690,10912
10692,10914
10694,10915
10695,10918
10696,10920
10697,10922
10699,10924
10699,10927
10700,10929
10700,10932
10700,10934
10700,11328
10700,11331
10700,11333
10699,11336
10699,11338
10697,11340
10696,11343
10695,11345
10694,11347
10692,11349
10690,11351
10688,11352
10686,11354
10683,11354
10681,11356
10678,11356
10676,11357
10673,11357
10671,11358
10483,11358
10473,11356
10464,11351
10458,11343
10454,11333
10454,11323
10458,11313
10464,11305
10473,11300
10483,11298
10641,11298
10641,11151
10540,11151
10530,11150
10521,11144
10514,11137
10511,11127
10511,11117
10514,11107
10521,11099
10530,11094
10540,11092
10641,11092
10641,10964
10483,10964
10473,10962
10464,10957
10458,10949
10454,10939
10454,10929
10458,10920
10464,10912
10473,10907
10483,10905
10671,10905
10673,10905
" /> 
<polyline fill="none;"
points="9978,10905
9979,10905
9983,10906
9987,10907
9988,10907
9989,10907
9993,10910
9996,10912
9997,10913
9998,10913
10000,10916
10003,10920
10003,10921
10004,10921
10005,10925
10006,10929
10006,10930
10007,10931
10025,11119
10025,11119
10025,11119
10025,11124
10025,11129
10025,11129
10024,11129
10022,11134
10020,11138
10020,11139
10020,11139
10017,11142
10013,11146
10013,11146
10013,11146
10008,11148
10004,11150
10004,11150
10004,11150
9999,11151
9994,11151
9994,11151
9993,11151
9989,11150
9984,11149
9984,11149
9983,11149
9979,11146
9975,11143
9975,11143
9975,11143
9960,11127
9933,11114
9853,11114
9826,11127
9814,11139
9801,11166
9801,11246
9814,11273
9826,11285
9853,11298
9933,11298
9960,11285
9975,11270
9983,11264
9993,11261
10004,11262
10013,11266
10020,11274
10024,11283
10025,11293
10023,11303
10017,11311
9998,11330
9994,11333
9990,11336
9953,11354
9951,11355
9950,11356
9946,11356
9943,11357
9941,11357
9940,11358
9846,11358
9844,11357
9843,11357
9839,11356
9836,11356
9834,11355
9833,11354
9795,11336
9791,11333
9788,11330
9769,11311
9766,11308
9763,11304
9745,11266
9744,11265
9743,11263
9743,11260
9742,11256
9742,11255
9741,11253
9741,11159
9742,11158
9742,11156
9743,11153
9743,11149
9744,11148
9745,11146
9763,11109
9766,11105
9769,11101
9788,11082
9791,11079
9795,11077
9833,11058
9834,11057
9836,11057
9839,11056
9843,11055
9844,11055
9846,11055
9940,11055
9941,11055
9943,11055
9946,11056
9950,11057
9951,11057
9953,11058
9960,11062
9951,10964
9790,10964
9780,10962
9771,10957
9764,10949
9761,10939
9761,10929
9764,10920
9771,10912
9780,10907
9790,10905
9977,10905
9978,10905
" /> 
<polyline fill="none;"
points="8900,10907
8909,10912
8915,10920
8919,10929
8919,10939
8915,10949
8909,10957
8900,10962
8890,10964
8672,10964
8823,11316
8826,11326
8824,11337
8820,11346
8812,11353
8803,11357
8793,11357
8783,11354
8775,11348
8769,11340
8600,10946
8599,10943
8598,10939
8598,10938
8598,10936
8598,10933
8598,10929
8599,10928
8599,10926
8601,10923
8602,10920
8603,10918
8604,10917
8606,10914
8608,10912
8610,10911
8611,10910
8614,10908
8617,10907
8619,10906
8621,10906
8624,10905
8627,10905
8890,10905
8900,10907
" /> 
<polyline fill="none;"
points="9650,10907
9659,10912
9665,10920
9669,10929
9669,10939
9665,10949
9659,10957
9650,10962
9640,10964
9422,10964
9573,11316
9576,11326
9574,11337
9570,11346
9562,11353
9553,11357
9543,11357
9533,11354
9525,11348
9519,11340
9350,10946
9349,10943
9348,10939
9348,10938
9348,10936
9348,10933
9348,10929
9349,10928
9349,10926
9351,10923
9352,10920
9353,10918
9354,10917
9356,10914
9358,10912
9360,10911
9361,10910
9364,10908
9367,10907
9369,10906
9371,10906
9374,10905
9377,10905
9640,10905
9650,10907
" /> 
<polyline fill="none;"
points="10245,10905
10246,10905
10250,10907
10254,10908
10254,10909
10255,10909
10258,10912
10262,10915
10262,10915
10263,10916
10265,10920
10267,10923
10267,10924
10268,10925
10399,11319
10400,11329
10398,11339
10393,11348
10385,11354
10375,11357
10365,11357
10355,11353
10348,11346
10343,11337
10312,11245
10167,11245
10136,11337
10132,11346
10124,11353
10114,11357
10104,11357
10094,11354
10086,11348
10081,11339
10079,11329
10080,11319
10212,10925
10212,10924
10212,10923
10215,10920
10217,10916
10217,10915
10218,10915
10221,10912
10224,10909
10225,10909
10226,10908
10230,10907
10234,10905
10235,10905
10235,10905
10240,10905
10244,10905
10245,10905
" /> 
<polyline fill="none;"
points="10187,11186
10292,11186
10240,11028
10187,11186
" /> 
<polyline fill="none;"
points="11037,10907
11046,10912
11053,10920
11056,10929
11056,10939
11053,10949
11046,10957
11037,10962
11027,10964
10944,10964
10944,11328
10942,11338
10937,11347
10929,11354
10920,11357
10909,11357
10900,11354
10892,11347
10887,11338
10885,11328
10885,10964
10802,10964
10792,10962
10783,10957
10777,10949
10773,10939
10773,10929
10777,10920
10783,10912
10792,10907
10802,10905
11027,10905
11037,10907
" /> 
<circle cx="5374.67" cy="15750" r="196.85" /> 
<circle cx="5374.67" cy="14750" r="196.85" /> 
<circle cx="5374.67" cy="13750" r="196.85" /> 
<circle cx="5374.67" cy="12750" r="196.85" /> 
<circle cx="8274.67" cy="20550" r="196.85" /> 
<circle cx="8274.67" cy="19550" r="196.85" /> 
<circle cx="19324.7" cy="19800" r="200" /> 
<circle cx="18324.7" cy="19800" r="200" /> 
<circle cx="17324.7" cy="19800" r="200" /> 
<circle cx="16324.7" cy="19800" r="200" /> 
<circle cx="15324.7" cy="19800" r="200" /> 
<circle cx="14324.7" cy="19800" r="200" /> 
<circle cx="13324.7" cy="19800" r="200" /> 
<circle cx="12324.7" cy="19800" r="200" /> 
<circle cx="12324.7" cy="28800" r="200" /> 
<circle cx="13324.7" cy="28800" r="200" /> 
<circle cx="14324.7" cy="28800" r="200" /> 
<circle cx="15324.7" cy="28800" r="200" /> 
<circle cx="16324.7" cy="28800" r="200" /> 
<circle cx="17324.7" cy="28800" r="200" /> 
<circle cx="18324.7" cy="28800" r="200" /> 
<circle cx="19324.7" cy="28800" r="200" /> 
<circle cx="17422.3" cy="12677.6" r="150" /> 
<circle cx="17422.3" cy="11677.6" r="150" /> 
<circle cx="17422.3" cy="10677.6" r="150" /> 
<circle cx="17422.3" cy="9677.56" r="150" /> 
<circle cx="17422.3" cy="8677.56" r="150" /> 
<circle cx="17422.3" cy="7677.56" r="150" /> 
<circle cx="17422.3" cy="6677.56" r="150" /> 
<circle cx="17422.3" cy="5677.56" r="150" /> 
<circle cx="17422.3" cy="4677.56" r="150" /> 
<circle cx="11753" cy="10665.7" r="150" /> 
<circle cx="11753" cy="9665.75" r="150" /> 
<circle cx="11753" cy="8665.75" r="150" /> 
<circle cx="11753" cy="7665.75" r="150" /> 
<circle cx="11753" cy="6665.75" r="150" /> 
<circle cx="10639.6" cy="17625.6" r="150" /> 
<circle cx="11639.6" cy="17625.6" r="150" /> 
<circle cx="12639.6" cy="17625.6" r="150" /> 
<circle cx="13639.6" cy="17625.6" r="150" /> 
<circle cx="14639.6" cy="17625.6" r="150" /> 
<circle cx="15639.6" cy="17625.6" r="150" /> 
<circle cx="16639.6" cy="17625.6" r="150" /> 
<circle cx="17639.6" cy="17625.6" r="150" /> 
<circle cx="13324.7" cy="30450" r="196.85" /> 
<circle cx="12324.7" cy="30450" r="196.85" /> 
</g>
<g style="fill:#008400; fill-opacity:0.0; 
stroke:#008400; stroke-width:39.3701; stroke-opacity:1; 
stroke-linecap:round; stroke-linejoin:round;">
</g>
<g style="fill:#008400; fill-opacity:0.0; 
stroke:#008400; stroke-width:0; stroke-opacity:1; 
stroke-linecap:round; stroke-linejoin:round;">
</g>
<g style="fill:#008400; fill-opacity:1.0; 
stroke:#008400; stroke-width:0; stroke-opacity:1; 
stroke-linecap:round; stroke-linejoin:round;">
<polyline style="fill-rule:evenodd;"
points="5709,15415
5709,16084
5040,16084
5040,15415
5709,15415
" /> 
</g>
<g style="fill:#008400; fill-opacity:1.0; 
stroke:#008400; stroke-width:669.291; stroke-opacity:1; 
stroke-linecap:round; stroke-linejoin:round;">
</g>
<g style="fill:#008400; fill-opacity:0.0; 
stroke:#008400; stroke-width:669.291; stroke-opacity:1; 
stroke-linecap:round; stroke-linejoin:round;">
<path d="M5374 14750
L5374 14750
" />
<path d="M5374 13750
L5374 13750
" />
<path d="M5374 12750
L5374 12750
" />
</g>
<g style="fill:#008400; fill-opacity:0.0; 
stroke:#008400; stroke-width:0; stroke-opacity:1; 
stroke-linecap:round; stroke-linejoin:round;">
</g>
<g style="fill:#008400; fill-opacity:1.0; 
stroke:#008400; stroke-width:0; stroke-opacity:1; 
stroke-linecap:round; stroke-linejoin:round;">
<polyline style="fill-rule:evenodd;"
points="8609,20215
8609,20884
7940,20884
7940,20215
8609,20215
" /> 
</g>
<g style="fill:#008400; fill-opacity:1.0; 
stroke:#008400; stroke-width:669.291; stroke-opacity:1; 
stroke-linecap:round; stroke-linejoin:round;">
</g>
<g style="fill:#008400; fill-opacity:0.0; 
stroke:#008400; stroke-width:669.291; stroke-opacity:1; 
stroke-linecap:round; stroke-linejoin:round;">
<path d="M8274 19550
L8274 19550
" />
</g>
<g style="fill:#008400; fill-opacity:1.0; 
stroke:#008400; stroke-width:0; stroke-opacity:1; 
stroke-linecap:round; stroke-linejoin:round;">
<circle cx="19324.7" cy="19800" r="354.331" /> 
</g>
<g style="fill:#008400; fill-opacity:1.0; 
stroke:#008400; stroke-width:39.3701; stroke-opacity:1; 
stroke-linecap:round; stroke-linejoin:round;">
</g>
<g style="fill:#008400; fill-opacity:1.0; 
stroke:#008400; stroke-width:0; stroke-opacity:1; 
stroke-linecap:round; stroke-linejoin:round;">
<circle cx="18324.7" cy="19800" r="354.331" /> 
</g>
<g style="fill:#008400; fill-opacity:1.0; 
stroke:#008400; stroke-width:39.3701; stroke-opacity:1; 
stroke-linecap:round; stroke-linejoin:round;">
</g>
<g style="fill:#008400; fill-opacity:1.0; 
stroke:#008400; stroke-width:0; stroke-opacity:1; 
stroke-linecap:round; stroke-linejoin:round;">
<circle cx="17324.7" cy="19800" r="354.331" /> 
</g>
<g style="fill:#008400; fill-opacity:1.0; 
stroke:#008400; stroke-width:39.3701; stroke-opacity:1; 
stroke-linecap:round; stroke-linejoin:round;">
</g>
<g style="fill:#008400; fill-opacity:1.0; 
stroke:#008400; stroke-width:0; stroke-opacity:1; 
stroke-linecap:round; stroke-linejoin:round;">
<circle cx="16324.7" cy="19800" r="354.331" /> 
</g>
<g style="fill:#008400; fill-opacity:1.0; 
stroke:#008400; stroke-width:39.3701; stroke-opacity:1; 
stroke-linecap:round; stroke-linejoin:round;">
</g>
<g style="fill:#008400; fill-opacity:1.0; 
stroke:#008400; stroke-width:0; stroke-opacity:1; 
stroke-linecap:round; stroke-linejoin:round;">
<circle cx="15324.7" cy="19800" r="354.331" /> 
</g>
<g style="fill:#008400; fill-opacity:1.0; 
stroke:#008400; stroke-width:39.3701; stroke-opacity:1; 
stroke-linecap:round; stroke-linejoin:round;">
</g>
<g style="fill:#008400; fill-opacity:1.0; 
stroke:#008400; stroke-width:0; stroke-opacity:1; 
stroke-linecap:round; stroke-linejoin:round;">
<circle cx="14324.7" cy="19800" r="354.331" /> 
</g>
<g style="fill:#008400; fill-opacity:1.0; 
stroke:#008400; stroke-width:39.3701; stroke-opacity:1; 
stroke-linecap:round; stroke-linejoin:round;">
</g>
<g style="fill:#008400; fill-opacity:1.0; 
stroke:#008400; stroke-width:0; stroke-opacity:1; 
stroke-linecap:round; stroke-linejoin:round;">
<circle cx="13324.7" cy="19800" r="354.331" /> 
</g>
<g style="fill:#008400; fill-opacity:1.0; 
stroke:#008400; stroke-width:39.3701; stroke-opacity:1; 
stroke-linecap:round; stroke-linejoin:round;">
</g>
<g style="fill:#008400; fill-opacity:1.0; 
stroke:#008400; stroke-width:0; stroke-opacity:1; 
stroke-linecap:round; stroke-linejoin:round;">
<circle cx="12324.7" cy="19800" r="354.331" /> 
</g>
<g style="fill:#008400; fill-opacity:1.0; 
stroke:#008400; stroke-width:39.3701; stroke-opacity:1; 
stroke-linecap:round; stroke-linejoin:round;">
</g>
<g style="fill:#008400; fill-opacity:1.0; 
stroke:#008400; stroke-width:0; stroke-opacity:1; 
stroke-linecap:round; stroke-linejoin:round;">
<circle cx="12324.7" cy="28800" r="354.331" /> 
</g>
<g style="fill:#008400; fill-opacity:1.0; 
stroke:#008400; stroke-width:39.3701; stroke-opacity:1; 
stroke-linecap:round; stroke-linejoin:round;">
</g>
<g style="fill:#008400; fill-opacity:1.0; 
stroke:#008400; stroke-width:0; stroke-opacity:1; 
stroke-linecap:round; stroke-linejoin:round;">
<circle cx="13324.7" cy="28800" r="354.331" /> 
</g>
<g style="fill:#008400; fill-opacity:1.0; 
stroke:#008400; stroke-width:39.3701; stroke-opacity:1; 
stroke-linecap:round; stroke-linejoin:round;">
</g>
<g style="fill:#008400; fill-opacity:1.0; 
stroke:#008400; stroke-width:0; stroke-opacity:1; 
stroke-linecap:round; stroke-linejoin:round;">
<circle cx="14324.7" cy="28800" r="354.331" /> 
</g>
<g style="fill:#008400; fill-opacity:1.0; 
stroke:#008400; stroke-width:39.3701; stroke-opacity:1; 
stroke-linecap:round; stroke-linejoin:round;">
</g>
<g style="fill:#008400; fill-opacity:1.0; 
stroke:#008400; stroke-width:0; stroke-opacity:1; 
stroke-linecap:round; stroke-linejoin:round;">
<circle cx="15324.7" cy="28800" r="354.331" /> 
</g>
<g style="fill:#008400; fill-opacity:1.0; 
stroke:#008400; stroke-width:39.3701; stroke-opacity:1; 
stroke-linecap:round; stroke-linejoin:round;">
</g>
<g style="fill:#008400; fill-opacity:1.0; 
stroke:#008400; stroke-width:0; stroke-opacity:1; 
stroke-linecap:round; stroke-linejoin:round;">
<circle cx="16324.7" cy="28800" r="354.331" /> 
</g>
<g style="fill:#008400; fill-opacity:1.0; 
stroke:#008400; stroke-width:39.3701; stroke-opacity:1; 
stroke-linecap:round; stroke-linejoin:round;">
</g>
<g style="fill:#008400; fill-opacity:1.0; 
stroke:#008400; stroke-width:0; stroke-opacity:1; 
stroke-linecap:round; stroke-linejoin:round;">
<circle cx="17324.7" cy="28800" r="354.331" /> 
</g>
<g style="fill:#008400; fill-opacity:1.0; 
stroke:#008400; stroke-width:39.3701; stroke-opacity:1; 
stroke-linecap:round; stroke-linejoin:round;">
</g>
<g style="fill:#008400; fill-opacity:1.0; 
stroke:#008400; stroke-width:0; stroke-opacity:1; 
stroke-linecap:round; stroke-linejoin:round;">
<circle cx="18324.7" cy="28800" r="354.331" /> 
</g>
<g style="fill:#008400; fill-opacity:1.0; 
stroke:#008400; stroke-width:39.3701; stroke-opacity:1; 
stroke-linecap:round; stroke-linejoin:round;">
</g>
<g style="fill:#008400; fill-opacity:1.0; 
stroke:#008400; stroke-width:0; stroke-opacity:1; 
stroke-linecap:round; stroke-linejoin:round;">
<circle cx="19324.7" cy="28800" r="354.331" /> 
</g>
<g style="fill:#008400; fill-opacity:1.0; 
stroke:#008400; stroke-width:39.3701; stroke-opacity:1; 
stroke-linecap:round; stroke-linejoin:round;">
</g>
<g style="fill:#008400; fill-opacity:1.0; 
stroke:#008400; stroke-width:0; stroke-opacity:1; 
stroke-linecap:round; stroke-linejoin:round;">
<circle cx="17422.3" cy="12677.6" r="393.701" /> 
</g>
<g style="fill:#008400; fill-opacity:1.0; 
stroke:#008400; stroke-width:39.3701; stroke-opacity:1; 
stroke-linecap:round; stroke-linejoin:round;">
</g>
<g style="fill:#008400; fill-opacity:1.0; 
stroke:#008400; stroke-width:0; stroke-opacity:1; 
stroke-linecap:round; stroke-linejoin:round;">
<circle cx="17422.3" cy="11677.6" r="393.701" /> 
</g>
<g style="fill:#008400; fill-opacity:1.0; 
stroke:#008400; stroke-width:39.3701; stroke-opacity:1; 
stroke-linecap:round; stroke-linejoin:round;">
</g>
<g style="fill:#008400; fill-opacity:1.0; 
stroke:#008400; stroke-width:0; stroke-opacity:1; 
stroke-linecap:round; stroke-linejoin:round;">
<circle cx="17422.3" cy="10677.6" r="393.701" /> 
</g>
<g style="fill:#008400; fill-opacity:1.0; 
stroke:#008400; stroke-width:39.3701; stroke-opacity:1; 
stroke-linecap:round; stroke-linejoin:round;">
</g>
<g style="fill:#008400; fill-opacity:1.0; 
stroke:#008400; stroke-width:0; stroke-opacity:1; 
stroke-linecap:round; stroke-linejoin:round;">
<circle cx="17422.3" cy="9677.56" r="393.701" /> 
</g>
<g style="fill:#008400; fill-opacity:1.0; 
stroke:#008400; stroke-width:39.3701; stroke-opacity:1; 
stroke-linecap:round; stroke-linejoin:round;">
</g>
<g style="fill:#008400; fill-opacity:1.0; 
stroke:#008400; stroke-width:0; stroke-opacity:1; 
stroke-linecap:round; stroke-linejoin:round;">
<circle cx="17422.3" cy="8677.56" r="393.701" /> 
</g>
<g style="fill:#008400; fill-opacity:1.0; 
stroke:#008400; stroke-width:39.3701; stroke-opacity:1; 
stroke-linecap:round; stroke-linejoin:round;">
</g>
<g style="fill:#008400; fill-opacity:1.0; 
stroke:#008400; stroke-width:0; stroke-opacity:1; 
stroke-linecap:round; stroke-linejoin:round;">
<circle cx="17422.3" cy="7677.56" r="393.701" /> 
</g>
<g style="fill:#008400; fill-opacity:1.0; 
stroke:#008400; stroke-width:39.3701; stroke-opacity:1; 
stroke-linecap:round; stroke-linejoin:round;">
</g>
<g style="fill:#008400; fill-opacity:1.0; 
stroke:#008400; stroke-width:0; stroke-opacity:1; 
stroke-linecap:round; stroke-linejoin:round;">
<circle cx="17422.3" cy="6677.56" r="393.701" /> 
</g>
<g style="fill:#008400; fill-opacity:1.0; 
stroke:#008400; stroke-width:39.3701; stroke-opacity:1; 
stroke-linecap:round; stroke-linejoin:round;">
</g>
<g style="fill:#008400; fill-opacity:1.0; 
stroke:#008400; stroke-width:0; stroke-opacity:1; 
stroke-linecap:round; stroke-linejoin:round;">
<circle cx="17422.3" cy="5677.56" r="393.701" /> 
</g>
<g style="fill:#008400; fill-opacity:1.0; 
stroke:#008400; stroke-width:39.3701; stroke-opacity:1; 
stroke-linecap:round; stroke-linejoin:round;">
</g>
<g style="fill:#008400; fill-opacity:1.0; 
stroke:#008400; stroke-width:0; stroke-opacity:1; 
stroke-linecap:round; stroke-linejoin:round;">
<circle cx="17422.3" cy="4677.56" r="393.701" /> 
</g>
<g style="fill:#008400; fill-opacity:1.0; 
stroke:#008400; stroke-width:39.3701; stroke-opacity:1; 
stroke-linecap:round; stroke-linejoin:round;">
</g>
<g style="fill:#008400; fill-opacity:1.0; 
stroke:#008400; stroke-width:0; stroke-opacity:1; 
stroke-linecap:round; stroke-linejoin:round;">
<circle cx="11753" cy="10665.7" r="393.701" /> 
</g>
<g style="fill:#008400; fill-opacity:1.0; 
stroke:#008400; stroke-width:39.3701; stroke-opacity:1; 
stroke-linecap:round; stroke-linejoin:round;">
</g>
<g style="fill:#008400; fill-opacity:1.0; 
stroke:#008400; stroke-width:0; stroke-opacity:1; 
stroke-linecap:round; stroke-linejoin:round;">
<circle cx="11753" cy="9665.75" r="393.701" /> 
</g>
<g style="fill:#008400; fill-opacity:1.0; 
stroke:#008400; stroke-width:39.3701; stroke-opacity:1; 
stroke-linecap:round; stroke-linejoin:round;">
</g>
<g style="fill:#008400; fill-opacity:1.0; 
stroke:#008400; stroke-width:0; stroke-opacity:1; 
stroke-linecap:round; stroke-linejoin:round;">
<circle cx="11753" cy="8665.75" r="393.701" /> 
</g>
<g style="fill:#008400; fill-opacity:1.0; 
stroke:#008400; stroke-width:39.3701; stroke-opacity:1; 
stroke-linecap:round; stroke-linejoin:round;">
</g>
<g style="fill:#008400; fill-opacity:1.0; 
stroke:#008400; stroke-width:0; stroke-opacity:1; 
stroke-linecap:round; stroke-linejoin:round;">
<circle cx="11753" cy="7665.75" r="393.701" /> 
</g>
<g style="fill:#008400; fill-opacity:1.0; 
stroke:#008400; stroke-width:39.3701; stroke-opacity:1; 
stroke-linecap:round; stroke-linejoin:round;">
</g>
<g style="fill:#008400; fill-opacity:1.0; 
stroke:#008400; stroke-width:0; stroke-opacity:1; 
stroke-linecap:round; stroke-linejoin:round;">
<circle cx="11753" cy="6665.75" r="393.701" /> 
</g>
<g style="fill:#008400; fill-opacity:1.0; 
stroke:#008400; stroke-width:39.3701; stroke-opacity:1; 
stroke-linecap:round; stroke-linejoin:round;">
</g>
<g style="fill:#008400; fill-opacity:1.0; 
stroke:#008400; stroke-width:0; stroke-opacity:1; 
stroke-linecap:round; stroke-linejoin:round;">
<circle cx="10639.6" cy="17625.6" r="393.701" /> 
</g>
<g style="fill:#008400; fill-opacity:1.0; 
stroke:#008400; stroke-width:39.3701; stroke-opacity:1; 
stroke-linecap:round; stroke-linejoin:round;">
</g>
<g style="fill:#008400; fill-opacity:1.0; 
stroke:#008400; stroke-width:0; stroke-opacity:1; 
stroke-linecap:round; stroke-linejoin:round;">
<circle cx="11639.6" cy="17625.6" r="393.701" /> 
</g>
<g style="fill:#008400; fill-opacity:1.0; 
stroke:#008400; stroke-width:39.3701; stroke-opacity:1; 
stroke-linecap:round; stroke-linejoin:round;">
</g>
<g style="fill:#008400; fill-opacity:1.0; 
stroke:#008400; stroke-width:0; stroke-opacity:1; 
stroke-linecap:round; stroke-linejoin:round;">
<circle cx="12639.6" cy="17625.6" r="393.701" /> 
</g>
<g style="fill:#008400; fill-opacity:1.0; 
stroke:#008400; stroke-width:39.3701; stroke-opacity:1; 
stroke-linecap:round; stroke-linejoin:round;">
</g>
<g style="fill:#008400; fill-opacity:1.0; 
stroke:#008400; stroke-width:0; stroke-opacity:1; 
stroke-linecap:round; stroke-linejoin:round;">
<circle cx="13639.6" cy="17625.6" r="393.701" /> 
</g>
<g style="fill:#008400; fill-opacity:1.0; 
stroke:#008400; stroke-width:39.3701; stroke-opacity:1; 
stroke-linecap:round; stroke-linejoin:round;">
</g>
<g style="fill:#008400; fill-opacity:1.0; 
stroke:#008400; stroke-width:0; stroke-opacity:1; 
stroke-linecap:round; stroke-linejoin:round;">
<circle cx="14639.6" cy="17625.6" r="393.701" /> 
</g>
<g style="fill:#008400; fill-opacity:1.0; 
stroke:#008400; stroke-width:39.3701; stroke-opacity:1; 
stroke-linecap:round; stroke-linejoin:round;">
</g>
<g style="fill:#008400; fill-opacity:1.0; 
stroke:#008400; stroke-width:0; stroke-opacity:1; 
stroke-linecap:round; stroke-linejoin:round;">
<circle cx="15639.6" cy="17625.6" r="393.701" /> 
</g>
<g style="fill:#008400; fill-opacity:1.0; 
stroke:#008400; stroke-width:39.3701; stroke-opacity:1; 
stroke-linecap:round; stroke-linejoin:round;">
</g>
<g style="fill:#008400; fill-opacity:1.0; 
stroke:#008400; stroke-width:0; stroke-opacity:1; 
stroke-linecap:round; stroke-linejoin:round;">
<circle cx="16639.6" cy="17625.6" r="393.701" /> 
</g>
<g style="fill:#008400; fill-opacity:1.0; 
stroke:#008400; stroke-width:39.3701; stroke-opacity:1; 
stroke-linecap:round; stroke-linejoin:round;">
</g>
<g style="fill:#008400; fill-opacity:1.0; 
stroke:#008400; stroke-width:0; stroke-opacity:1; 
stroke-linecap:round; stroke-linejoin:round;">
<circle cx="17639.6" cy="17625.6" r="393.701" /> 
</g>
<g style="fill:#008400; fill-opacity:1.0; 
stroke:#008400; stroke-width:39.3701; stroke-opacity:1; 
stroke-linecap:round; stroke-linejoin:round;">
</g>
<g style="fill:#008400; fill-opacity:1.0; 
stroke:#008400; stroke-width:0; stroke-opacity:1; 
stroke-linecap:round; stroke-linejoin:round;">
<polyline style="fill-rule:evenodd;"
points="12990,30115
13659,30115
13659,30784
12990,30784
12990,30115
" /> 
</g>
<g style="fill:#008400; fill-opacity:1.0; 
stroke:#008400; stroke-width:669.291; stroke-opacity:1; 
stroke-linecap:round; stroke-linejoin:round;">
</g>
<g style="fill:#008400; fill-opacity:0.0; 
stroke:#008400; stroke-width:669.291; stroke-opacity:1; 
stroke-linecap:round; stroke-linejoin:round;">
<path d="M12324 30450
L12324 30450
" />
</g>
<g style="fill:#008400; fill-opacity:0.0; 
stroke:#008400; stroke-width:590.551; stroke-opacity:1; 
stroke-linecap:round; stroke-linejoin:round;">
<path d="M11885 12725
L11294 12725
" />
<path d="M11885 13512
L11294 13512
" />
<path d="M11885 14300
L11294 14300
" />
<path d="M11885 15087
L11294 15087
" />
<path d="M11885 15874
L11294 15874
" />
<path d="M7554 15874
L6964 15874
" />
<path d="M7554 15087
L6964 15087
" />
<path d="M7554 14300
L6964 14300
" />
<path d="M7554 13512
L6964 13512
" />
<path d="M7554 12725
L6964 12725
" />
</g>
<g style="fill:#008400; fill-opacity:0.0; 
stroke:#008400; stroke-width:196.85; stroke-opacity:1; 
stroke-linecap:round; stroke-linejoin:round;">
<path d="M5374 12750
L7234 12750
" />
<path d="M7234 12750
L7259 12725
" />
<path d="M5374 13750
L5774 13750
" />
<path d="M6324 14300
L7259 14300
" />
<path d="M5774 13750
L6324 14300
" />
<path d="M5374 14750
L5774 14750
" />
<path d="M6112 15087
L7259 15087
" />
<path d="M5774 14750
L6112 15087
" />
<path d="M5374 15750
L5974 15750
" />
<path d="M6099 15874
L7259 15874
" />
<path d="M5974 15750
L6099 15874
" />
<path d="M15374 14300
L15374 12725
" />
<path d="M15374 12725
L17422 10677
" />
<path d="M17639 17625
L17639 16564
" />
<path d="M15374 14300
L11590 14300
" />
<path d="M17639 16564
L15374 14300
" />
<path d="M13324 30450
L20174 30450
" />
<path d="M19650 17625
L17639 17625
" />
<path d="M21174 19150
L19650 17625
" />
<path d="M21174 29450
L21174 19150
" />
<path d="M20174 30450
L21174 29450
" />
<path d="M13324 30450
L13324 28800
" />
<path d="M7259 15874
L7259 16315
" />
<path d="M7259 16315
L6524 17050
" />
<path d="M6524 17050
L6524 27350
" />
<path d="M6524 27350
L7224 28050
" />
<path d="M7224 28050
L12574 28050
" />
<path d="M12574 28050
L13324 28800
" />
</g>
<g style="fill:#008400; fill-opacity:0.0; 
stroke:#008400; stroke-width:98.4252; stroke-opacity:1; 
stroke-linecap:round; stroke-linejoin:round;">
<path d="M13374 30400
L13324 30450
" />
</g>
<g style="fill:#008400; fill-opacity:0.0; 
stroke:#008400; stroke-width:196.85; stroke-opacity:1; 
stroke-linecap:round; stroke-linejoin:round;">
<path d="M8274 19550
L8874 19550
" />
<path d="M19324 26150
L19324 28800
" />
<path d="M16174 23000
L19324 26150
" />
<path d="M12324 23000
L16174 23000
" />
<path d="M8874 19550
L12324 23000
" />
<path d="M8274 20550
L8874 20550
" />
<path d="M18324 26500
L18324 28800
" />
<path d="M15474 23650
L18324 26500
" />
<path d="M11974 23650
L15474 23650
" />
<path d="M8874 20550
L11974 23650
" />
<path d="M12324 30450
L12324 30800
" />
<path d="M17422 14397
L17422 12677
" />
<path d="M21924 18900
L17422 14397
" />
<path d="M21924 29700
L21924 18900
" />
<path d="M20374 31250
L21924 29700
" />
<path d="M12774 31250
L20374 31250
" />
<path d="M12324 30800
L12774 31250
" />
<path d="M12324 30450
L12324 28800
" />
</g>
<g style="fill:#008400; fill-opacity:0.0; 
stroke:#008400; stroke-width:98.4252; stroke-opacity:1; 
stroke-linecap:round; stroke-linejoin:round;">
<path d="M12274 28850
L12324 28800
" />
</g>
<g style="fill:#008400; fill-opacity:0.0; 
stroke:#008400; stroke-width:196.85; stroke-opacity:1; 
stroke-linecap:round; stroke-linejoin:round;">
<path d="M10639 17625
L10639 18614
" />
<path d="M12724 19200
L13324 19800
" />
<path d="M11224 19200
L12724 19200
" />
<path d="M10639 18614
L11224 19200
" />
<path d="M11639 17625
L11639 18564
" />
<path d="M13274 18750
L14324 19800
" />
<path d="M11824 18750
L13274 18750
" />
<path d="M11639 18564
L11824 18750
" />
<path d="M12639 17625
L12700 17625
" />
<path d="M12700 17625
L13724 18650
" />
<path d="M14174 18650
L15324 19800
" />
<path d="M13724 18650
L14174 18650
" />
</g>
<g style="fill:#008400; fill-opacity:0.0; 
stroke:#008400; stroke-width:98.4252; stroke-opacity:1; 
stroke-linecap:round; stroke-linejoin:round;">
<path d="M12639 17625
L12750 17625
" />
</g>
<g style="fill:#008400; fill-opacity:0.0; 
stroke:#008400; stroke-width:196.85; stroke-opacity:1; 
stroke-linecap:round; stroke-linejoin:round;">
<path d="M13639 17625
L13700 17625
" />
<path d="M13700 17625
L14674 18600
" />
<path d="M15124 18600
L16324 19800
" />
<path d="M14674 18600
L15124 18600
" />
</g>
<g style="fill:#008400; fill-opacity:0.0; 
stroke:#008400; stroke-width:98.4252; stroke-opacity:1; 
stroke-linecap:round; stroke-linejoin:round;">
<path d="M13639 17625
L13639 17864
" />
</g>
<g style="fill:#008400; fill-opacity:0.0; 
stroke:#008400; stroke-width:196.85; stroke-opacity:1; 
stroke-linecap:round; stroke-linejoin:round;">
<path d="M11590 15874
L13199 15874
" />
<path d="M14614 16600
L15639 17625
" />
<path d="M13924 16600
L14614 16600
" />
<path d="M13199 15874
L13924 16600
" />
<path d="M11590 15874
L10699 15874
" />
<path d="M10174 19800
L12324 19800
" />
<path d="M9524 19150
L10174 19800
" />
<path d="M9524 17050
L9524 19150
" />
<path d="M10699 15874
L9524 17050
" />
<path d="M11590 12725
L13899 12725
" />
<path d="M15574 10525
L17422 8677
" />
<path d="M15574 11050
L15574 10525
" />
<path d="M13899 12725
L15574 11050
" />
<path d="M11590 12725
L8899 12725
" />
<path d="M14974 27450
L16324 28800
" />
<path d="M7474 27450
L14974 27450
" />
<path d="M7024 27000
L7474 27450
" />
<path d="M7024 17350
L7024 27000
" />
<path d="M8174 16200
L7024 17350
" />
<path d="M8174 13450
L8174 16200
" />
<path d="M8899 12725
L8174 13450
" />
<path d="M11590 13512
L14012 13512
" />
<path d="M16124 10975
L17422 9677
" />
<path d="M16124 11400
L16124 10975
" />
<path d="M14012 13512
L16124 11400
" />
<path d="M11590 13512
L9012 13512
" />
<path d="M15374 26850
L17324 28800
" />
<path d="M7774 26850
L15374 26850
" />
<path d="M7574 26650
L7774 26850
" />
<path d="M7574 17600
L7574 26650
" />
<path d="M8724 16450
L7574 17600
" />
<path d="M8724 13800
L8724 16450
" />
<path d="M9012 13512
L8724 13800
" />
<path d="M14639 17625
L14700 17625
" />
<path d="M14700 17625
L15674 18600
" />
<path d="M16124 18600
L17324 19800
" />
<path d="M15674 18600
L16124 18600
" />
</g>
<g style="fill:#008400; fill-opacity:0.0; 
stroke:#008400; stroke-width:98.4252; stroke-opacity:1; 
stroke-linecap:round; stroke-linejoin:round;">
<path d="M14639 17625
L14750 17625
" />
</g>
<g style="fill:#008400; fill-opacity:0.0; 
stroke:#008400; stroke-width:196.85; stroke-opacity:1; 
stroke-linecap:round; stroke-linejoin:round;">
<path d="M15324 28800
L15324 29250
" />
<path d="M17764 18750
L16639 17625
" />
<path d="M19674 18750
L17764 18750
" />
<path d="M20474 19550
L19674 18750
" />
<path d="M20474 29100
L20474 19550
" />
<path d="M19724 29850
L20474 29100
" />
<path d="M15924 29850
L19724 29850
" />
<path d="M15324 29250
L15924 29850
" />
</g>
<g style="fill:#008400; fill-opacity:1.0; 
stroke:#008400; stroke-width:100; stroke-opacity:1; 
stroke-linecap:round; stroke-linejoin:round;">
<polyline style="fill-rule:evenodd;"
points="23274,649
23274,31750
4774,31750
4756,28919
11720,28919
11812,29141
11976,29306
11976,29981
11911,30025
11784,30214
11740,30438
11740,30461
11784,30685
11911,30874
12005,30938
12049,31003
12078,31046
12528,31496
12528,31496
12641,31571
12774,31598
12774,31598
20374,31598
20374,31598
20485,31576
20508,31571
20621,31496
20621,31496
22171,29946
22171,29946
22246,29833
22250,29811
22273,29700
22273,29699
22273,18900
22246,18766
22171,18653
22171,18653
17770,14253
17770,13230
17786,13223
17967,13042
18065,12806
18066,12550
17968,12313
17832,12177
17967,12042
18065,11806
18066,11550
17968,11313
17800,11145
17805,11131
17422,10748
17039,11131
17044,11145
16876,11312
16778,11548
16778,11805
16876,12041
17011,12177
16876,12312
16778,12548
16778,12805
16876,13041
17057,13222
17073,13229
17073,14397
17073,14397
17094,14503
17100,14530
17110,14546
17175,14644
21576,19044
21576,29555
20230,30901
13881,30901
13909,30834
13909,30562
13846,30500
13374,30500
13374,30507
13274,30507
13274,30500
13266,30500
13266,30400
13274,30400
13274,29927
13374,29927
13374,30400
13846,30400
13909,30337
13909,30065
13871,29973
13800,29903
13709,29865
13437,29865
13374,29927
13274,29927
13212,29865
12940,29865
12848,29903
12778,29973
12749,30042
12738,30025
12673,29981
12673,29306
12754,29225
12970,29225
13004,29326
13229,29408
13470,29398
13645,29326
13679,29225
13324,28870
12970,29225
12754,29225
12836,29142
12840,29134
12899,29154
13253,28800
12899,28445
12840,28465
12837,28458
12754,28374
12970,28374
13324,28729
13679,28374
13645,28273
13419,28191
13179,28201
13004,28273
12970,28374
12754,28374
12667,28287
12445,28195
12204,28195
11982,28287
11812,28457
11720,28679
11720,28919
4756,28919
4673,15862
4790,15862
4790,16134
4828,16226
4898,16296
4990,16334
5262,16334
5324,16272
5324,15800
5424,15800
5424,16272
5487,16334
5759,16334
5850,16296
5921,16226
5959,16134
5959,16009
6435,16009
6441,16037
6543,16225
6709,16359
6914,16420
7209,16420
7209,15924
6483,15924
6435,16009
5959,16009
5959,15862
5896,15800
5424,15800
5324,15800
4852,15800
4790,15862
4673,15862
4653,12750
4778,12750
4823,12973
4949,13163
5079,13250
4949,13336
4823,13526
4778,13750
4823,13973
4949,14163
5079,14250
4949,14336
4823,14526
4778,14750
4823,14973
4949,15163
4967,15174
4898,15203
4828,15273
4790,15365
4790,15637
4852,15700
5324,15700
5324,15692
5424,15692
5424,15700
5896,15700
5959,15637
5959,15396
5978,15409
6000,15413
6112,15435
6112,15435
6537,15435
6562,15472
6586,15489
6543,15524
6441,15712
6435,15740
6483,15824
7209,15824
7209,15816
7309,15816
7309,15824
7317,15824
7317,15924
7309,15924
7309,16420
7461,16420
6778,17103
6702,17216
6702,17216
6676,17350
6676,17350
6676,26999
6676,27000
6695,27096
6702,27133
6746,27198
6778,27246
7228,27696
7228,27696
7341,27771
7474,27798
7474,27798
14830,27798
15227,28195
15204,28195
14982,28287
14824,28445
14667,28287
14445,28195
14204,28195
13982,28287
13812,28457
13809,28465
13749,28445
13395,28800
13749,29154
13809,29134
13812,29141
13981,29312
14203,29404
14444,29404
14666,29312
14824,29154
14981,29312
14989,29315
14991,29326
15002,29383
15046,29448
15078,29496
15678,30096
15678,30096
15791,30171
15924,30198
19724,30198
19724,30198
19835,30176
19858,30171
19971,30096
19971,30096
20721,29346
20721,29346
20796,29233
20813,29149
20823,29100
20823,29099
20823,19550
20823,19550
20796,19416
20796,19416
20721,19303
20721,19303
19921,18503
19888,18481
19808,18428
19785,18423
19674,18401
19674,18401
17908,18401
17771,18264
17791,18264
17983,18184
18022,18079
17639,17696
17634,17701
17563,17631
17568,17625
17710,17625
18093,18008
18198,17969
18287,17729
18278,17473
18198,17281
18093,17242
17710,17625
17568,17625
17185,17242
17171,17247
17096,17171
17256,17171
17639,17554
18022,17171
17983,17066
17743,16977
17487,16987
17295,17066
17256,17171
17096,17171
17004,17080
16768,16982
16512,16981
16275,17079
16139,17215
16004,17080
15768,16982
15512,16981
15495,16988
14860,16353
14805,16316
14747,16278
14717,16272
14614,16251
14614,16251
14068,16251
13445,15628
13332,15552
13310,15548
13199,15526
13199,15526
12312,15526
12287,15489
12275,15481
12287,15472
12405,15296
12447,15087
12405,14878
12287,14701
12262,14685
12306,14650
12408,14462
12413,14434
12365,14350
11640,14350
11640,14357
11540,14357
11540,14350
10814,14350
10766,14434
10771,14462
10873,14650
10917,14685
10892,14701
10774,14878
10733,15087
10774,15296
10892,15472
10904,15481
10892,15489
10867,15526
10699,15526
10566,15552
10453,15628
10453,15628
9278,16803
9202,16916
9202,16916
9176,17050
9176,17050
9176,19149
9176,19150
9190,19221
9202,19283
9278,19396
9928,20046
9928,20046
9993,20090
10041,20121
10174,20148
10174,20148
11818,20148
11981,20312
12203,20404
12444,20404
12666,20312
12824,20154
12981,20312
13203,20404
13444,20404
13666,20312
13824,20154
13981,20312
14203,20404
14444,20404
14666,20312
14824,20154
14981,20312
15203,20404
15444,20404
15666,20312
15824,20154
15981,20312
16203,20404
16444,20404
16666,20312
16824,20154
16981,20312
17203,20404
17444,20404
17666,20312
17824,20154
17981,20312
18203,20404
18444,20404
18666,20312
18824,20154
18981,20312
19203,20404
19444,20404
19666,20312
19836,20142
19928,19920
19929,19680
19837,19458
19667,19287
19445,19195
19204,19195
18982,19287
18824,19445
18667,19287
18445,19195
18204,19195
17982,19287
17824,19445
17667,19287
17445,19195
17212,19195
16371,18353
16318,18318
16258,18278
16235,18273
16124,18251
16124,18251
15818,18251
15816,18249
16003,18171
16139,18035
16274,18170
16511,18269
16767,18269
16783,18262
17517,18996
17517,18996
17630,19071
17652,19076
17764,19098
17764,19098
19530,19098
20126,19694
20126,28955
19580,29501
16068,29501
15773,29205
15824,29154
15981,29312
16203,29404
16444,29404
16666,29312
16824,29154
16981,29312
17203,29404
17444,29404
17666,29312
17824,29154
17981,29312
18203,29404
18444,29404
18666,29312
18824,29154
18981,29312
19203,29404
19444,29404
19666,29312
19836,29142
19928,28920
19929,28680
19837,28458
19673,28293
19673,26150
19673,26150
19646,26016
19646,26016
19571,25903
19571,25903
16421,22753
16308,22678
16285,22673
16174,22651
16174,22651
12468,22651
9121,19303
9090,19283
9008,19228
8985,19223
8874,19201
8874,19201
8742,19201
8699,19136
8509,19009
8286,18965
8263,18965
8039,19009
7923,19087
7923,17744
8971,16696
8971,16696
9046,16583
9058,16521
9073,16450
9073,16449
9073,13944
9156,13861
10867,13861
10892,13898
10917,13914
10873,13949
10771,14137
10766,14165
10814,14250
11540,14250
11540,14242
11640,14242
11640,14250
12365,14250
12413,14165
12408,14137
12306,13949
12262,13914
12287,13898
12312,13861
14012,13861
14012,13861
14123,13838
14145,13834
14258,13758
14258,13758
16371,11646
16371,11646
16446,11533
16450,11511
16473,11400
16473,11399
16473,11119
16783,10809
16783,10829
16863,11021
16968,11060
17351,10677
17493,10677
17876,11060
17981,11021
18070,10781
18060,10525
17981,10333
17876,10294
17493,10677
17351,10677
17346,10671
17416,10601
17422,10606
17805,10223
17800,10209
17967,10042
18065,9806
18066,9550
17968,9313
17832,9177
17967,9042
18065,8806
18066,8550
17968,8313
17832,8177
17967,8042
18065,7806
18066,7550
17968,7313
17832,7177
17967,7042
18065,6806
18066,6550
17968,6313
17832,6177
17967,6042
18065,5806
18066,5550
17968,5313
17832,5177
17967,5042
18065,4806
18066,4550
17968,4313
17787,4132
17550,4033
17294,4033
17058,4131
16876,4312
16778,4548
16778,4805
16876,5041
17011,5177
16876,5312
16778,5548
16778,5805
16876,6041
17011,6177
16876,6312
16778,6548
16778,6805
16876,7041
17011,7177
16876,7312
16778,7548
16778,7805
16876,8041
17011,8177
16876,8312
16778,8548
16778,8805
16785,8821
15328,10278
15252,10391
15252,10391
15226,10525
15226,10525
15226,10905
13755,12376
12312,12376
12287,12339
12110,12221
11901,12179
11278,12179
11069,12221
10892,12339
10867,12376
8899,12376
8899,12376
8774,12401
8766,12403
8653,12478
8653,12478
7975,13155
7956,13127
7944,13118
7956,13110
8074,12933
8116,12725
8074,12516
7956,12339
7779,12221
7571,12179
6947,12179
6738,12221
6562,12339
6520,12401
5842,12401
5799,12336
5609,12209
5386,12165
5363,12165
5139,12209
4949,12336
4823,12526
4778,12750
4653,12750
4615,6793
11109,6793
11206,7029
11342,7165
11207,7300
11109,7537
11109,7793
11206,8029
11342,8165
11207,8300
11109,8537
11109,8793
11206,9029
11342,9165
11207,9300
11109,9537
11109,9793
11206,10029
11342,10165
11207,10300
11109,10537
11109,10793
11206,11029
11387,11211
11624,11309
11880,11309
12117,11211
12298,11030
12396,10794
12396,10538
12299,10301
12163,10165
12298,10030
12396,9794
12396,9538
12299,9301
12163,9165
12298,9030
12396,8794
12396,8538
12299,8301
12163,8165
12298,8030
12396,7794
12396,7538
12299,7301
12163,7165
12298,7030
12396,6794
12396,6538
12299,6301
12118,6120
11881,6022
11625,6021
11388,6119
11207,6300
11109,6537
11109,6793
4615,6793
4574,450
23274,649
" /> 
</g>
<g style="fill:#FFFFFF; fill-opacity:1.0; 
stroke:#FFFFFF; stroke-width:100; stroke-opacity:1; 
stroke-linecap:round; stroke-linejoin:round;">
</g>
<g style="fill:#FFFFFF; fill-opacity:1.0; 
stroke:#FFFFFF; stroke-width:0; stroke-opacity:1; 
stroke-linecap:round; stroke-linejoin:round;">
<circle cx="5374.67" cy="15750" r="196.85" /> 
</g>
<g style="fill:#FFFFFF; fill-opacity:1.0; 
stroke:#FFFFFF; stroke-width:39.3701; stroke-opacity:1; 
stroke-linecap:round; stroke-linejoin:round;">
</g>
<g style="fill:#FFFFFF; fill-opacity:1.0; 
stroke:#FFFFFF; stroke-width:0; stroke-opacity:1; 
stroke-linecap:round; stroke-linejoin:round;">
<circle cx="5374.67" cy="14750" r="196.85" /> 
</g>
<g style="fill:#FFFFFF; fill-opacity:1.0; 
stroke:#FFFFFF; stroke-width:39.3701; stroke-opacity:1; 
stroke-linecap:round; stroke-linejoin:round;">
</g>
<g style="fill:#FFFFFF; fill-opacity:1.0; 
stroke:#FFFFFF; stroke-width:0; stroke-opacity:1; 
stroke-linecap:round; stroke-linejoin:round;">
<circle cx="5374.67" cy="13750" r="196.85" /> 
</g>
<g style="fill:#FFFFFF; fill-opacity:1.0; 
stroke:#FFFFFF; stroke-width:39.3701; stroke-opacity:1; 
stroke-linecap:round; stroke-linejoin:round;">
</g>
<g style="fill:#FFFFFF; fill-opacity:1.0; 
stroke:#FFFFFF; stroke-width:0; stroke-opacity:1; 
stroke-linecap:round; stroke-linejoin:round;">
<circle cx="5374.67" cy="12750" r="196.85" /> 
</g>
<g style="fill:#FFFFFF; fill-opacity:1.0; 
stroke:#FFFFFF; stroke-width:39.3701; stroke-opacity:1; 
stroke-linecap:round; stroke-linejoin:round;">
</g>
<g style="fill:#FFFFFF; fill-opacity:1.0; 
stroke:#FFFFFF; stroke-width:0; stroke-opacity:1; 
stroke-linecap:round; stroke-linejoin:round;">
<circle cx="8274.67" cy="20550" r="196.85" /> 
</g>
<g style="fill:#FFFFFF; fill-opacity:1.0; 
stroke:#FFFFFF; stroke-width:39.3701; stroke-opacity:1; 
stroke-linecap:round; stroke-linejoin:round;">
</g>
<g style="fill:#FFFFFF; fill-opacity:1.0; 
stroke:#FFFFFF; stroke-width:0; stroke-opacity:1; 
stroke-linecap:round; stroke-linejoin:round;">
<circle cx="8274.67" cy="19550" r="196.85" /> 
</g>
<g style="fill:#FFFFFF; fill-opacity:1.0; 
stroke:#FFFFFF; stroke-width:39.3701; stroke-opacity:1; 
stroke-linecap:round; stroke-linejoin:round;">
</g>
<g style="fill:#FFFFFF; fill-opacity:1.0; 
stroke:#FFFFFF; stroke-width:0; stroke-opacity:1; 
stroke-linecap:round; stroke-linejoin:round;">
<circle cx="19324.7" cy="19800" r="200" /> 
</g>
<g style="fill:#FFFFFF; fill-opacity:1.0; 
stroke:#FFFFFF; stroke-width:39.3701; stroke-opacity:1; 
stroke-linecap:round; stroke-linejoin:round;">
</g>
<g style="fill:#FFFFFF; fill-opacity:1.0; 
stroke:#FFFFFF; stroke-width:0; stroke-opacity:1; 
stroke-linecap:round; stroke-linejoin:round;">
<circle cx="18324.7" cy="19800" r="200" /> 
</g>
<g style="fill:#FFFFFF; fill-opacity:1.0; 
stroke:#FFFFFF; stroke-width:39.3701; stroke-opacity:1; 
stroke-linecap:round; stroke-linejoin:round;">
</g>
<g style="fill:#FFFFFF; fill-opacity:1.0; 
stroke:#FFFFFF; stroke-width:0; stroke-opacity:1; 
stroke-linecap:round; stroke-linejoin:round;">
<circle cx="17324.7" cy="19800" r="200" /> 
</g>
<g style="fill:#FFFFFF; fill-opacity:1.0; 
stroke:#FFFFFF; stroke-width:39.3701; stroke-opacity:1; 
stroke-linecap:round; stroke-linejoin:round;">
</g>
<g style="fill:#FFFFFF; fill-opacity:1.0; 
stroke:#FFFFFF; stroke-width:0; stroke-opacity:1; 
stroke-linecap:round; stroke-linejoin:round;">
<circle cx="16324.7" cy="19800" r="200" /> 
</g>
<g style="fill:#FFFFFF; fill-opacity:1.0; 
stroke:#FFFFFF; stroke-width:39.3701; stroke-opacity:1; 
stroke-linecap:round; stroke-linejoin:round;">
</g>
<g style="fill:#FFFFFF; fill-opacity:1.0; 
stroke:#FFFFFF; stroke-width:0; stroke-opacity:1; 
stroke-linecap:round; stroke-linejoin:round;">
<circle cx="15324.7" cy="19800" r="200" /> 
</g>
<g style="fill:#FFFFFF; fill-opacity:1.0; 
stroke:#FFFFFF; stroke-width:39.3701; stroke-opacity:1; 
stroke-linecap:round; stroke-linejoin:round;">
</g>
<g style="fill:#FFFFFF; fill-opacity:1.0; 
stroke:#FFFFFF; stroke-width:0; stroke-opacity:1; 
stroke-linecap:round; stroke-linejoin:round;">
<circle cx="14324.7" cy="19800" r="200" /> 
</g>
<g style="fill:#FFFFFF; fill-opacity:1.0; 
stroke:#FFFFFF; stroke-width:39.3701; stroke-opacity:1; 
stroke-linecap:round; stroke-linejoin:round;">
</g>
<g style="fill:#FFFFFF; fill-opacity:1.0; 
stroke:#FFFFFF; stroke-width:0; stroke-opacity:1; 
stroke-linecap:round; stroke-linejoin:round;">
<circle cx="13324.7" cy="19800" r="200" /> 
</g>
<g style="fill:#FFFFFF; fill-opacity:1.0; 
stroke:#FFFFFF; stroke-width:39.3701; stroke-opacity:1; 
stroke-linecap:round; stroke-linejoin:round;">
</g>
<g style="fill:#FFFFFF; fill-opacity:1.0; 
stroke:#FFFFFF; stroke-width:0; stroke-opacity:1; 
stroke-linecap:round; stroke-linejoin:round;">
<circle cx="12324.7" cy="19800" r="200" /> 
</g>
<g style="fill:#FFFFFF; fill-opacity:1.0; 
stroke:#FFFFFF; stroke-width:39.3701; stroke-opacity:1; 
stroke-linecap:round; stroke-linejoin:round;">
</g>
<g style="fill:#FFFFFF; fill-opacity:1.0; 
stroke:#FFFFFF; stroke-width:0; stroke-opacity:1; 
stroke-linecap:round; stroke-linejoin:round;">
<circle cx="12324.7" cy="28800" r="200" /> 
</g>
<g style="fill:#FFFFFF; fill-opacity:1.0; 
stroke:#FFFFFF; stroke-width:39.3701; stroke-opacity:1; 
stroke-linecap:round; stroke-linejoin:round;">
</g>
<g style="fill:#FFFFFF; fill-opacity:1.0; 
stroke:#FFFFFF; stroke-width:0; stroke-opacity:1; 
stroke-linecap:round; stroke-linejoin:round;">
<circle cx="13324.7" cy="28800" r="200" /> 
</g>
<g style="fill:#FFFFFF; fill-opacity:1.0; 
stroke:#FFFFFF; stroke-width:39.3701; stroke-opacity:1; 
stroke-linecap:round; stroke-linejoin:round;">
</g>
<g style="fill:#FFFFFF; fill-opacity:1.0; 
stroke:#FFFFFF; stroke-width:0; stroke-opacity:1; 
stroke-linecap:round; stroke-linejoin:round;">
<circle cx="14324.7" cy="28800" r="200" /> 
</g>
<g style="fill:#FFFFFF; fill-opacity:1.0; 
stroke:#FFFFFF; stroke-width:39.3701; stroke-opacity:1; 
stroke-linecap:round; stroke-linejoin:round;">
</g>
<g style="fill:#FFFFFF; fill-opacity:1.0; 
stroke:#FFFFFF; stroke-width:0; stroke-opacity:1; 
stroke-linecap:round; stroke-linejoin:round;">
<circle cx="15324.7" cy="28800" r="200" /> 
</g>
<g style="fill:#FFFFFF; fill-opacity:1.0; 
stroke:#FFFFFF; stroke-width:39.3701; stroke-opacity:1; 
stroke-linecap:round; stroke-linejoin:round;">
</g>
<g style="fill:#FFFFFF; fill-opacity:1.0; 
stroke:#FFFFFF; stroke-width:0; stroke-opacity:1; 
stroke-linecap:round; stroke-linejoin:round;">
<circle cx="16324.7" cy="28800" r="200" /> 
</g>
<g style="fill:#FFFFFF; fill-opacity:1.0; 
stroke:#FFFFFF; stroke-width:39.3701; stroke-opacity:1; 
stroke-linecap:round; stroke-linejoin:round;">
</g>
<g style="fill:#FFFFFF; fill-opacity:1.0; 
stroke:#FFFFFF; stroke-width:0; stroke-opacity:1; 
stroke-linecap:round; stroke-linejoin:round;">
<circle cx="17324.7" cy="28800" r="200" /> 
</g>
<g style="fill:#FFFFFF; fill-opacity:1.0; 
stroke:#FFFFFF; stroke-width:39.3701; stroke-opacity:1; 
stroke-linecap:round; stroke-linejoin:round;">
</g>
<g style="fill:#FFFFFF; fill-opacity:1.0; 
stroke:#FFFFFF; stroke-width:0; stroke-opacity:1; 
stroke-linecap:round; stroke-linejoin:round;">
<circle cx="18324.7" cy="28800" r="200" /> 
</g>
<g style="fill:#FFFFFF; fill-opacity:1.0; 
stroke:#FFFFFF; stroke-width:39.3701; stroke-opacity:1; 
stroke-linecap:round; stroke-linejoin:round;">
</g>
<g style="fill:#FFFFFF; fill-opacity:1.0; 
stroke:#FFFFFF; stroke-width:0; stroke-opacity:1; 
stroke-linecap:round; stroke-linejoin:round;">
<circle cx="19324.7" cy="28800" r="200" /> 
</g>
<g style="fill:#FFFFFF; fill-opacity:1.0; 
stroke:#FFFFFF; stroke-width:39.3701; stroke-opacity:1; 
stroke-linecap:round; stroke-linejoin:round;">
</g>
<g style="fill:#FFFFFF; fill-opacity:1.0; 
stroke:#FFFFFF; stroke-width:0; stroke-opacity:1; 
stroke-linecap:round; stroke-linejoin:round;">
<circle cx="17422.3" cy="12677.6" r="150" /> 
</g>
<g style="fill:#FFFFFF; fill-opacity:1.0; 
stroke:#FFFFFF; stroke-width:39.3701; stroke-opacity:1; 
stroke-linecap:round; stroke-linejoin:round;">
</g>
<g style="fill:#FFFFFF; fill-opacity:1.0; 
stroke:#FFFFFF; stroke-width:0; stroke-opacity:1; 
stroke-linecap:round; stroke-linejoin:round;">
<circle cx="17422.3" cy="11677.6" r="150" /> 
</g>
<g style="fill:#FFFFFF; fill-opacity:1.0; 
stroke:#FFFFFF; stroke-width:39.3701; stroke-opacity:1; 
stroke-linecap:round; stroke-linejoin:round;">
</g>
<g style="fill:#FFFFFF; fill-opacity:1.0; 
stroke:#FFFFFF; stroke-width:0; stroke-opacity:1; 
stroke-linecap:round; stroke-linejoin:round;">
<circle cx="17422.3" cy="10677.6" r="150" /> 
</g>
<g style="fill:#FFFFFF; fill-opacity:1.0; 
stroke:#FFFFFF; stroke-width:39.3701; stroke-opacity:1; 
stroke-linecap:round; stroke-linejoin:round;">
</g>
<g style="fill:#FFFFFF; fill-opacity:1.0; 
stroke:#FFFFFF; stroke-width:0; stroke-opacity:1; 
stroke-linecap:round; stroke-linejoin:round;">
<circle cx="17422.3" cy="9677.56" r="150" /> 
</g>
<g style="fill:#FFFFFF; fill-opacity:1.0; 
stroke:#FFFFFF; stroke-width:39.3701; stroke-opacity:1; 
stroke-linecap:round; stroke-linejoin:round;">
</g>
<g style="fill:#FFFFFF; fill-opacity:1.0; 
stroke:#FFFFFF; stroke-width:0; stroke-opacity:1; 
stroke-linecap:round; stroke-linejoin:round;">
<circle cx="17422.3" cy="8677.56" r="150" /> 
</g>
<g style="fill:#FFFFFF; fill-opacity:1.0; 
stroke:#FFFFFF; stroke-width:39.3701; stroke-opacity:1; 
stroke-linecap:round; stroke-linejoin:round;">
</g>
<g style="fill:#FFFFFF; fill-opacity:1.0; 
stroke:#FFFFFF; stroke-width:0; stroke-opacity:1; 
stroke-linecap:round; stroke-linejoin:round;">
<circle cx="17422.3" cy="7677.56" r="150" /> 
</g>
<g style="fill:#FFFFFF; fill-opacity:1.0; 
stroke:#FFFFFF; stroke-width:39.3701; stroke-opacity:1; 
stroke-linecap:round; stroke-linejoin:round;">
</g>
<g style="fill:#FFFFFF; fill-opacity:1.0; 
stroke:#FFFFFF; stroke-width:0; stroke-opacity:1; 
stroke-linecap:round; stroke-linejoin:round;">
<circle cx="17422.3" cy="6677.56" r="150" /> 
</g>
<g style="fill:#FFFFFF; fill-opacity:1.0; 
stroke:#FFFFFF; stroke-width:39.3701; stroke-opacity:1; 
stroke-linecap:round; stroke-linejoin:round;">
</g>
<g style="fill:#FFFFFF; fill-opacity:1.0; 
stroke:#FFFFFF; stroke-width:0; stroke-opacity:1; 
stroke-linecap:round; stroke-linejoin:round;">
<circle cx="17422.3" cy="5677.56" r="150" /> 
</g>
<g style="fill:#FFFFFF; fill-opacity:1.0; 
stroke:#FFFFFF; stroke-width:39.3701; stroke-opacity:1; 
stroke-linecap:round; stroke-linejoin:round;">
</g>
<g style="fill:#FFFFFF; fill-opacity:1.0; 
stroke:#FFFFFF; stroke-width:0; stroke-opacity:1; 
stroke-linecap:round; stroke-linejoin:round;">
<circle cx="17422.3" cy="4677.56" r="150" /> 
</g>
<g style="fill:#FFFFFF; fill-opacity:1.0; 
stroke:#FFFFFF; stroke-width:39.3701; stroke-opacity:1; 
stroke-linecap:round; stroke-linejoin:round;">
</g>
<g style="fill:#FFFFFF; fill-opacity:1.0; 
stroke:#FFFFFF; stroke-width:0; stroke-opacity:1; 
stroke-linecap:round; stroke-linejoin:round;">
<circle cx="11753" cy="10665.7" r="150" /> 
</g>
<g style="fill:#FFFFFF; fill-opacity:1.0; 
stroke:#FFFFFF; stroke-width:39.3701; stroke-opacity:1; 
stroke-linecap:round; stroke-linejoin:round;">
</g>
<g style="fill:#FFFFFF; fill-opacity:1.0; 
stroke:#FFFFFF; stroke-width:0; stroke-opacity:1; 
stroke-linecap:round; stroke-linejoin:round;">
<circle cx="11753" cy="9665.75" r="150" /> 
</g>
<g style="fill:#FFFFFF; fill-opacity:1.0; 
stroke:#FFFFFF; stroke-width:39.3701; stroke-opacity:1; 
stroke-linecap:round; stroke-linejoin:round;">
</g>
<g style="fill:#FFFFFF; fill-opacity:1.0; 
stroke:#FFFFFF; stroke-width:0; stroke-opacity:1; 
stroke-linecap:round; stroke-linejoin:round;">
<circle cx="11753" cy="8665.75" r="150" /> 
</g>
<g style="fill:#FFFFFF; fill-opacity:1.0; 
stroke:#FFFFFF; stroke-width:39.3701; stroke-opacity:1; 
stroke-linecap:round; stroke-linejoin:round;">
</g>
<g style="fill:#FFFFFF; fill-opacity:1.0; 
stroke:#FFFFFF; stroke-width:0; stroke-opacity:1; 
stroke-linecap:round; stroke-linejoin:round;">
<circle cx="11753" cy="7665.75" r="150" /> 
</g>
<g style="fill:#FFFFFF; fill-opacity:1.0; 
stroke:#FFFFFF; stroke-width:39.3701; stroke-opacity:1; 
stroke-linecap:round; stroke-linejoin:round;">
</g>
<g style="fill:#FFFFFF; fill-opacity:1.0; 
stroke:#FFFFFF; stroke-width:0; stroke-opacity:1; 
stroke-linecap:round; stroke-linejoin:round;">
<circle cx="11753" cy="6665.75" r="150" /> 
</g>
<g style="fill:#FFFFFF; fill-opacity:1.0; 
stroke:#FFFFFF; stroke-width:39.3701; stroke-opacity:1; 
stroke-linecap:round; stroke-linejoin:round;">
</g>
<g style="fill:#FFFFFF; fill-opacity:1.0; 
stroke:#FFFFFF; stroke-width:0; stroke-opacity:1; 
stroke-linecap:round; stroke-linejoin:round;">
<circle cx="10639.6" cy="17625.6" r="150" /> 
</g>
<g style="fill:#FFFFFF; fill-opacity:1.0; 
stroke:#FFFFFF; stroke-width:39.3701; stroke-opacity:1; 
stroke-linecap:round; stroke-linejoin:round;">
</g>
<g style="fill:#FFFFFF; fill-opacity:1.0; 
stroke:#FFFFFF; stroke-width:0; stroke-opacity:1; 
stroke-linecap:round; stroke-linejoin:round;">
<circle cx="11639.6" cy="17625.6" r="150" /> 
</g>
<g style="fill:#FFFFFF; fill-opacity:1.0; 
stroke:#FFFFFF; stroke-width:39.3701; stroke-opacity:1; 
stroke-linecap:round; stroke-linejoin:round;">
</g>
<g style="fill:#FFFFFF; fill-opacity:1.0; 
stroke:#FFFFFF; stroke-width:0; stroke-opacity:1; 
stroke-linecap:round; stroke-linejoin:round;">
<circle cx="12639.6" cy="17625.6" r="150" /> 
</g>
<g style="fill:#FFFFFF; fill-opacity:1.0; 
stroke:#FFFFFF; stroke-width:39.3701; stroke-opacity:1; 
stroke-linecap:round; stroke-linejoin:round;">
</g>
<g style="fill:#FFFFFF; fill-opacity:1.0; 
stroke:#FFFFFF; stroke-width:0; stroke-opacity:1; 
stroke-linecap:round; stroke-linejoin:round;">
<circle cx="13639.6" cy="17625.6" r="150" /> 
</g>
<g style="fill:#FFFFFF; fill-opacity:1.0; 
stroke:#FFFFFF; stroke-width:39.3701; stroke-opacity:1; 
stroke-linecap:round; stroke-linejoin:round;">
</g>
<g style="fill:#FFFFFF; fill-opacity:1.0; 
stroke:#FFFFFF; stroke-width:0; stroke-opacity:1; 
stroke-linecap:round; stroke-linejoin:round;">
<circle cx="14639.6" cy="17625.6" r="150" /> 
</g>
<g style="fill:#FFFFFF; fill-opacity:1.0; 
stroke:#FFFFFF; stroke-width:39.3701; stroke-opacity:1; 
stroke-linecap:round; stroke-linejoin:round;">
</g>
<g style="fill:#FFFFFF; fill-opacity:1.0; 
stroke:#FFFFFF; stroke-width:0; stroke-opacity:1; 
stroke-linecap:round; stroke-linejoin:round;">
<circle cx="15639.6" cy="17625.6" r="150" /> 
</g>
<g style="fill:#FFFFFF; fill-opacity:1.0; 
stroke:#FFFFFF; stroke-width:39.3701; stroke-opacity:1; 
stroke-linecap:round; stroke-linejoin:round;">
</g>
<g style="fill:#FFFFFF; fill-opacity:1.0; 
stroke:#FFFFFF; stroke-width:0; stroke-opacity:1; 
stroke-linecap:round; stroke-linejoin:round;">
<circle cx="16639.6" cy="17625.6" r="150" /> 
</g>
<g style="fill:#FFFFFF; fill-opacity:1.0; 
stroke:#FFFFFF; stroke-width:39.3701; stroke-opacity:1; 
stroke-linecap:round; stroke-linejoin:round;">
</g>
<g style="fill:#FFFFFF; fill-opacity:1.0; 
stroke:#FFFFFF; stroke-width:0; stroke-opacity:1; 
stroke-linecap:round; stroke-linejoin:round;">
<circle cx="17639.6" cy="17625.6" r="150" /> 
</g>
<g style="fill:#FFFFFF; fill-opacity:1.0; 
stroke:#FFFFFF; stroke-width:39.3701; stroke-opacity:1; 
stroke-linecap:round; stroke-linejoin:round;">
</g>
<g style="fill:#FFFFFF; fill-opacity:1.0; 
stroke:#FFFFFF; stroke-width:0; stroke-opacity:1; 
stroke-linecap:round; stroke-linejoin:round;">
<circle cx="13324.7" cy="30450" r="196.85" /> 
</g>
<g style="fill:#FFFFFF; fill-opacity:1.0; 
stroke:#FFFFFF; stroke-width:39.3701; stroke-opacity:1; 
stroke-linecap:round; stroke-linejoin:round;">
</g>
<g style="fill:#FFFFFF; fill-opacity:1.0; 
stroke:#FFFFFF; stroke-width:0; stroke-opacity:1; 
stroke-linecap:round; stroke-linejoin:round;">
<circle cx="12324.7" cy="30450" r="196.85" /> 
</g>
<g style="fill:#FFFFFF; fill-opacity:1.0; 
stroke:#FFFFFF; stroke-width:39.3701; stroke-opacity:1; 
stroke-linecap:round; stroke-linejoin:round;">
</g>
<g style="fill:#000000; fill-opacity:1.0; 
stroke:#000000; stroke-width:39.3701; stroke-opacity:1; 
stroke-linecap:round; stroke-linejoin:round;">
</g>
<g style="fill:#000000; fill-opacity:0.0; 
stroke:#000000; stroke-width:39.3701; stroke-opacity:1; 
stroke-linecap:round; stroke-linejoin:round;">
<polyline fill="none;"
points="23844,0
23847,0
23849,1
23852,1
23854,3
23857,3
23859,5
23861,6
23863,8
23865,10
23866,12
23867,14
23868,17
23870,19
23870,21
23871,24
23871,26
23871,29
23871,32312
23871,32315
23871,32318
23870,32320
23870,32323
23868,32325
23867,32327
23866,32329
23865,32331
23863,32333
23861,32335
23859,32336
23857,32338
23854,32339
23852,32340
23849,32341
23847,32342
23844,32342
23842,32342
4157,32342
4154,32342
4152,32342
4149,32341
4147,32340
4145,32339
4142,32338
4140,32336
4138,32335
4136,32333
4134,32331
4133,32329
4131,32327
4130,32325
4129,32323
4129,32320
4128,32318
4128,32315
4127,32312
4127,29
4128,26
4128,24
4129,21
4129,19
4130,17
4131,14
4133,12
4134,10
4136,8
4138,6
4140,5
4142,3
4145,3
4147,1
4149,1
4152,0
4154,0
4157,0
23842,0
23844,0
" /> 
<polyline fill="none;"
points="4186,59
4186,32283
23812,32283
23812,59
4186,59
" /> 
</g> 
</svg>
