G04 #@! TF.FileFunction,Copper,L2,Bot,Signal*
%FSLAX46Y46*%
G04 Gerber Fmt 4.6, Leading zero omitted, Abs format (unit mm)*
G04 Created by KiCad (PCBNEW 4.0.7) date Friday 03 August 2018 17:56:29*
%MOMM*%
%LPD*%
G01*
G04 APERTURE LIST*
%ADD10C,0.100000*%
%ADD11R,1.700000X1.700000*%
%ADD12O,1.700000X1.700000*%
%ADD13C,1.800000*%
%ADD14C,2.000000*%
%ADD15O,3.000000X1.500000*%
%ADD16C,0.500000*%
%ADD17C,0.250000*%
%ADD18C,0.254000*%
G04 APERTURE END LIST*
D10*
D11*
X101092000Y-74930000D03*
D12*
X101092000Y-72390000D03*
X101092000Y-69850000D03*
X101092000Y-67310000D03*
D11*
X108458000Y-87122000D03*
D12*
X108458000Y-84582000D03*
D13*
X136525000Y-85217000D03*
X133985000Y-85217000D03*
X131445000Y-85217000D03*
X128905000Y-85217000D03*
X126365000Y-85217000D03*
X123825000Y-85217000D03*
X121285000Y-85217000D03*
X118745000Y-85217000D03*
X118745000Y-108077000D03*
X121285000Y-108077000D03*
X123825000Y-108077000D03*
X126365000Y-108077000D03*
X128905000Y-108077000D03*
X131445000Y-108077000D03*
X133985000Y-108077000D03*
X136525000Y-108077000D03*
D14*
X131693000Y-67126000D03*
X131693000Y-64586000D03*
X131693000Y-62046000D03*
X131693000Y-59506000D03*
X131693000Y-56966000D03*
X131693000Y-54426000D03*
X131693000Y-51886000D03*
X131693000Y-49346000D03*
X131693000Y-46806000D03*
X117293000Y-62016000D03*
X117293000Y-59476000D03*
X117293000Y-56936000D03*
X117293000Y-54396000D03*
X117293000Y-51856000D03*
X114465000Y-79694000D03*
X117005000Y-79694000D03*
X119545000Y-79694000D03*
X122085000Y-79694000D03*
X124625000Y-79694000D03*
X127165000Y-79694000D03*
X129705000Y-79694000D03*
X132245000Y-79694000D03*
D11*
X121285000Y-112268000D03*
D12*
X118745000Y-112268000D03*
D15*
X116879000Y-67247000D03*
X116879000Y-69247000D03*
X116879000Y-71247000D03*
X116879000Y-73247000D03*
X116879000Y-75247000D03*
X105879000Y-75247000D03*
X105879000Y-73247000D03*
X105879000Y-71247000D03*
X105879000Y-69247000D03*
X105879000Y-67247000D03*
D16*
X101092000Y-67310000D02*
X105816000Y-67310000D01*
X105816000Y-67310000D02*
X105879000Y-67247000D01*
X101092000Y-69850000D02*
X102108000Y-69850000D01*
X103505000Y-71247000D02*
X105879000Y-71247000D01*
X102108000Y-69850000D02*
X103505000Y-71247000D01*
X101092000Y-72390000D02*
X102108000Y-72390000D01*
X102965000Y-73247000D02*
X105879000Y-73247000D01*
X102108000Y-72390000D02*
X102965000Y-73247000D01*
X101092000Y-74930000D02*
X102616000Y-74930000D01*
X102933000Y-75247000D02*
X105879000Y-75247000D01*
X102616000Y-74930000D02*
X102933000Y-75247000D01*
X126492000Y-71247000D02*
X126492000Y-67247000D01*
X126492000Y-67247000D02*
X131693000Y-62046000D01*
X132245000Y-79694000D02*
X132245000Y-77000000D01*
X126492000Y-71247000D02*
X116879000Y-71247000D01*
X132245000Y-77000000D02*
X126492000Y-71247000D01*
X121285000Y-112268000D02*
X138684000Y-112268000D01*
X137352000Y-79694000D02*
X132245000Y-79694000D01*
X141224000Y-83566000D02*
X137352000Y-79694000D01*
X141224000Y-109728000D02*
X141224000Y-83566000D01*
X138684000Y-112268000D02*
X141224000Y-109728000D01*
X121285000Y-112268000D02*
X121285000Y-108077000D01*
X105879000Y-75247000D02*
X105879000Y-76366000D01*
X105879000Y-76366000D02*
X104013000Y-78232000D01*
X104013000Y-78232000D02*
X104013000Y-104394000D01*
X104013000Y-104394000D02*
X105791000Y-106172000D01*
X105791000Y-106172000D02*
X119380000Y-106172000D01*
X119380000Y-106172000D02*
X121285000Y-108077000D01*
D17*
X121412000Y-112141000D02*
X121285000Y-112268000D01*
D16*
X108458000Y-84582000D02*
X109982000Y-84582000D01*
X136525000Y-101346000D02*
X136525000Y-108077000D01*
X128524000Y-93345000D02*
X136525000Y-101346000D01*
X118745000Y-93345000D02*
X128524000Y-93345000D01*
X109982000Y-84582000D02*
X118745000Y-93345000D01*
X108458000Y-87122000D02*
X109982000Y-87122000D01*
X133985000Y-102235000D02*
X133985000Y-108077000D01*
X126746000Y-94996000D02*
X133985000Y-102235000D01*
X117856000Y-94996000D02*
X126746000Y-94996000D01*
X109982000Y-87122000D02*
X117856000Y-94996000D01*
X118745000Y-112268000D02*
X118745000Y-113157000D01*
X131693000Y-71495000D02*
X131693000Y-67126000D01*
X143129000Y-82931000D02*
X131693000Y-71495000D01*
X143129000Y-110363000D02*
X143129000Y-82931000D01*
X139192000Y-114300000D02*
X143129000Y-110363000D01*
X119888000Y-114300000D02*
X139192000Y-114300000D01*
X118745000Y-113157000D02*
X119888000Y-114300000D01*
X118745000Y-112268000D02*
X118745000Y-108077000D01*
D17*
X118618000Y-108204000D02*
X118745000Y-108077000D01*
D16*
X114465000Y-79694000D02*
X114465000Y-82207000D01*
X119761000Y-83693000D02*
X121285000Y-85217000D01*
X115951000Y-83693000D02*
X119761000Y-83693000D01*
X114465000Y-82207000D02*
X115951000Y-83693000D01*
X117005000Y-79694000D02*
X117005000Y-82080000D01*
X121158000Y-82550000D02*
X123825000Y-85217000D01*
X117475000Y-82550000D02*
X121158000Y-82550000D01*
X117005000Y-82080000D02*
X117475000Y-82550000D01*
X119545000Y-79694000D02*
X119699000Y-79694000D01*
X119699000Y-79694000D02*
X122301000Y-82296000D01*
X123444000Y-82296000D02*
X126365000Y-85217000D01*
X122301000Y-82296000D02*
X123444000Y-82296000D01*
D17*
X119545000Y-79694000D02*
X119826000Y-79694000D01*
D16*
X122085000Y-79694000D02*
X122239000Y-79694000D01*
X122239000Y-79694000D02*
X124714000Y-82169000D01*
X125857000Y-82169000D02*
X128905000Y-85217000D01*
X124714000Y-82169000D02*
X125857000Y-82169000D01*
D17*
X122085000Y-79694000D02*
X122085000Y-80302000D01*
D16*
X116879000Y-75247000D02*
X120967000Y-75247000D01*
X124560000Y-77089000D02*
X127165000Y-79694000D01*
X122809000Y-77089000D02*
X124560000Y-77089000D01*
X120967000Y-75247000D02*
X122809000Y-77089000D01*
X116879000Y-75247000D02*
X114618000Y-75247000D01*
X113284000Y-85217000D02*
X118745000Y-85217000D01*
X111633000Y-83566000D02*
X113284000Y-85217000D01*
X111633000Y-78232000D02*
X111633000Y-83566000D01*
X114618000Y-75247000D02*
X111633000Y-78232000D01*
X116879000Y-67247000D02*
X122745000Y-67247000D01*
X127000000Y-61659000D02*
X131693000Y-56966000D01*
X127000000Y-62992000D02*
X127000000Y-61659000D01*
X122745000Y-67247000D02*
X127000000Y-62992000D01*
X116879000Y-67247000D02*
X110045000Y-67247000D01*
X125476000Y-104648000D02*
X128905000Y-108077000D01*
X106426000Y-104648000D02*
X125476000Y-104648000D01*
X105283000Y-103505000D02*
X106426000Y-104648000D01*
X105283000Y-78994000D02*
X105283000Y-103505000D01*
X108204000Y-76073000D02*
X105283000Y-78994000D01*
X108204000Y-69088000D02*
X108204000Y-76073000D01*
X110045000Y-67247000D02*
X108204000Y-69088000D01*
X116879000Y-69247000D02*
X123031000Y-69247000D01*
X128397000Y-62802000D02*
X131693000Y-59506000D01*
X128397000Y-63881000D02*
X128397000Y-62802000D01*
X123031000Y-69247000D02*
X128397000Y-63881000D01*
X116879000Y-69247000D02*
X110331000Y-69247000D01*
X126492000Y-103124000D02*
X131445000Y-108077000D01*
X107188000Y-103124000D02*
X126492000Y-103124000D01*
X106680000Y-102616000D02*
X107188000Y-103124000D01*
X106680000Y-79629000D02*
X106680000Y-102616000D01*
X109601000Y-76708000D02*
X106680000Y-79629000D01*
X109601000Y-69977000D02*
X109601000Y-76708000D01*
X110331000Y-69247000D02*
X109601000Y-69977000D01*
X124625000Y-79694000D02*
X124779000Y-79694000D01*
X124779000Y-79694000D02*
X127254000Y-82169000D01*
X128397000Y-82169000D02*
X131445000Y-85217000D01*
X127254000Y-82169000D02*
X128397000Y-82169000D01*
D17*
X124625000Y-79694000D02*
X124906000Y-79694000D01*
D16*
X126365000Y-108077000D02*
X126365000Y-109220000D01*
X132561000Y-82550000D02*
X129705000Y-79694000D01*
X137414000Y-82550000D02*
X132561000Y-82550000D01*
X139446000Y-84582000D02*
X137414000Y-82550000D01*
X139446000Y-108839000D02*
X139446000Y-84582000D01*
X137541000Y-110744000D02*
X139446000Y-108839000D01*
X127889000Y-110744000D02*
X137541000Y-110744000D01*
X126365000Y-109220000D02*
X127889000Y-110744000D01*
D18*
G36*
X146558000Y-36574656D02*
X146558000Y-115570000D01*
X99567193Y-115570000D01*
X99521404Y-108380991D01*
X117209735Y-108380991D01*
X117442932Y-108945371D01*
X117860000Y-109363169D01*
X117860000Y-111078568D01*
X117694946Y-111188853D01*
X117373039Y-111670622D01*
X117260000Y-112238907D01*
X117260000Y-112297093D01*
X117373039Y-112865378D01*
X117694946Y-113347147D01*
X117935539Y-113507906D01*
X118046660Y-113674210D01*
X118119210Y-113782790D01*
X119262208Y-114925787D01*
X119262210Y-114925790D01*
X119549325Y-115117633D01*
X119888000Y-115185001D01*
X119888005Y-115185000D01*
X139191995Y-115185000D01*
X139192000Y-115185001D01*
X139474484Y-115128810D01*
X139530675Y-115117633D01*
X139817790Y-114925790D01*
X139817791Y-114925789D01*
X143754787Y-110988792D01*
X143754790Y-110988790D01*
X143946633Y-110701675D01*
X143957810Y-110645484D01*
X144014001Y-110363000D01*
X144014000Y-110362995D01*
X144014000Y-82931000D01*
X143946633Y-82592325D01*
X143754790Y-82305210D01*
X143754787Y-82305208D01*
X132578000Y-71128420D01*
X132578000Y-68529398D01*
X132617943Y-68512894D01*
X133078278Y-68053363D01*
X133327716Y-67452648D01*
X133328284Y-66802205D01*
X133079894Y-66201057D01*
X132735241Y-65855801D01*
X133078278Y-65513363D01*
X133327716Y-64912648D01*
X133328284Y-64262205D01*
X133079894Y-63661057D01*
X132653022Y-63233438D01*
X132665927Y-63198532D01*
X131693000Y-62225605D01*
X130720073Y-63198532D01*
X130733164Y-63233938D01*
X130307722Y-63658637D01*
X130058284Y-64259352D01*
X130057716Y-64909795D01*
X130306106Y-65510943D01*
X130650759Y-65856199D01*
X130307722Y-66198637D01*
X130058284Y-66799352D01*
X130057716Y-67449795D01*
X130306106Y-68050943D01*
X130765637Y-68511278D01*
X130808000Y-68528869D01*
X130808000Y-71494995D01*
X130807999Y-71495000D01*
X130861549Y-71764210D01*
X130875367Y-71833675D01*
X130901503Y-71872790D01*
X131067210Y-72120790D01*
X142244000Y-83297579D01*
X142244000Y-109996421D01*
X138825420Y-113415000D01*
X122699297Y-113415000D01*
X122770000Y-113244309D01*
X122770000Y-112553750D01*
X122611250Y-112395000D01*
X121412000Y-112395000D01*
X121412000Y-112415000D01*
X121158000Y-112415000D01*
X121158000Y-112395000D01*
X121138000Y-112395000D01*
X121138000Y-112141000D01*
X121158000Y-112141000D01*
X121158000Y-110941750D01*
X121412000Y-110941750D01*
X121412000Y-112141000D01*
X122611250Y-112141000D01*
X122770000Y-111982250D01*
X122770000Y-111291691D01*
X122673327Y-111058302D01*
X122494699Y-110879673D01*
X122261310Y-110783000D01*
X121570750Y-110783000D01*
X121412000Y-110941750D01*
X121158000Y-110941750D01*
X120999250Y-110783000D01*
X120308690Y-110783000D01*
X120075301Y-110879673D01*
X119896673Y-111058302D01*
X119824403Y-111232777D01*
X119795054Y-111188853D01*
X119630000Y-111078568D01*
X119630000Y-109362468D01*
X119835668Y-109157159D01*
X120384446Y-109157159D01*
X120470852Y-109413643D01*
X121044336Y-109623458D01*
X121654460Y-109597839D01*
X122099148Y-109413643D01*
X122185554Y-109157159D01*
X121285000Y-108256605D01*
X120384446Y-109157159D01*
X119835668Y-109157159D01*
X120045551Y-108947643D01*
X120054203Y-108926806D01*
X120204841Y-108977554D01*
X121105395Y-108077000D01*
X120204841Y-107176446D01*
X120054673Y-107227035D01*
X120047068Y-107208629D01*
X119835650Y-106996841D01*
X120384446Y-106996841D01*
X121285000Y-107897395D01*
X122185554Y-106996841D01*
X122099148Y-106740357D01*
X121525664Y-106530542D01*
X120915540Y-106556161D01*
X120470852Y-106740357D01*
X120384446Y-106996841D01*
X119835650Y-106996841D01*
X119615643Y-106776449D01*
X119051670Y-106542267D01*
X118441009Y-106541735D01*
X117876629Y-106774932D01*
X117444449Y-107206357D01*
X117210267Y-107770330D01*
X117209735Y-108380991D01*
X99521404Y-108380991D01*
X99310161Y-75215750D01*
X99607000Y-75215750D01*
X99607000Y-75906310D01*
X99703673Y-76139699D01*
X99882302Y-76318327D01*
X100115691Y-76415000D01*
X100806250Y-76415000D01*
X100965000Y-76256250D01*
X100965000Y-75057000D01*
X101219000Y-75057000D01*
X101219000Y-76256250D01*
X101377750Y-76415000D01*
X102068309Y-76415000D01*
X102301698Y-76318327D01*
X102480327Y-76139699D01*
X102577000Y-75906310D01*
X102577000Y-75588185D01*
X103786682Y-75588185D01*
X103800827Y-75659684D01*
X104059855Y-76136540D01*
X104481651Y-76477972D01*
X105002000Y-76632000D01*
X105752000Y-76632000D01*
X105752000Y-75374000D01*
X103909344Y-75374000D01*
X103786682Y-75588185D01*
X102577000Y-75588185D01*
X102577000Y-75215750D01*
X102418250Y-75057000D01*
X101219000Y-75057000D01*
X100965000Y-75057000D01*
X99765750Y-75057000D01*
X99607000Y-75215750D01*
X99310161Y-75215750D01*
X99259805Y-67310000D01*
X99577907Y-67310000D01*
X99690946Y-67878285D01*
X100012853Y-68360054D01*
X100342026Y-68580000D01*
X100012853Y-68799946D01*
X99690946Y-69281715D01*
X99577907Y-69850000D01*
X99690946Y-70418285D01*
X100012853Y-70900054D01*
X100342026Y-71120000D01*
X100012853Y-71339946D01*
X99690946Y-71821715D01*
X99577907Y-72390000D01*
X99690946Y-72958285D01*
X100012853Y-73440054D01*
X100056777Y-73469403D01*
X99882302Y-73541673D01*
X99703673Y-73720301D01*
X99607000Y-73953690D01*
X99607000Y-74644250D01*
X99765750Y-74803000D01*
X100965000Y-74803000D01*
X100965000Y-74783000D01*
X101219000Y-74783000D01*
X101219000Y-74803000D01*
X102418250Y-74803000D01*
X102577000Y-74644250D01*
X102577000Y-74031675D01*
X102626325Y-74064633D01*
X102682516Y-74075810D01*
X102965000Y-74132001D01*
X102965005Y-74132000D01*
X104044792Y-74132000D01*
X104107830Y-74226343D01*
X104170282Y-74268072D01*
X104059855Y-74357460D01*
X103800827Y-74834316D01*
X103786682Y-74905815D01*
X103909344Y-75120000D01*
X105752000Y-75120000D01*
X105752000Y-75100000D01*
X106006000Y-75100000D01*
X106006000Y-75120000D01*
X106026000Y-75120000D01*
X106026000Y-75374000D01*
X106006000Y-75374000D01*
X106006000Y-76632000D01*
X106393421Y-76632000D01*
X104657210Y-78368210D01*
X104465367Y-78655325D01*
X104465367Y-78655326D01*
X104397999Y-78994000D01*
X104398000Y-78994005D01*
X104398000Y-103504995D01*
X104397999Y-103505000D01*
X104446692Y-103749789D01*
X104465367Y-103843675D01*
X104575833Y-104009000D01*
X104657210Y-104130790D01*
X105800208Y-105273787D01*
X105800210Y-105273790D01*
X106087325Y-105465633D01*
X106426000Y-105533001D01*
X106426005Y-105533000D01*
X125109420Y-105533000D01*
X126118205Y-106541785D01*
X126061009Y-106541735D01*
X125496629Y-106774932D01*
X125094677Y-107176182D01*
X124695643Y-106776449D01*
X124131670Y-106542267D01*
X123521009Y-106541735D01*
X122956629Y-106774932D01*
X122524449Y-107206357D01*
X122515797Y-107227194D01*
X122365159Y-107176446D01*
X121464605Y-108077000D01*
X122365159Y-108977554D01*
X122515327Y-108926965D01*
X122522932Y-108945371D01*
X122954357Y-109377551D01*
X123518330Y-109611733D01*
X124128991Y-109612265D01*
X124693371Y-109379068D01*
X125095323Y-108977818D01*
X125494357Y-109377551D01*
X125512867Y-109385237D01*
X125518518Y-109413643D01*
X125547367Y-109558675D01*
X125657833Y-109724000D01*
X125739210Y-109845790D01*
X127263208Y-111369787D01*
X127263210Y-111369790D01*
X127550325Y-111561633D01*
X127889000Y-111629000D01*
X137540995Y-111629000D01*
X137541000Y-111629001D01*
X137823484Y-111572810D01*
X137879675Y-111561633D01*
X138166790Y-111369790D01*
X138166791Y-111369789D01*
X140071787Y-109464792D01*
X140071790Y-109464790D01*
X140263633Y-109177675D01*
X140306136Y-108964000D01*
X140331001Y-108839000D01*
X140331000Y-108838995D01*
X140331000Y-84582005D01*
X140331001Y-84582000D01*
X140263633Y-84243326D01*
X140263633Y-84243325D01*
X140071790Y-83956210D01*
X140071787Y-83956208D01*
X138039790Y-81924210D01*
X137956153Y-81868326D01*
X137752675Y-81732367D01*
X137696484Y-81721190D01*
X137414000Y-81664999D01*
X137413995Y-81665000D01*
X132927579Y-81665000D01*
X132580292Y-81317712D01*
X132630460Y-81315856D01*
X133119264Y-81113387D01*
X133217927Y-80846532D01*
X132245000Y-79873605D01*
X132230858Y-79887748D01*
X132051253Y-79708143D01*
X132065395Y-79694000D01*
X132424605Y-79694000D01*
X133397532Y-80666927D01*
X133664387Y-80568264D01*
X133890908Y-79958539D01*
X133866856Y-79308540D01*
X133664387Y-78819736D01*
X133397532Y-78721073D01*
X132424605Y-79694000D01*
X132065395Y-79694000D01*
X131092468Y-78721073D01*
X131057062Y-78734164D01*
X130864703Y-78541468D01*
X131272073Y-78541468D01*
X132245000Y-79514395D01*
X133217927Y-78541468D01*
X133119264Y-78274613D01*
X132509539Y-78048092D01*
X131859540Y-78072144D01*
X131370736Y-78274613D01*
X131272073Y-78541468D01*
X130864703Y-78541468D01*
X130632363Y-78308722D01*
X130031648Y-78059284D01*
X129381205Y-78058716D01*
X128780057Y-78307106D01*
X128434801Y-78651759D01*
X128092363Y-78308722D01*
X127491648Y-78059284D01*
X126841205Y-78058716D01*
X126798812Y-78076233D01*
X125185790Y-76463210D01*
X125045280Y-76369325D01*
X124898675Y-76271367D01*
X124822677Y-76256250D01*
X124560000Y-76203999D01*
X124559995Y-76204000D01*
X123175579Y-76204000D01*
X121592790Y-74621210D01*
X121305675Y-74429367D01*
X121249484Y-74418190D01*
X120967000Y-74361999D01*
X120966995Y-74362000D01*
X118713208Y-74362000D01*
X118650170Y-74267657D01*
X118619255Y-74247000D01*
X118650170Y-74226343D01*
X118950400Y-73777017D01*
X119055827Y-73247000D01*
X118950400Y-72716983D01*
X118650170Y-72267657D01*
X118587718Y-72225928D01*
X118698145Y-72136540D01*
X118957173Y-71659684D01*
X118971318Y-71588185D01*
X118848656Y-71374000D01*
X117006000Y-71374000D01*
X117006000Y-71394000D01*
X116752000Y-71394000D01*
X116752000Y-71374000D01*
X114909344Y-71374000D01*
X114786682Y-71588185D01*
X114800827Y-71659684D01*
X115059855Y-72136540D01*
X115170282Y-72225928D01*
X115107830Y-72267657D01*
X114807600Y-72716983D01*
X114702173Y-73247000D01*
X114807600Y-73777017D01*
X115107830Y-74226343D01*
X115138745Y-74247000D01*
X115107830Y-74267657D01*
X115044792Y-74362000D01*
X114618000Y-74362000D01*
X114279325Y-74429367D01*
X113992210Y-74621210D01*
X113992208Y-74621213D01*
X111007210Y-77606210D01*
X110815367Y-77893325D01*
X110815367Y-77893326D01*
X110747999Y-78232000D01*
X110748000Y-78232005D01*
X110748000Y-83565995D01*
X110747999Y-83566000D01*
X110784328Y-83748633D01*
X110815367Y-83904675D01*
X111007210Y-84191790D01*
X112658208Y-85842787D01*
X112658210Y-85842790D01*
X112824590Y-85953961D01*
X112945326Y-86034634D01*
X113284000Y-86102001D01*
X113284005Y-86102000D01*
X117459532Y-86102000D01*
X117874357Y-86517551D01*
X118438330Y-86751733D01*
X119048991Y-86752265D01*
X119613371Y-86519068D01*
X120015323Y-86117818D01*
X120414357Y-86517551D01*
X120978330Y-86751733D01*
X121588991Y-86752265D01*
X122153371Y-86519068D01*
X122555323Y-86117818D01*
X122954357Y-86517551D01*
X123518330Y-86751733D01*
X124128991Y-86752265D01*
X124693371Y-86519068D01*
X125095323Y-86117818D01*
X125494357Y-86517551D01*
X126058330Y-86751733D01*
X126668991Y-86752265D01*
X127233371Y-86519068D01*
X127635323Y-86117818D01*
X128034357Y-86517551D01*
X128598330Y-86751733D01*
X129208991Y-86752265D01*
X129773371Y-86519068D01*
X130175323Y-86117818D01*
X130574357Y-86517551D01*
X131138330Y-86751733D01*
X131748991Y-86752265D01*
X132313371Y-86519068D01*
X132715323Y-86117818D01*
X133114357Y-86517551D01*
X133678330Y-86751733D01*
X134288991Y-86752265D01*
X134853371Y-86519068D01*
X135255323Y-86117818D01*
X135654357Y-86517551D01*
X136218330Y-86751733D01*
X136828991Y-86752265D01*
X137393371Y-86519068D01*
X137825551Y-86087643D01*
X138059733Y-85523670D01*
X138060265Y-84913009D01*
X137827068Y-84348629D01*
X137395643Y-83916449D01*
X136831670Y-83682267D01*
X136221009Y-83681735D01*
X135656629Y-83914932D01*
X135254677Y-84316182D01*
X134855643Y-83916449D01*
X134291670Y-83682267D01*
X133681009Y-83681735D01*
X133116629Y-83914932D01*
X132714677Y-84316182D01*
X132315643Y-83916449D01*
X131751670Y-83682267D01*
X131161332Y-83681753D01*
X129022790Y-81543210D01*
X128889591Y-81454210D01*
X128735675Y-81351367D01*
X128678067Y-81339908D01*
X128397000Y-81283999D01*
X128396995Y-81284000D01*
X127620579Y-81284000D01*
X127614092Y-81277512D01*
X128089943Y-81080894D01*
X128435199Y-80736241D01*
X128777637Y-81079278D01*
X129378352Y-81328716D01*
X130028795Y-81329284D01*
X130071188Y-81311768D01*
X131935208Y-83175787D01*
X131935210Y-83175790D01*
X132222325Y-83367633D01*
X132278516Y-83378810D01*
X132561000Y-83435001D01*
X132561005Y-83435000D01*
X137047420Y-83435000D01*
X138561000Y-84948579D01*
X138561000Y-108472421D01*
X137174420Y-109859000D01*
X128255579Y-109859000D01*
X127504746Y-109108167D01*
X127635323Y-108977818D01*
X128034357Y-109377551D01*
X128598330Y-109611733D01*
X129208991Y-109612265D01*
X129773371Y-109379068D01*
X130175323Y-108977818D01*
X130574357Y-109377551D01*
X131138330Y-109611733D01*
X131748991Y-109612265D01*
X132313371Y-109379068D01*
X132715323Y-108977818D01*
X133114357Y-109377551D01*
X133678330Y-109611733D01*
X134288991Y-109612265D01*
X134853371Y-109379068D01*
X135255323Y-108977818D01*
X135654357Y-109377551D01*
X136218330Y-109611733D01*
X136828991Y-109612265D01*
X137393371Y-109379068D01*
X137825551Y-108947643D01*
X138059733Y-108383670D01*
X138060265Y-107773009D01*
X137827068Y-107208629D01*
X137410000Y-106790831D01*
X137410000Y-101346005D01*
X137410001Y-101346000D01*
X137342633Y-101007326D01*
X137342633Y-101007325D01*
X137150790Y-100720210D01*
X137150787Y-100720208D01*
X129149790Y-92719210D01*
X128862675Y-92527367D01*
X128806484Y-92516190D01*
X128524000Y-92459999D01*
X128523995Y-92460000D01*
X119111579Y-92460000D01*
X110607790Y-83956210D01*
X110530660Y-83904674D01*
X110320675Y-83764367D01*
X110264484Y-83753190D01*
X109982000Y-83696999D01*
X109981995Y-83697000D01*
X109647432Y-83697000D01*
X109537147Y-83531946D01*
X109055378Y-83210039D01*
X108487093Y-83097000D01*
X108428907Y-83097000D01*
X107860622Y-83210039D01*
X107565000Y-83407567D01*
X107565000Y-79995580D01*
X110226787Y-77333792D01*
X110226790Y-77333790D01*
X110418633Y-77046675D01*
X110449672Y-76890633D01*
X110486001Y-76708000D01*
X110486000Y-76707995D01*
X110486000Y-70343580D01*
X110697579Y-70132000D01*
X115044792Y-70132000D01*
X115107830Y-70226343D01*
X115170282Y-70268072D01*
X115059855Y-70357460D01*
X114800827Y-70834316D01*
X114786682Y-70905815D01*
X114909344Y-71120000D01*
X116752000Y-71120000D01*
X116752000Y-71100000D01*
X117006000Y-71100000D01*
X117006000Y-71120000D01*
X118848656Y-71120000D01*
X118971318Y-70905815D01*
X118957173Y-70834316D01*
X118698145Y-70357460D01*
X118587718Y-70268072D01*
X118650170Y-70226343D01*
X118713208Y-70132000D01*
X123030995Y-70132000D01*
X123031000Y-70132001D01*
X123313484Y-70075810D01*
X123369675Y-70064633D01*
X123656790Y-69872790D01*
X123656791Y-69872789D01*
X129022787Y-64506792D01*
X129022790Y-64506790D01*
X129214633Y-64219675D01*
X129225810Y-64163484D01*
X129282001Y-63881000D01*
X129282000Y-63880995D01*
X129282000Y-63168580D01*
X130069288Y-62381292D01*
X130071144Y-62431460D01*
X130273613Y-62920264D01*
X130540468Y-63018927D01*
X131513395Y-62046000D01*
X131872605Y-62046000D01*
X132845532Y-63018927D01*
X133112387Y-62920264D01*
X133338908Y-62310539D01*
X133314856Y-61660540D01*
X133112387Y-61171736D01*
X132845532Y-61073073D01*
X131872605Y-62046000D01*
X131513395Y-62046000D01*
X131499253Y-62031858D01*
X131678858Y-61852253D01*
X131693000Y-61866395D01*
X132665927Y-60893468D01*
X132652836Y-60858062D01*
X133078278Y-60433363D01*
X133327716Y-59832648D01*
X133328284Y-59182205D01*
X133079894Y-58581057D01*
X132735241Y-58235801D01*
X133078278Y-57893363D01*
X133327716Y-57292648D01*
X133328284Y-56642205D01*
X133079894Y-56041057D01*
X132735241Y-55695801D01*
X133078278Y-55353363D01*
X133327716Y-54752648D01*
X133328284Y-54102205D01*
X133079894Y-53501057D01*
X132735241Y-53155801D01*
X133078278Y-52813363D01*
X133327716Y-52212648D01*
X133328284Y-51562205D01*
X133079894Y-50961057D01*
X132735241Y-50615801D01*
X133078278Y-50273363D01*
X133327716Y-49672648D01*
X133328284Y-49022205D01*
X133079894Y-48421057D01*
X132735241Y-48075801D01*
X133078278Y-47733363D01*
X133327716Y-47132648D01*
X133328284Y-46482205D01*
X133079894Y-45881057D01*
X132620363Y-45420722D01*
X132019648Y-45171284D01*
X131369205Y-45170716D01*
X130768057Y-45419106D01*
X130307722Y-45878637D01*
X130058284Y-46479352D01*
X130057716Y-47129795D01*
X130306106Y-47730943D01*
X130650759Y-48076199D01*
X130307722Y-48418637D01*
X130058284Y-49019352D01*
X130057716Y-49669795D01*
X130306106Y-50270943D01*
X130650759Y-50616199D01*
X130307722Y-50958637D01*
X130058284Y-51559352D01*
X130057716Y-52209795D01*
X130306106Y-52810943D01*
X130650759Y-53156199D01*
X130307722Y-53498637D01*
X130058284Y-54099352D01*
X130057716Y-54749795D01*
X130306106Y-55350943D01*
X130650759Y-55696199D01*
X130307722Y-56038637D01*
X130058284Y-56639352D01*
X130057716Y-57289795D01*
X130075233Y-57332188D01*
X126374210Y-61033210D01*
X126182367Y-61320325D01*
X126182367Y-61320326D01*
X126114999Y-61659000D01*
X126115000Y-61659005D01*
X126115000Y-62625421D01*
X122378420Y-66362000D01*
X118713208Y-66362000D01*
X118650170Y-66267657D01*
X118200844Y-65967427D01*
X117670827Y-65862000D01*
X116087173Y-65862000D01*
X115557156Y-65967427D01*
X115107830Y-66267657D01*
X115044792Y-66362000D01*
X110045005Y-66362000D01*
X110045000Y-66361999D01*
X109728279Y-66425000D01*
X109706325Y-66429367D01*
X109419210Y-66621210D01*
X109419208Y-66621213D01*
X107699274Y-68341146D01*
X107650170Y-68267657D01*
X107619255Y-68247000D01*
X107650170Y-68226343D01*
X107950400Y-67777017D01*
X108055827Y-67247000D01*
X107950400Y-66716983D01*
X107650170Y-66267657D01*
X107200844Y-65967427D01*
X106670827Y-65862000D01*
X105087173Y-65862000D01*
X104557156Y-65967427D01*
X104107830Y-66267657D01*
X104002697Y-66425000D01*
X102281432Y-66425000D01*
X102171147Y-66259946D01*
X101689378Y-65938039D01*
X101121093Y-65825000D01*
X101062907Y-65825000D01*
X100494622Y-65938039D01*
X100012853Y-66259946D01*
X99690946Y-66741715D01*
X99577907Y-67310000D01*
X99259805Y-67310000D01*
X99163435Y-52179795D01*
X115657716Y-52179795D01*
X115906106Y-52780943D01*
X116250759Y-53126199D01*
X115907722Y-53468637D01*
X115658284Y-54069352D01*
X115657716Y-54719795D01*
X115906106Y-55320943D01*
X116250759Y-55666199D01*
X115907722Y-56008637D01*
X115658284Y-56609352D01*
X115657716Y-57259795D01*
X115906106Y-57860943D01*
X116250759Y-58206199D01*
X115907722Y-58548637D01*
X115658284Y-59149352D01*
X115657716Y-59799795D01*
X115906106Y-60400943D01*
X116250759Y-60746199D01*
X115907722Y-61088637D01*
X115658284Y-61689352D01*
X115657716Y-62339795D01*
X115906106Y-62940943D01*
X116365637Y-63401278D01*
X116966352Y-63650716D01*
X117616795Y-63651284D01*
X118217943Y-63402894D01*
X118678278Y-62943363D01*
X118927716Y-62342648D01*
X118928284Y-61692205D01*
X118679894Y-61091057D01*
X118335241Y-60745801D01*
X118678278Y-60403363D01*
X118927716Y-59802648D01*
X118928284Y-59152205D01*
X118679894Y-58551057D01*
X118335241Y-58205801D01*
X118678278Y-57863363D01*
X118927716Y-57262648D01*
X118928284Y-56612205D01*
X118679894Y-56011057D01*
X118335241Y-55665801D01*
X118678278Y-55323363D01*
X118927716Y-54722648D01*
X118928284Y-54072205D01*
X118679894Y-53471057D01*
X118335241Y-53125801D01*
X118678278Y-52783363D01*
X118927716Y-52182648D01*
X118928284Y-51532205D01*
X118679894Y-50931057D01*
X118220363Y-50470722D01*
X117619648Y-50221284D01*
X116969205Y-50220716D01*
X116368057Y-50469106D01*
X115907722Y-50928637D01*
X115658284Y-51529352D01*
X115657716Y-52179795D01*
X99163435Y-52179795D01*
X99060820Y-36069367D01*
X146558000Y-36574656D01*
X146558000Y-36574656D01*
G37*
X146558000Y-36574656D02*
X146558000Y-115570000D01*
X99567193Y-115570000D01*
X99521404Y-108380991D01*
X117209735Y-108380991D01*
X117442932Y-108945371D01*
X117860000Y-109363169D01*
X117860000Y-111078568D01*
X117694946Y-111188853D01*
X117373039Y-111670622D01*
X117260000Y-112238907D01*
X117260000Y-112297093D01*
X117373039Y-112865378D01*
X117694946Y-113347147D01*
X117935539Y-113507906D01*
X118046660Y-113674210D01*
X118119210Y-113782790D01*
X119262208Y-114925787D01*
X119262210Y-114925790D01*
X119549325Y-115117633D01*
X119888000Y-115185001D01*
X119888005Y-115185000D01*
X139191995Y-115185000D01*
X139192000Y-115185001D01*
X139474484Y-115128810D01*
X139530675Y-115117633D01*
X139817790Y-114925790D01*
X139817791Y-114925789D01*
X143754787Y-110988792D01*
X143754790Y-110988790D01*
X143946633Y-110701675D01*
X143957810Y-110645484D01*
X144014001Y-110363000D01*
X144014000Y-110362995D01*
X144014000Y-82931000D01*
X143946633Y-82592325D01*
X143754790Y-82305210D01*
X143754787Y-82305208D01*
X132578000Y-71128420D01*
X132578000Y-68529398D01*
X132617943Y-68512894D01*
X133078278Y-68053363D01*
X133327716Y-67452648D01*
X133328284Y-66802205D01*
X133079894Y-66201057D01*
X132735241Y-65855801D01*
X133078278Y-65513363D01*
X133327716Y-64912648D01*
X133328284Y-64262205D01*
X133079894Y-63661057D01*
X132653022Y-63233438D01*
X132665927Y-63198532D01*
X131693000Y-62225605D01*
X130720073Y-63198532D01*
X130733164Y-63233938D01*
X130307722Y-63658637D01*
X130058284Y-64259352D01*
X130057716Y-64909795D01*
X130306106Y-65510943D01*
X130650759Y-65856199D01*
X130307722Y-66198637D01*
X130058284Y-66799352D01*
X130057716Y-67449795D01*
X130306106Y-68050943D01*
X130765637Y-68511278D01*
X130808000Y-68528869D01*
X130808000Y-71494995D01*
X130807999Y-71495000D01*
X130861549Y-71764210D01*
X130875367Y-71833675D01*
X130901503Y-71872790D01*
X131067210Y-72120790D01*
X142244000Y-83297579D01*
X142244000Y-109996421D01*
X138825420Y-113415000D01*
X122699297Y-113415000D01*
X122770000Y-113244309D01*
X122770000Y-112553750D01*
X122611250Y-112395000D01*
X121412000Y-112395000D01*
X121412000Y-112415000D01*
X121158000Y-112415000D01*
X121158000Y-112395000D01*
X121138000Y-112395000D01*
X121138000Y-112141000D01*
X121158000Y-112141000D01*
X121158000Y-110941750D01*
X121412000Y-110941750D01*
X121412000Y-112141000D01*
X122611250Y-112141000D01*
X122770000Y-111982250D01*
X122770000Y-111291691D01*
X122673327Y-111058302D01*
X122494699Y-110879673D01*
X122261310Y-110783000D01*
X121570750Y-110783000D01*
X121412000Y-110941750D01*
X121158000Y-110941750D01*
X120999250Y-110783000D01*
X120308690Y-110783000D01*
X120075301Y-110879673D01*
X119896673Y-111058302D01*
X119824403Y-111232777D01*
X119795054Y-111188853D01*
X119630000Y-111078568D01*
X119630000Y-109362468D01*
X119835668Y-109157159D01*
X120384446Y-109157159D01*
X120470852Y-109413643D01*
X121044336Y-109623458D01*
X121654460Y-109597839D01*
X122099148Y-109413643D01*
X122185554Y-109157159D01*
X121285000Y-108256605D01*
X120384446Y-109157159D01*
X119835668Y-109157159D01*
X120045551Y-108947643D01*
X120054203Y-108926806D01*
X120204841Y-108977554D01*
X121105395Y-108077000D01*
X120204841Y-107176446D01*
X120054673Y-107227035D01*
X120047068Y-107208629D01*
X119835650Y-106996841D01*
X120384446Y-106996841D01*
X121285000Y-107897395D01*
X122185554Y-106996841D01*
X122099148Y-106740357D01*
X121525664Y-106530542D01*
X120915540Y-106556161D01*
X120470852Y-106740357D01*
X120384446Y-106996841D01*
X119835650Y-106996841D01*
X119615643Y-106776449D01*
X119051670Y-106542267D01*
X118441009Y-106541735D01*
X117876629Y-106774932D01*
X117444449Y-107206357D01*
X117210267Y-107770330D01*
X117209735Y-108380991D01*
X99521404Y-108380991D01*
X99310161Y-75215750D01*
X99607000Y-75215750D01*
X99607000Y-75906310D01*
X99703673Y-76139699D01*
X99882302Y-76318327D01*
X100115691Y-76415000D01*
X100806250Y-76415000D01*
X100965000Y-76256250D01*
X100965000Y-75057000D01*
X101219000Y-75057000D01*
X101219000Y-76256250D01*
X101377750Y-76415000D01*
X102068309Y-76415000D01*
X102301698Y-76318327D01*
X102480327Y-76139699D01*
X102577000Y-75906310D01*
X102577000Y-75588185D01*
X103786682Y-75588185D01*
X103800827Y-75659684D01*
X104059855Y-76136540D01*
X104481651Y-76477972D01*
X105002000Y-76632000D01*
X105752000Y-76632000D01*
X105752000Y-75374000D01*
X103909344Y-75374000D01*
X103786682Y-75588185D01*
X102577000Y-75588185D01*
X102577000Y-75215750D01*
X102418250Y-75057000D01*
X101219000Y-75057000D01*
X100965000Y-75057000D01*
X99765750Y-75057000D01*
X99607000Y-75215750D01*
X99310161Y-75215750D01*
X99259805Y-67310000D01*
X99577907Y-67310000D01*
X99690946Y-67878285D01*
X100012853Y-68360054D01*
X100342026Y-68580000D01*
X100012853Y-68799946D01*
X99690946Y-69281715D01*
X99577907Y-69850000D01*
X99690946Y-70418285D01*
X100012853Y-70900054D01*
X100342026Y-71120000D01*
X100012853Y-71339946D01*
X99690946Y-71821715D01*
X99577907Y-72390000D01*
X99690946Y-72958285D01*
X100012853Y-73440054D01*
X100056777Y-73469403D01*
X99882302Y-73541673D01*
X99703673Y-73720301D01*
X99607000Y-73953690D01*
X99607000Y-74644250D01*
X99765750Y-74803000D01*
X100965000Y-74803000D01*
X100965000Y-74783000D01*
X101219000Y-74783000D01*
X101219000Y-74803000D01*
X102418250Y-74803000D01*
X102577000Y-74644250D01*
X102577000Y-74031675D01*
X102626325Y-74064633D01*
X102682516Y-74075810D01*
X102965000Y-74132001D01*
X102965005Y-74132000D01*
X104044792Y-74132000D01*
X104107830Y-74226343D01*
X104170282Y-74268072D01*
X104059855Y-74357460D01*
X103800827Y-74834316D01*
X103786682Y-74905815D01*
X103909344Y-75120000D01*
X105752000Y-75120000D01*
X105752000Y-75100000D01*
X106006000Y-75100000D01*
X106006000Y-75120000D01*
X106026000Y-75120000D01*
X106026000Y-75374000D01*
X106006000Y-75374000D01*
X106006000Y-76632000D01*
X106393421Y-76632000D01*
X104657210Y-78368210D01*
X104465367Y-78655325D01*
X104465367Y-78655326D01*
X104397999Y-78994000D01*
X104398000Y-78994005D01*
X104398000Y-103504995D01*
X104397999Y-103505000D01*
X104446692Y-103749789D01*
X104465367Y-103843675D01*
X104575833Y-104009000D01*
X104657210Y-104130790D01*
X105800208Y-105273787D01*
X105800210Y-105273790D01*
X106087325Y-105465633D01*
X106426000Y-105533001D01*
X106426005Y-105533000D01*
X125109420Y-105533000D01*
X126118205Y-106541785D01*
X126061009Y-106541735D01*
X125496629Y-106774932D01*
X125094677Y-107176182D01*
X124695643Y-106776449D01*
X124131670Y-106542267D01*
X123521009Y-106541735D01*
X122956629Y-106774932D01*
X122524449Y-107206357D01*
X122515797Y-107227194D01*
X122365159Y-107176446D01*
X121464605Y-108077000D01*
X122365159Y-108977554D01*
X122515327Y-108926965D01*
X122522932Y-108945371D01*
X122954357Y-109377551D01*
X123518330Y-109611733D01*
X124128991Y-109612265D01*
X124693371Y-109379068D01*
X125095323Y-108977818D01*
X125494357Y-109377551D01*
X125512867Y-109385237D01*
X125518518Y-109413643D01*
X125547367Y-109558675D01*
X125657833Y-109724000D01*
X125739210Y-109845790D01*
X127263208Y-111369787D01*
X127263210Y-111369790D01*
X127550325Y-111561633D01*
X127889000Y-111629000D01*
X137540995Y-111629000D01*
X137541000Y-111629001D01*
X137823484Y-111572810D01*
X137879675Y-111561633D01*
X138166790Y-111369790D01*
X138166791Y-111369789D01*
X140071787Y-109464792D01*
X140071790Y-109464790D01*
X140263633Y-109177675D01*
X140306136Y-108964000D01*
X140331001Y-108839000D01*
X140331000Y-108838995D01*
X140331000Y-84582005D01*
X140331001Y-84582000D01*
X140263633Y-84243326D01*
X140263633Y-84243325D01*
X140071790Y-83956210D01*
X140071787Y-83956208D01*
X138039790Y-81924210D01*
X137956153Y-81868326D01*
X137752675Y-81732367D01*
X137696484Y-81721190D01*
X137414000Y-81664999D01*
X137413995Y-81665000D01*
X132927579Y-81665000D01*
X132580292Y-81317712D01*
X132630460Y-81315856D01*
X133119264Y-81113387D01*
X133217927Y-80846532D01*
X132245000Y-79873605D01*
X132230858Y-79887748D01*
X132051253Y-79708143D01*
X132065395Y-79694000D01*
X132424605Y-79694000D01*
X133397532Y-80666927D01*
X133664387Y-80568264D01*
X133890908Y-79958539D01*
X133866856Y-79308540D01*
X133664387Y-78819736D01*
X133397532Y-78721073D01*
X132424605Y-79694000D01*
X132065395Y-79694000D01*
X131092468Y-78721073D01*
X131057062Y-78734164D01*
X130864703Y-78541468D01*
X131272073Y-78541468D01*
X132245000Y-79514395D01*
X133217927Y-78541468D01*
X133119264Y-78274613D01*
X132509539Y-78048092D01*
X131859540Y-78072144D01*
X131370736Y-78274613D01*
X131272073Y-78541468D01*
X130864703Y-78541468D01*
X130632363Y-78308722D01*
X130031648Y-78059284D01*
X129381205Y-78058716D01*
X128780057Y-78307106D01*
X128434801Y-78651759D01*
X128092363Y-78308722D01*
X127491648Y-78059284D01*
X126841205Y-78058716D01*
X126798812Y-78076233D01*
X125185790Y-76463210D01*
X125045280Y-76369325D01*
X124898675Y-76271367D01*
X124822677Y-76256250D01*
X124560000Y-76203999D01*
X124559995Y-76204000D01*
X123175579Y-76204000D01*
X121592790Y-74621210D01*
X121305675Y-74429367D01*
X121249484Y-74418190D01*
X120967000Y-74361999D01*
X120966995Y-74362000D01*
X118713208Y-74362000D01*
X118650170Y-74267657D01*
X118619255Y-74247000D01*
X118650170Y-74226343D01*
X118950400Y-73777017D01*
X119055827Y-73247000D01*
X118950400Y-72716983D01*
X118650170Y-72267657D01*
X118587718Y-72225928D01*
X118698145Y-72136540D01*
X118957173Y-71659684D01*
X118971318Y-71588185D01*
X118848656Y-71374000D01*
X117006000Y-71374000D01*
X117006000Y-71394000D01*
X116752000Y-71394000D01*
X116752000Y-71374000D01*
X114909344Y-71374000D01*
X114786682Y-71588185D01*
X114800827Y-71659684D01*
X115059855Y-72136540D01*
X115170282Y-72225928D01*
X115107830Y-72267657D01*
X114807600Y-72716983D01*
X114702173Y-73247000D01*
X114807600Y-73777017D01*
X115107830Y-74226343D01*
X115138745Y-74247000D01*
X115107830Y-74267657D01*
X115044792Y-74362000D01*
X114618000Y-74362000D01*
X114279325Y-74429367D01*
X113992210Y-74621210D01*
X113992208Y-74621213D01*
X111007210Y-77606210D01*
X110815367Y-77893325D01*
X110815367Y-77893326D01*
X110747999Y-78232000D01*
X110748000Y-78232005D01*
X110748000Y-83565995D01*
X110747999Y-83566000D01*
X110784328Y-83748633D01*
X110815367Y-83904675D01*
X111007210Y-84191790D01*
X112658208Y-85842787D01*
X112658210Y-85842790D01*
X112824590Y-85953961D01*
X112945326Y-86034634D01*
X113284000Y-86102001D01*
X113284005Y-86102000D01*
X117459532Y-86102000D01*
X117874357Y-86517551D01*
X118438330Y-86751733D01*
X119048991Y-86752265D01*
X119613371Y-86519068D01*
X120015323Y-86117818D01*
X120414357Y-86517551D01*
X120978330Y-86751733D01*
X121588991Y-86752265D01*
X122153371Y-86519068D01*
X122555323Y-86117818D01*
X122954357Y-86517551D01*
X123518330Y-86751733D01*
X124128991Y-86752265D01*
X124693371Y-86519068D01*
X125095323Y-86117818D01*
X125494357Y-86517551D01*
X126058330Y-86751733D01*
X126668991Y-86752265D01*
X127233371Y-86519068D01*
X127635323Y-86117818D01*
X128034357Y-86517551D01*
X128598330Y-86751733D01*
X129208991Y-86752265D01*
X129773371Y-86519068D01*
X130175323Y-86117818D01*
X130574357Y-86517551D01*
X131138330Y-86751733D01*
X131748991Y-86752265D01*
X132313371Y-86519068D01*
X132715323Y-86117818D01*
X133114357Y-86517551D01*
X133678330Y-86751733D01*
X134288991Y-86752265D01*
X134853371Y-86519068D01*
X135255323Y-86117818D01*
X135654357Y-86517551D01*
X136218330Y-86751733D01*
X136828991Y-86752265D01*
X137393371Y-86519068D01*
X137825551Y-86087643D01*
X138059733Y-85523670D01*
X138060265Y-84913009D01*
X137827068Y-84348629D01*
X137395643Y-83916449D01*
X136831670Y-83682267D01*
X136221009Y-83681735D01*
X135656629Y-83914932D01*
X135254677Y-84316182D01*
X134855643Y-83916449D01*
X134291670Y-83682267D01*
X133681009Y-83681735D01*
X133116629Y-83914932D01*
X132714677Y-84316182D01*
X132315643Y-83916449D01*
X131751670Y-83682267D01*
X131161332Y-83681753D01*
X129022790Y-81543210D01*
X128889591Y-81454210D01*
X128735675Y-81351367D01*
X128678067Y-81339908D01*
X128397000Y-81283999D01*
X128396995Y-81284000D01*
X127620579Y-81284000D01*
X127614092Y-81277512D01*
X128089943Y-81080894D01*
X128435199Y-80736241D01*
X128777637Y-81079278D01*
X129378352Y-81328716D01*
X130028795Y-81329284D01*
X130071188Y-81311768D01*
X131935208Y-83175787D01*
X131935210Y-83175790D01*
X132222325Y-83367633D01*
X132278516Y-83378810D01*
X132561000Y-83435001D01*
X132561005Y-83435000D01*
X137047420Y-83435000D01*
X138561000Y-84948579D01*
X138561000Y-108472421D01*
X137174420Y-109859000D01*
X128255579Y-109859000D01*
X127504746Y-109108167D01*
X127635323Y-108977818D01*
X128034357Y-109377551D01*
X128598330Y-109611733D01*
X129208991Y-109612265D01*
X129773371Y-109379068D01*
X130175323Y-108977818D01*
X130574357Y-109377551D01*
X131138330Y-109611733D01*
X131748991Y-109612265D01*
X132313371Y-109379068D01*
X132715323Y-108977818D01*
X133114357Y-109377551D01*
X133678330Y-109611733D01*
X134288991Y-109612265D01*
X134853371Y-109379068D01*
X135255323Y-108977818D01*
X135654357Y-109377551D01*
X136218330Y-109611733D01*
X136828991Y-109612265D01*
X137393371Y-109379068D01*
X137825551Y-108947643D01*
X138059733Y-108383670D01*
X138060265Y-107773009D01*
X137827068Y-107208629D01*
X137410000Y-106790831D01*
X137410000Y-101346005D01*
X137410001Y-101346000D01*
X137342633Y-101007326D01*
X137342633Y-101007325D01*
X137150790Y-100720210D01*
X137150787Y-100720208D01*
X129149790Y-92719210D01*
X128862675Y-92527367D01*
X128806484Y-92516190D01*
X128524000Y-92459999D01*
X128523995Y-92460000D01*
X119111579Y-92460000D01*
X110607790Y-83956210D01*
X110530660Y-83904674D01*
X110320675Y-83764367D01*
X110264484Y-83753190D01*
X109982000Y-83696999D01*
X109981995Y-83697000D01*
X109647432Y-83697000D01*
X109537147Y-83531946D01*
X109055378Y-83210039D01*
X108487093Y-83097000D01*
X108428907Y-83097000D01*
X107860622Y-83210039D01*
X107565000Y-83407567D01*
X107565000Y-79995580D01*
X110226787Y-77333792D01*
X110226790Y-77333790D01*
X110418633Y-77046675D01*
X110449672Y-76890633D01*
X110486001Y-76708000D01*
X110486000Y-76707995D01*
X110486000Y-70343580D01*
X110697579Y-70132000D01*
X115044792Y-70132000D01*
X115107830Y-70226343D01*
X115170282Y-70268072D01*
X115059855Y-70357460D01*
X114800827Y-70834316D01*
X114786682Y-70905815D01*
X114909344Y-71120000D01*
X116752000Y-71120000D01*
X116752000Y-71100000D01*
X117006000Y-71100000D01*
X117006000Y-71120000D01*
X118848656Y-71120000D01*
X118971318Y-70905815D01*
X118957173Y-70834316D01*
X118698145Y-70357460D01*
X118587718Y-70268072D01*
X118650170Y-70226343D01*
X118713208Y-70132000D01*
X123030995Y-70132000D01*
X123031000Y-70132001D01*
X123313484Y-70075810D01*
X123369675Y-70064633D01*
X123656790Y-69872790D01*
X123656791Y-69872789D01*
X129022787Y-64506792D01*
X129022790Y-64506790D01*
X129214633Y-64219675D01*
X129225810Y-64163484D01*
X129282001Y-63881000D01*
X129282000Y-63880995D01*
X129282000Y-63168580D01*
X130069288Y-62381292D01*
X130071144Y-62431460D01*
X130273613Y-62920264D01*
X130540468Y-63018927D01*
X131513395Y-62046000D01*
X131872605Y-62046000D01*
X132845532Y-63018927D01*
X133112387Y-62920264D01*
X133338908Y-62310539D01*
X133314856Y-61660540D01*
X133112387Y-61171736D01*
X132845532Y-61073073D01*
X131872605Y-62046000D01*
X131513395Y-62046000D01*
X131499253Y-62031858D01*
X131678858Y-61852253D01*
X131693000Y-61866395D01*
X132665927Y-60893468D01*
X132652836Y-60858062D01*
X133078278Y-60433363D01*
X133327716Y-59832648D01*
X133328284Y-59182205D01*
X133079894Y-58581057D01*
X132735241Y-58235801D01*
X133078278Y-57893363D01*
X133327716Y-57292648D01*
X133328284Y-56642205D01*
X133079894Y-56041057D01*
X132735241Y-55695801D01*
X133078278Y-55353363D01*
X133327716Y-54752648D01*
X133328284Y-54102205D01*
X133079894Y-53501057D01*
X132735241Y-53155801D01*
X133078278Y-52813363D01*
X133327716Y-52212648D01*
X133328284Y-51562205D01*
X133079894Y-50961057D01*
X132735241Y-50615801D01*
X133078278Y-50273363D01*
X133327716Y-49672648D01*
X133328284Y-49022205D01*
X133079894Y-48421057D01*
X132735241Y-48075801D01*
X133078278Y-47733363D01*
X133327716Y-47132648D01*
X133328284Y-46482205D01*
X133079894Y-45881057D01*
X132620363Y-45420722D01*
X132019648Y-45171284D01*
X131369205Y-45170716D01*
X130768057Y-45419106D01*
X130307722Y-45878637D01*
X130058284Y-46479352D01*
X130057716Y-47129795D01*
X130306106Y-47730943D01*
X130650759Y-48076199D01*
X130307722Y-48418637D01*
X130058284Y-49019352D01*
X130057716Y-49669795D01*
X130306106Y-50270943D01*
X130650759Y-50616199D01*
X130307722Y-50958637D01*
X130058284Y-51559352D01*
X130057716Y-52209795D01*
X130306106Y-52810943D01*
X130650759Y-53156199D01*
X130307722Y-53498637D01*
X130058284Y-54099352D01*
X130057716Y-54749795D01*
X130306106Y-55350943D01*
X130650759Y-55696199D01*
X130307722Y-56038637D01*
X130058284Y-56639352D01*
X130057716Y-57289795D01*
X130075233Y-57332188D01*
X126374210Y-61033210D01*
X126182367Y-61320325D01*
X126182367Y-61320326D01*
X126114999Y-61659000D01*
X126115000Y-61659005D01*
X126115000Y-62625421D01*
X122378420Y-66362000D01*
X118713208Y-66362000D01*
X118650170Y-66267657D01*
X118200844Y-65967427D01*
X117670827Y-65862000D01*
X116087173Y-65862000D01*
X115557156Y-65967427D01*
X115107830Y-66267657D01*
X115044792Y-66362000D01*
X110045005Y-66362000D01*
X110045000Y-66361999D01*
X109728279Y-66425000D01*
X109706325Y-66429367D01*
X109419210Y-66621210D01*
X109419208Y-66621213D01*
X107699274Y-68341146D01*
X107650170Y-68267657D01*
X107619255Y-68247000D01*
X107650170Y-68226343D01*
X107950400Y-67777017D01*
X108055827Y-67247000D01*
X107950400Y-66716983D01*
X107650170Y-66267657D01*
X107200844Y-65967427D01*
X106670827Y-65862000D01*
X105087173Y-65862000D01*
X104557156Y-65967427D01*
X104107830Y-66267657D01*
X104002697Y-66425000D01*
X102281432Y-66425000D01*
X102171147Y-66259946D01*
X101689378Y-65938039D01*
X101121093Y-65825000D01*
X101062907Y-65825000D01*
X100494622Y-65938039D01*
X100012853Y-66259946D01*
X99690946Y-66741715D01*
X99577907Y-67310000D01*
X99259805Y-67310000D01*
X99163435Y-52179795D01*
X115657716Y-52179795D01*
X115906106Y-52780943D01*
X116250759Y-53126199D01*
X115907722Y-53468637D01*
X115658284Y-54069352D01*
X115657716Y-54719795D01*
X115906106Y-55320943D01*
X116250759Y-55666199D01*
X115907722Y-56008637D01*
X115658284Y-56609352D01*
X115657716Y-57259795D01*
X115906106Y-57860943D01*
X116250759Y-58206199D01*
X115907722Y-58548637D01*
X115658284Y-59149352D01*
X115657716Y-59799795D01*
X115906106Y-60400943D01*
X116250759Y-60746199D01*
X115907722Y-61088637D01*
X115658284Y-61689352D01*
X115657716Y-62339795D01*
X115906106Y-62940943D01*
X116365637Y-63401278D01*
X116966352Y-63650716D01*
X117616795Y-63651284D01*
X118217943Y-63402894D01*
X118678278Y-62943363D01*
X118927716Y-62342648D01*
X118928284Y-61692205D01*
X118679894Y-61091057D01*
X118335241Y-60745801D01*
X118678278Y-60403363D01*
X118927716Y-59802648D01*
X118928284Y-59152205D01*
X118679894Y-58551057D01*
X118335241Y-58205801D01*
X118678278Y-57863363D01*
X118927716Y-57262648D01*
X118928284Y-56612205D01*
X118679894Y-56011057D01*
X118335241Y-55665801D01*
X118678278Y-55323363D01*
X118927716Y-54722648D01*
X118928284Y-54072205D01*
X118679894Y-53471057D01*
X118335241Y-53125801D01*
X118678278Y-52783363D01*
X118927716Y-52182648D01*
X118928284Y-51532205D01*
X118679894Y-50931057D01*
X118220363Y-50470722D01*
X117619648Y-50221284D01*
X116969205Y-50220716D01*
X116368057Y-50469106D01*
X115907722Y-50928637D01*
X115658284Y-51529352D01*
X115657716Y-52179795D01*
X99163435Y-52179795D01*
X99060820Y-36069367D01*
X146558000Y-36574656D01*
M02*
