%FSLAX45Y45*%
G04 Gerber Fmt 4.5, Leading zero omitted, Abs format (unit mm)*
G04 Created by KiCad (PCBNEW 4.0.7) date Friday 03 August 2018 17:56:32*
%MOMM*%
%LPD*%
G01*
G04 APERTURE LIST*
%ADD10C,0.127000*%
%ADD11C,0.150000*%
%ADD12C,0.200000*%
%ADD13C,0.300000*%
G04 APERTURE END LIST*
D10*
D11*
X9800000Y-11700000D02*
X9800000Y-3500000D01*
X14800000Y-11700000D02*
X9800000Y-11700000D01*
X14800000Y-3500000D02*
X14800000Y-11700000D01*
X9800000Y-3500000D02*
X14800000Y-3500000D01*
D12*
X11408400Y-7931300D02*
X11484600Y-8007500D01*
X11484600Y-7931300D02*
X11408400Y-8007500D01*
X11662400Y-7931300D02*
X11738600Y-8007500D01*
X11738600Y-7931300D02*
X11662400Y-8007500D01*
X11691200Y-5147500D02*
X11767400Y-5223700D01*
X11767400Y-5147500D02*
X11691200Y-5223700D01*
X11691200Y-5401500D02*
X11767400Y-5477700D01*
X11767400Y-5401500D02*
X11691200Y-5477700D01*
X11691200Y-5655500D02*
X11767400Y-5731700D01*
X11767400Y-5655500D02*
X11691200Y-5731700D01*
X11691200Y-5909500D02*
X11767400Y-5985700D01*
X11767400Y-5909500D02*
X11691200Y-5985700D01*
X11691200Y-6163500D02*
X11767400Y-6239700D01*
X11767400Y-6163500D02*
X11691200Y-6239700D01*
X11916400Y-7931300D02*
X11992600Y-8007500D01*
X11992600Y-7931300D02*
X11916400Y-8007500D01*
X12170400Y-7931300D02*
X12246600Y-8007500D01*
X12246600Y-7931300D02*
X12170400Y-8007500D01*
X12424400Y-7931300D02*
X12500600Y-8007500D01*
X12500600Y-7931300D02*
X12424400Y-8007500D01*
X12678400Y-7931300D02*
X12754600Y-8007500D01*
X12754600Y-7931300D02*
X12678400Y-8007500D01*
X12932400Y-7931300D02*
X13008600Y-8007500D01*
X13008600Y-7931300D02*
X12932400Y-8007500D01*
X13131200Y-4642500D02*
X13207400Y-4718700D01*
X13207400Y-4642500D02*
X13131200Y-4718700D01*
X13131200Y-4896500D02*
X13207400Y-4972700D01*
X13207400Y-4896500D02*
X13131200Y-4972700D01*
X13131200Y-5150500D02*
X13207400Y-5226700D01*
X13207400Y-5150500D02*
X13131200Y-5226700D01*
X13131200Y-5404500D02*
X13207400Y-5480700D01*
X13207400Y-5404500D02*
X13131200Y-5480700D01*
X13131200Y-5658500D02*
X13207400Y-5734700D01*
X13207400Y-5658500D02*
X13131200Y-5734700D01*
X13131200Y-5912500D02*
X13207400Y-5988700D01*
X13207400Y-5912500D02*
X13131200Y-5988700D01*
X13131200Y-6166500D02*
X13207400Y-6242700D01*
X13207400Y-6166500D02*
X13131200Y-6242700D01*
X13131200Y-6420500D02*
X13207400Y-6496700D01*
X13207400Y-6420500D02*
X13131200Y-6496700D01*
X13131200Y-6674500D02*
X13207400Y-6750700D01*
X13207400Y-6674500D02*
X13131200Y-6750700D01*
X13186400Y-7931300D02*
X13262600Y-8007500D01*
X13262600Y-7931300D02*
X13186400Y-8007500D01*
X10159200Y-6731000D02*
G75*
G03X10159200Y-6731000I-50000J0D01*
G01*
X10159200Y-6985000D02*
G75*
G03X10159200Y-6985000I-50000J0D01*
G01*
X10159200Y-7239000D02*
G75*
G03X10159200Y-7239000I-50000J0D01*
G01*
X10159200Y-7493000D02*
G75*
G03X10159200Y-7493000I-50000J0D01*
G01*
X10895800Y-8458200D02*
G75*
G03X10895800Y-8458200I-50000J0D01*
G01*
X10895800Y-8712200D02*
G75*
G03X10895800Y-8712200I-50000J0D01*
G01*
X11924500Y-11226800D02*
G75*
G03X11924500Y-11226800I-50000J0D01*
G01*
X12178500Y-11226800D02*
G75*
G03X12178500Y-11226800I-50000J0D01*
G01*
X11874500Y-8470900D02*
X11874500Y-8572500D01*
X11823700Y-8521700D02*
X11925300Y-8521700D01*
X11874500Y-10756900D02*
X11874500Y-10858500D01*
X11823700Y-10807700D02*
X11925300Y-10807700D01*
X12128500Y-8470900D02*
X12128500Y-8572500D01*
X12077700Y-8521700D02*
X12179300Y-8521700D01*
X12128500Y-10756900D02*
X12128500Y-10858500D01*
X12077700Y-10807700D02*
X12179300Y-10807700D01*
X12382500Y-8470900D02*
X12382500Y-8572500D01*
X12331700Y-8521700D02*
X12433300Y-8521700D01*
X12382500Y-10756900D02*
X12382500Y-10858500D01*
X12331700Y-10807700D02*
X12433300Y-10807700D01*
X12636500Y-8470900D02*
X12636500Y-8572500D01*
X12585700Y-8521700D02*
X12687300Y-8521700D01*
X12636500Y-10756900D02*
X12636500Y-10858500D01*
X12585700Y-10807700D02*
X12687300Y-10807700D01*
X12890500Y-8470900D02*
X12890500Y-8572500D01*
X12839700Y-8521700D02*
X12941300Y-8521700D01*
X12890500Y-10756900D02*
X12890500Y-10858500D01*
X12839700Y-10807700D02*
X12941300Y-10807700D01*
X13144500Y-8470900D02*
X13144500Y-8572500D01*
X13093700Y-8521700D02*
X13195300Y-8521700D01*
X13144500Y-10756900D02*
X13144500Y-10858500D01*
X13093700Y-10807700D02*
X13195300Y-10807700D01*
X13398500Y-8470900D02*
X13398500Y-8572500D01*
X13347700Y-8521700D02*
X13449300Y-8521700D01*
X13398500Y-10756900D02*
X13398500Y-10858500D01*
X13347700Y-10807700D02*
X13449300Y-10807700D01*
X13652500Y-8470900D02*
X13652500Y-8572500D01*
X13601700Y-8521700D02*
X13703300Y-8521700D01*
X13652500Y-10756900D02*
X13652500Y-10858500D01*
X13601700Y-10807700D02*
X13703300Y-10807700D01*
D13*
X10063929Y-12173214D02*
X10063929Y-11873214D01*
X10135357Y-11873214D01*
X10178214Y-11887500D01*
X10206786Y-11916071D01*
X10221071Y-11944643D01*
X10235357Y-12001786D01*
X10235357Y-12044643D01*
X10221071Y-12101786D01*
X10206786Y-12130357D01*
X10178214Y-12158929D01*
X10135357Y-12173214D01*
X10063929Y-12173214D01*
X10363929Y-12173214D02*
X10363929Y-11973214D01*
X10363929Y-12030357D02*
X10378214Y-12001786D01*
X10392500Y-11987500D01*
X10421071Y-11973214D01*
X10449643Y-11973214D01*
X10549643Y-12173214D02*
X10549643Y-11973214D01*
X10549643Y-11873214D02*
X10535357Y-11887500D01*
X10549643Y-11901786D01*
X10563929Y-11887500D01*
X10549643Y-11873214D01*
X10549643Y-11901786D01*
X10735357Y-12173214D02*
X10706786Y-12158929D01*
X10692500Y-12130357D01*
X10692500Y-11873214D01*
X10892500Y-12173214D02*
X10863929Y-12158929D01*
X10849643Y-12130357D01*
X10849643Y-11873214D01*
X11235357Y-12173214D02*
X11235357Y-11873214D01*
X11335357Y-12087500D01*
X11435357Y-11873214D01*
X11435357Y-12173214D01*
X11706786Y-12173214D02*
X11706786Y-12016071D01*
X11692500Y-11987500D01*
X11663928Y-11973214D01*
X11606786Y-11973214D01*
X11578214Y-11987500D01*
X11706786Y-12158929D02*
X11678214Y-12173214D01*
X11606786Y-12173214D01*
X11578214Y-12158929D01*
X11563928Y-12130357D01*
X11563928Y-12101786D01*
X11578214Y-12073214D01*
X11606786Y-12058929D01*
X11678214Y-12058929D01*
X11706786Y-12044643D01*
X11849643Y-11973214D02*
X11849643Y-12273214D01*
X11849643Y-11987500D02*
X11878214Y-11973214D01*
X11935357Y-11973214D01*
X11963928Y-11987500D01*
X11978214Y-12001786D01*
X11992500Y-12030357D01*
X11992500Y-12116071D01*
X11978214Y-12144643D01*
X11963928Y-12158929D01*
X11935357Y-12173214D01*
X11878214Y-12173214D01*
X11849643Y-12158929D01*
X12121071Y-12144643D02*
X12135357Y-12158929D01*
X12121071Y-12173214D01*
X12106786Y-12158929D01*
X12121071Y-12144643D01*
X12121071Y-12173214D01*
X12121071Y-11987500D02*
X12135357Y-12001786D01*
X12121071Y-12016071D01*
X12106786Y-12001786D01*
X12121071Y-11987500D01*
X12121071Y-12016071D01*
X9716300Y-12629400D02*
X9792500Y-12705600D01*
X9792500Y-12629400D02*
X9716300Y-12705600D01*
X10121071Y-12503214D02*
X10149643Y-12503214D01*
X10178214Y-12517500D01*
X10192500Y-12531786D01*
X10206786Y-12560357D01*
X10221071Y-12617500D01*
X10221071Y-12688929D01*
X10206786Y-12746071D01*
X10192500Y-12774643D01*
X10178214Y-12788929D01*
X10149643Y-12803214D01*
X10121071Y-12803214D01*
X10092500Y-12788929D01*
X10078214Y-12774643D01*
X10063929Y-12746071D01*
X10049643Y-12688929D01*
X10049643Y-12617500D01*
X10063929Y-12560357D01*
X10078214Y-12531786D01*
X10092500Y-12517500D01*
X10121071Y-12503214D01*
X10349643Y-12774643D02*
X10363929Y-12788929D01*
X10349643Y-12803214D01*
X10335357Y-12788929D01*
X10349643Y-12774643D01*
X10349643Y-12803214D01*
X10463928Y-12503214D02*
X10663928Y-12503214D01*
X10535357Y-12803214D01*
X10906786Y-12503214D02*
X10849643Y-12503214D01*
X10821071Y-12517500D01*
X10806786Y-12531786D01*
X10778214Y-12574643D01*
X10763929Y-12631786D01*
X10763929Y-12746071D01*
X10778214Y-12774643D01*
X10792500Y-12788929D01*
X10821071Y-12803214D01*
X10878214Y-12803214D01*
X10906786Y-12788929D01*
X10921071Y-12774643D01*
X10935357Y-12746071D01*
X10935357Y-12674643D01*
X10921071Y-12646071D01*
X10906786Y-12631786D01*
X10878214Y-12617500D01*
X10821071Y-12617500D01*
X10792500Y-12631786D01*
X10778214Y-12646071D01*
X10763929Y-12674643D01*
X11063929Y-12803214D02*
X11063929Y-12603214D01*
X11063929Y-12631786D02*
X11078214Y-12617500D01*
X11106786Y-12603214D01*
X11149643Y-12603214D01*
X11178214Y-12617500D01*
X11192500Y-12646071D01*
X11192500Y-12803214D01*
X11192500Y-12646071D02*
X11206786Y-12617500D01*
X11235357Y-12603214D01*
X11278214Y-12603214D01*
X11306786Y-12617500D01*
X11321071Y-12646071D01*
X11321071Y-12803214D01*
X11463928Y-12803214D02*
X11463928Y-12603214D01*
X11463928Y-12631786D02*
X11478214Y-12617500D01*
X11506786Y-12603214D01*
X11549643Y-12603214D01*
X11578214Y-12617500D01*
X11592500Y-12646071D01*
X11592500Y-12803214D01*
X11592500Y-12646071D02*
X11606786Y-12617500D01*
X11635357Y-12603214D01*
X11678214Y-12603214D01*
X11706786Y-12617500D01*
X11721071Y-12646071D01*
X11721071Y-12803214D01*
X12306786Y-12488929D02*
X12049643Y-12874643D01*
X12692500Y-12503214D02*
X12721071Y-12503214D01*
X12749643Y-12517500D01*
X12763928Y-12531786D01*
X12778214Y-12560357D01*
X12792500Y-12617500D01*
X12792500Y-12688929D01*
X12778214Y-12746071D01*
X12763928Y-12774643D01*
X12749643Y-12788929D01*
X12721071Y-12803214D01*
X12692500Y-12803214D01*
X12663928Y-12788929D01*
X12649643Y-12774643D01*
X12635357Y-12746071D01*
X12621071Y-12688929D01*
X12621071Y-12617500D01*
X12635357Y-12560357D01*
X12649643Y-12531786D01*
X12663928Y-12517500D01*
X12692500Y-12503214D01*
X12921071Y-12774643D02*
X12935357Y-12788929D01*
X12921071Y-12803214D01*
X12906786Y-12788929D01*
X12921071Y-12774643D01*
X12921071Y-12803214D01*
X13121071Y-12503214D02*
X13149643Y-12503214D01*
X13178214Y-12517500D01*
X13192500Y-12531786D01*
X13206785Y-12560357D01*
X13221071Y-12617500D01*
X13221071Y-12688929D01*
X13206785Y-12746071D01*
X13192500Y-12774643D01*
X13178214Y-12788929D01*
X13149643Y-12803214D01*
X13121071Y-12803214D01*
X13092500Y-12788929D01*
X13078214Y-12774643D01*
X13063928Y-12746071D01*
X13049643Y-12688929D01*
X13049643Y-12617500D01*
X13063928Y-12560357D01*
X13078214Y-12531786D01*
X13092500Y-12517500D01*
X13121071Y-12503214D01*
X13321071Y-12503214D02*
X13506785Y-12503214D01*
X13406785Y-12617500D01*
X13449643Y-12617500D01*
X13478214Y-12631786D01*
X13492500Y-12646071D01*
X13506785Y-12674643D01*
X13506785Y-12746071D01*
X13492500Y-12774643D01*
X13478214Y-12788929D01*
X13449643Y-12803214D01*
X13363928Y-12803214D01*
X13335357Y-12788929D01*
X13321071Y-12774643D01*
X13692500Y-12503214D02*
X13721071Y-12503214D01*
X13749643Y-12517500D01*
X13763928Y-12531786D01*
X13778214Y-12560357D01*
X13792500Y-12617500D01*
X13792500Y-12688929D01*
X13778214Y-12746071D01*
X13763928Y-12774643D01*
X13749643Y-12788929D01*
X13721071Y-12803214D01*
X13692500Y-12803214D01*
X13663928Y-12788929D01*
X13649643Y-12774643D01*
X13635357Y-12746071D01*
X13621071Y-12688929D01*
X13621071Y-12617500D01*
X13635357Y-12560357D01*
X13649643Y-12531786D01*
X13663928Y-12517500D01*
X13692500Y-12503214D01*
X13906786Y-12503214D02*
X13906786Y-12560357D01*
X14021071Y-12503214D02*
X14021071Y-12560357D01*
X14463928Y-12917500D02*
X14449643Y-12903214D01*
X14421071Y-12860357D01*
X14406785Y-12831786D01*
X14392500Y-12788929D01*
X14378214Y-12717500D01*
X14378214Y-12660357D01*
X14392500Y-12588929D01*
X14406785Y-12546071D01*
X14421071Y-12517500D01*
X14449643Y-12474643D01*
X14463928Y-12460357D01*
X14563928Y-12531786D02*
X14578214Y-12517500D01*
X14606785Y-12503214D01*
X14678214Y-12503214D01*
X14706785Y-12517500D01*
X14721071Y-12531786D01*
X14735357Y-12560357D01*
X14735357Y-12588929D01*
X14721071Y-12631786D01*
X14549643Y-12803214D01*
X14735357Y-12803214D01*
X14849643Y-12531786D02*
X14863928Y-12517500D01*
X14892500Y-12503214D01*
X14963928Y-12503214D01*
X14992500Y-12517500D01*
X15006785Y-12531786D01*
X15021071Y-12560357D01*
X15021071Y-12588929D01*
X15006785Y-12631786D01*
X14835357Y-12803214D01*
X15021071Y-12803214D01*
X15378214Y-12803214D02*
X15378214Y-12503214D01*
X15506785Y-12803214D02*
X15506785Y-12646071D01*
X15492500Y-12617500D01*
X15463928Y-12603214D01*
X15421071Y-12603214D01*
X15392500Y-12617500D01*
X15378214Y-12631786D01*
X15692500Y-12803214D02*
X15663928Y-12788929D01*
X15649643Y-12774643D01*
X15635357Y-12746071D01*
X15635357Y-12660357D01*
X15649643Y-12631786D01*
X15663928Y-12617500D01*
X15692500Y-12603214D01*
X15735357Y-12603214D01*
X15763928Y-12617500D01*
X15778214Y-12631786D01*
X15792500Y-12660357D01*
X15792500Y-12746071D01*
X15778214Y-12774643D01*
X15763928Y-12788929D01*
X15735357Y-12803214D01*
X15692500Y-12803214D01*
X15963928Y-12803214D02*
X15935357Y-12788929D01*
X15921071Y-12760357D01*
X15921071Y-12503214D01*
X16192500Y-12788929D02*
X16163928Y-12803214D01*
X16106786Y-12803214D01*
X16078214Y-12788929D01*
X16063928Y-12760357D01*
X16063928Y-12646071D01*
X16078214Y-12617500D01*
X16106786Y-12603214D01*
X16163928Y-12603214D01*
X16192500Y-12617500D01*
X16206786Y-12646071D01*
X16206786Y-12674643D01*
X16063928Y-12703214D01*
X16321071Y-12788929D02*
X16349643Y-12803214D01*
X16406786Y-12803214D01*
X16435357Y-12788929D01*
X16449643Y-12760357D01*
X16449643Y-12746071D01*
X16435357Y-12717500D01*
X16406786Y-12703214D01*
X16363928Y-12703214D01*
X16335357Y-12688929D01*
X16321071Y-12660357D01*
X16321071Y-12646071D01*
X16335357Y-12617500D01*
X16363928Y-12603214D01*
X16406786Y-12603214D01*
X16435357Y-12617500D01*
X16549643Y-12917500D02*
X16563928Y-12903214D01*
X16592500Y-12860357D01*
X16606786Y-12831786D01*
X16621071Y-12788929D01*
X16635357Y-12717500D01*
X16635357Y-12660357D01*
X16621071Y-12588929D01*
X16606786Y-12546071D01*
X16592500Y-12517500D01*
X16563928Y-12474643D01*
X16549643Y-12460357D01*
X9792500Y-13063500D02*
G75*
G03X9792500Y-13063500I-50000J0D01*
G01*
X10221071Y-13199214D02*
X10049643Y-13199214D01*
X10135357Y-13199214D02*
X10135357Y-12899214D01*
X10106786Y-12942071D01*
X10078214Y-12970643D01*
X10049643Y-12984929D01*
X10349643Y-13170643D02*
X10363929Y-13184929D01*
X10349643Y-13199214D01*
X10335357Y-13184929D01*
X10349643Y-13170643D01*
X10349643Y-13199214D01*
X10549643Y-12899214D02*
X10578214Y-12899214D01*
X10606786Y-12913500D01*
X10621071Y-12927786D01*
X10635357Y-12956357D01*
X10649643Y-13013500D01*
X10649643Y-13084929D01*
X10635357Y-13142071D01*
X10621071Y-13170643D01*
X10606786Y-13184929D01*
X10578214Y-13199214D01*
X10549643Y-13199214D01*
X10521071Y-13184929D01*
X10506786Y-13170643D01*
X10492500Y-13142071D01*
X10478214Y-13084929D01*
X10478214Y-13013500D01*
X10492500Y-12956357D01*
X10506786Y-12927786D01*
X10521071Y-12913500D01*
X10549643Y-12899214D01*
X10835357Y-12899214D02*
X10863929Y-12899214D01*
X10892500Y-12913500D01*
X10906786Y-12927786D01*
X10921071Y-12956357D01*
X10935357Y-13013500D01*
X10935357Y-13084929D01*
X10921071Y-13142071D01*
X10906786Y-13170643D01*
X10892500Y-13184929D01*
X10863929Y-13199214D01*
X10835357Y-13199214D01*
X10806786Y-13184929D01*
X10792500Y-13170643D01*
X10778214Y-13142071D01*
X10763929Y-13084929D01*
X10763929Y-13013500D01*
X10778214Y-12956357D01*
X10792500Y-12927786D01*
X10806786Y-12913500D01*
X10835357Y-12899214D01*
X11063929Y-13199214D02*
X11063929Y-12999214D01*
X11063929Y-13027786D02*
X11078214Y-13013500D01*
X11106786Y-12999214D01*
X11149643Y-12999214D01*
X11178214Y-13013500D01*
X11192500Y-13042071D01*
X11192500Y-13199214D01*
X11192500Y-13042071D02*
X11206786Y-13013500D01*
X11235357Y-12999214D01*
X11278214Y-12999214D01*
X11306786Y-13013500D01*
X11321071Y-13042071D01*
X11321071Y-13199214D01*
X11463928Y-13199214D02*
X11463928Y-12999214D01*
X11463928Y-13027786D02*
X11478214Y-13013500D01*
X11506786Y-12999214D01*
X11549643Y-12999214D01*
X11578214Y-13013500D01*
X11592500Y-13042071D01*
X11592500Y-13199214D01*
X11592500Y-13042071D02*
X11606786Y-13013500D01*
X11635357Y-12999214D01*
X11678214Y-12999214D01*
X11706786Y-13013500D01*
X11721071Y-13042071D01*
X11721071Y-13199214D01*
X12306786Y-12884929D02*
X12049643Y-13270643D01*
X12692500Y-12899214D02*
X12721071Y-12899214D01*
X12749643Y-12913500D01*
X12763928Y-12927786D01*
X12778214Y-12956357D01*
X12792500Y-13013500D01*
X12792500Y-13084929D01*
X12778214Y-13142071D01*
X12763928Y-13170643D01*
X12749643Y-13184929D01*
X12721071Y-13199214D01*
X12692500Y-13199214D01*
X12663928Y-13184929D01*
X12649643Y-13170643D01*
X12635357Y-13142071D01*
X12621071Y-13084929D01*
X12621071Y-13013500D01*
X12635357Y-12956357D01*
X12649643Y-12927786D01*
X12663928Y-12913500D01*
X12692500Y-12899214D01*
X12921071Y-13170643D02*
X12935357Y-13184929D01*
X12921071Y-13199214D01*
X12906786Y-13184929D01*
X12921071Y-13170643D01*
X12921071Y-13199214D01*
X13121071Y-12899214D02*
X13149643Y-12899214D01*
X13178214Y-12913500D01*
X13192500Y-12927786D01*
X13206785Y-12956357D01*
X13221071Y-13013500D01*
X13221071Y-13084929D01*
X13206785Y-13142071D01*
X13192500Y-13170643D01*
X13178214Y-13184929D01*
X13149643Y-13199214D01*
X13121071Y-13199214D01*
X13092500Y-13184929D01*
X13078214Y-13170643D01*
X13063928Y-13142071D01*
X13049643Y-13084929D01*
X13049643Y-13013500D01*
X13063928Y-12956357D01*
X13078214Y-12927786D01*
X13092500Y-12913500D01*
X13121071Y-12899214D01*
X13321071Y-12899214D02*
X13506785Y-12899214D01*
X13406785Y-13013500D01*
X13449643Y-13013500D01*
X13478214Y-13027786D01*
X13492500Y-13042071D01*
X13506785Y-13070643D01*
X13506785Y-13142071D01*
X13492500Y-13170643D01*
X13478214Y-13184929D01*
X13449643Y-13199214D01*
X13363928Y-13199214D01*
X13335357Y-13184929D01*
X13321071Y-13170643D01*
X13649643Y-13199214D02*
X13706785Y-13199214D01*
X13735357Y-13184929D01*
X13749643Y-13170643D01*
X13778214Y-13127786D01*
X13792500Y-13070643D01*
X13792500Y-12956357D01*
X13778214Y-12927786D01*
X13763928Y-12913500D01*
X13735357Y-12899214D01*
X13678214Y-12899214D01*
X13649643Y-12913500D01*
X13635357Y-12927786D01*
X13621071Y-12956357D01*
X13621071Y-13027786D01*
X13635357Y-13056357D01*
X13649643Y-13070643D01*
X13678214Y-13084929D01*
X13735357Y-13084929D01*
X13763928Y-13070643D01*
X13778214Y-13056357D01*
X13792500Y-13027786D01*
X13906786Y-12899214D02*
X13906786Y-12956357D01*
X14021071Y-12899214D02*
X14021071Y-12956357D01*
X14463928Y-13313500D02*
X14449643Y-13299214D01*
X14421071Y-13256357D01*
X14406785Y-13227786D01*
X14392500Y-13184929D01*
X14378214Y-13113500D01*
X14378214Y-13056357D01*
X14392500Y-12984929D01*
X14406785Y-12942071D01*
X14421071Y-12913500D01*
X14449643Y-12870643D01*
X14463928Y-12856357D01*
X14621071Y-13027786D02*
X14592500Y-13013500D01*
X14578214Y-12999214D01*
X14563928Y-12970643D01*
X14563928Y-12956357D01*
X14578214Y-12927786D01*
X14592500Y-12913500D01*
X14621071Y-12899214D01*
X14678214Y-12899214D01*
X14706785Y-12913500D01*
X14721071Y-12927786D01*
X14735357Y-12956357D01*
X14735357Y-12970643D01*
X14721071Y-12999214D01*
X14706785Y-13013500D01*
X14678214Y-13027786D01*
X14621071Y-13027786D01*
X14592500Y-13042071D01*
X14578214Y-13056357D01*
X14563928Y-13084929D01*
X14563928Y-13142071D01*
X14578214Y-13170643D01*
X14592500Y-13184929D01*
X14621071Y-13199214D01*
X14678214Y-13199214D01*
X14706785Y-13184929D01*
X14721071Y-13170643D01*
X14735357Y-13142071D01*
X14735357Y-13084929D01*
X14721071Y-13056357D01*
X14706785Y-13042071D01*
X14678214Y-13027786D01*
X15092500Y-13199214D02*
X15092500Y-12899214D01*
X15221071Y-13199214D02*
X15221071Y-13042071D01*
X15206785Y-13013500D01*
X15178214Y-12999214D01*
X15135357Y-12999214D01*
X15106785Y-13013500D01*
X15092500Y-13027786D01*
X15406785Y-13199214D02*
X15378214Y-13184929D01*
X15363928Y-13170643D01*
X15349643Y-13142071D01*
X15349643Y-13056357D01*
X15363928Y-13027786D01*
X15378214Y-13013500D01*
X15406785Y-12999214D01*
X15449643Y-12999214D01*
X15478214Y-13013500D01*
X15492500Y-13027786D01*
X15506785Y-13056357D01*
X15506785Y-13142071D01*
X15492500Y-13170643D01*
X15478214Y-13184929D01*
X15449643Y-13199214D01*
X15406785Y-13199214D01*
X15678214Y-13199214D02*
X15649643Y-13184929D01*
X15635357Y-13156357D01*
X15635357Y-12899214D01*
X15906786Y-13184929D02*
X15878214Y-13199214D01*
X15821071Y-13199214D01*
X15792500Y-13184929D01*
X15778214Y-13156357D01*
X15778214Y-13042071D01*
X15792500Y-13013500D01*
X15821071Y-12999214D01*
X15878214Y-12999214D01*
X15906786Y-13013500D01*
X15921071Y-13042071D01*
X15921071Y-13070643D01*
X15778214Y-13099214D01*
X16035357Y-13184929D02*
X16063928Y-13199214D01*
X16121071Y-13199214D01*
X16149643Y-13184929D01*
X16163928Y-13156357D01*
X16163928Y-13142071D01*
X16149643Y-13113500D01*
X16121071Y-13099214D01*
X16078214Y-13099214D01*
X16049643Y-13084929D01*
X16035357Y-13056357D01*
X16035357Y-13042071D01*
X16049643Y-13013500D01*
X16078214Y-12999214D01*
X16121071Y-12999214D01*
X16149643Y-13013500D01*
X16263928Y-13313500D02*
X16278214Y-13299214D01*
X16306786Y-13256357D01*
X16321071Y-13227786D01*
X16335357Y-13184929D01*
X16349643Y-13113500D01*
X16349643Y-13056357D01*
X16335357Y-12984929D01*
X16321071Y-12942071D01*
X16306786Y-12913500D01*
X16278214Y-12870643D01*
X16263928Y-12856357D01*
X9741700Y-13408700D02*
X9741700Y-13510300D01*
X9690900Y-13459500D02*
X9792500Y-13459500D01*
X10221071Y-13595214D02*
X10049643Y-13595214D01*
X10135357Y-13595214D02*
X10135357Y-13295214D01*
X10106786Y-13338071D01*
X10078214Y-13366643D01*
X10049643Y-13380929D01*
X10349643Y-13566643D02*
X10363929Y-13580929D01*
X10349643Y-13595214D01*
X10335357Y-13580929D01*
X10349643Y-13566643D01*
X10349643Y-13595214D01*
X10549643Y-13295214D02*
X10578214Y-13295214D01*
X10606786Y-13309500D01*
X10621071Y-13323786D01*
X10635357Y-13352357D01*
X10649643Y-13409500D01*
X10649643Y-13480929D01*
X10635357Y-13538071D01*
X10621071Y-13566643D01*
X10606786Y-13580929D01*
X10578214Y-13595214D01*
X10549643Y-13595214D01*
X10521071Y-13580929D01*
X10506786Y-13566643D01*
X10492500Y-13538071D01*
X10478214Y-13480929D01*
X10478214Y-13409500D01*
X10492500Y-13352357D01*
X10506786Y-13323786D01*
X10521071Y-13309500D01*
X10549643Y-13295214D01*
X10763929Y-13323786D02*
X10778214Y-13309500D01*
X10806786Y-13295214D01*
X10878214Y-13295214D01*
X10906786Y-13309500D01*
X10921071Y-13323786D01*
X10935357Y-13352357D01*
X10935357Y-13380929D01*
X10921071Y-13423786D01*
X10749643Y-13595214D01*
X10935357Y-13595214D01*
X11063929Y-13595214D02*
X11063929Y-13395214D01*
X11063929Y-13423786D02*
X11078214Y-13409500D01*
X11106786Y-13395214D01*
X11149643Y-13395214D01*
X11178214Y-13409500D01*
X11192500Y-13438071D01*
X11192500Y-13595214D01*
X11192500Y-13438071D02*
X11206786Y-13409500D01*
X11235357Y-13395214D01*
X11278214Y-13395214D01*
X11306786Y-13409500D01*
X11321071Y-13438071D01*
X11321071Y-13595214D01*
X11463928Y-13595214D02*
X11463928Y-13395214D01*
X11463928Y-13423786D02*
X11478214Y-13409500D01*
X11506786Y-13395214D01*
X11549643Y-13395214D01*
X11578214Y-13409500D01*
X11592500Y-13438071D01*
X11592500Y-13595214D01*
X11592500Y-13438071D02*
X11606786Y-13409500D01*
X11635357Y-13395214D01*
X11678214Y-13395214D01*
X11706786Y-13409500D01*
X11721071Y-13438071D01*
X11721071Y-13595214D01*
X12306786Y-13280929D02*
X12049643Y-13666643D01*
X12692500Y-13295214D02*
X12721071Y-13295214D01*
X12749643Y-13309500D01*
X12763928Y-13323786D01*
X12778214Y-13352357D01*
X12792500Y-13409500D01*
X12792500Y-13480929D01*
X12778214Y-13538071D01*
X12763928Y-13566643D01*
X12749643Y-13580929D01*
X12721071Y-13595214D01*
X12692500Y-13595214D01*
X12663928Y-13580929D01*
X12649643Y-13566643D01*
X12635357Y-13538071D01*
X12621071Y-13480929D01*
X12621071Y-13409500D01*
X12635357Y-13352357D01*
X12649643Y-13323786D01*
X12663928Y-13309500D01*
X12692500Y-13295214D01*
X12921071Y-13566643D02*
X12935357Y-13580929D01*
X12921071Y-13595214D01*
X12906786Y-13580929D01*
X12921071Y-13566643D01*
X12921071Y-13595214D01*
X13121071Y-13295214D02*
X13149643Y-13295214D01*
X13178214Y-13309500D01*
X13192500Y-13323786D01*
X13206785Y-13352357D01*
X13221071Y-13409500D01*
X13221071Y-13480929D01*
X13206785Y-13538071D01*
X13192500Y-13566643D01*
X13178214Y-13580929D01*
X13149643Y-13595214D01*
X13121071Y-13595214D01*
X13092500Y-13580929D01*
X13078214Y-13566643D01*
X13063928Y-13538071D01*
X13049643Y-13480929D01*
X13049643Y-13409500D01*
X13063928Y-13352357D01*
X13078214Y-13323786D01*
X13092500Y-13309500D01*
X13121071Y-13295214D01*
X13478214Y-13395214D02*
X13478214Y-13595214D01*
X13406785Y-13280929D02*
X13335357Y-13495214D01*
X13521071Y-13495214D01*
X13692500Y-13295214D02*
X13721071Y-13295214D01*
X13749643Y-13309500D01*
X13763928Y-13323786D01*
X13778214Y-13352357D01*
X13792500Y-13409500D01*
X13792500Y-13480929D01*
X13778214Y-13538071D01*
X13763928Y-13566643D01*
X13749643Y-13580929D01*
X13721071Y-13595214D01*
X13692500Y-13595214D01*
X13663928Y-13580929D01*
X13649643Y-13566643D01*
X13635357Y-13538071D01*
X13621071Y-13480929D01*
X13621071Y-13409500D01*
X13635357Y-13352357D01*
X13649643Y-13323786D01*
X13663928Y-13309500D01*
X13692500Y-13295214D01*
X13906786Y-13295214D02*
X13906786Y-13352357D01*
X14021071Y-13295214D02*
X14021071Y-13352357D01*
X14463928Y-13709500D02*
X14449643Y-13695214D01*
X14421071Y-13652357D01*
X14406785Y-13623786D01*
X14392500Y-13580929D01*
X14378214Y-13509500D01*
X14378214Y-13452357D01*
X14392500Y-13380929D01*
X14406785Y-13338071D01*
X14421071Y-13309500D01*
X14449643Y-13266643D01*
X14463928Y-13252357D01*
X14735357Y-13595214D02*
X14563928Y-13595214D01*
X14649643Y-13595214D02*
X14649643Y-13295214D01*
X14621071Y-13338071D01*
X14592500Y-13366643D01*
X14563928Y-13380929D01*
X14992500Y-13295214D02*
X14935357Y-13295214D01*
X14906785Y-13309500D01*
X14892500Y-13323786D01*
X14863928Y-13366643D01*
X14849643Y-13423786D01*
X14849643Y-13538071D01*
X14863928Y-13566643D01*
X14878214Y-13580929D01*
X14906785Y-13595214D01*
X14963928Y-13595214D01*
X14992500Y-13580929D01*
X15006785Y-13566643D01*
X15021071Y-13538071D01*
X15021071Y-13466643D01*
X15006785Y-13438071D01*
X14992500Y-13423786D01*
X14963928Y-13409500D01*
X14906785Y-13409500D01*
X14878214Y-13423786D01*
X14863928Y-13438071D01*
X14849643Y-13466643D01*
X15378214Y-13595214D02*
X15378214Y-13295214D01*
X15506785Y-13595214D02*
X15506785Y-13438071D01*
X15492500Y-13409500D01*
X15463928Y-13395214D01*
X15421071Y-13395214D01*
X15392500Y-13409500D01*
X15378214Y-13423786D01*
X15692500Y-13595214D02*
X15663928Y-13580929D01*
X15649643Y-13566643D01*
X15635357Y-13538071D01*
X15635357Y-13452357D01*
X15649643Y-13423786D01*
X15663928Y-13409500D01*
X15692500Y-13395214D01*
X15735357Y-13395214D01*
X15763928Y-13409500D01*
X15778214Y-13423786D01*
X15792500Y-13452357D01*
X15792500Y-13538071D01*
X15778214Y-13566643D01*
X15763928Y-13580929D01*
X15735357Y-13595214D01*
X15692500Y-13595214D01*
X15963928Y-13595214D02*
X15935357Y-13580929D01*
X15921071Y-13552357D01*
X15921071Y-13295214D01*
X16192500Y-13580929D02*
X16163928Y-13595214D01*
X16106786Y-13595214D01*
X16078214Y-13580929D01*
X16063928Y-13552357D01*
X16063928Y-13438071D01*
X16078214Y-13409500D01*
X16106786Y-13395214D01*
X16163928Y-13395214D01*
X16192500Y-13409500D01*
X16206786Y-13438071D01*
X16206786Y-13466643D01*
X16063928Y-13495214D01*
X16321071Y-13580929D02*
X16349643Y-13595214D01*
X16406786Y-13595214D01*
X16435357Y-13580929D01*
X16449643Y-13552357D01*
X16449643Y-13538071D01*
X16435357Y-13509500D01*
X16406786Y-13495214D01*
X16363928Y-13495214D01*
X16335357Y-13480929D01*
X16321071Y-13452357D01*
X16321071Y-13438071D01*
X16335357Y-13409500D01*
X16363928Y-13395214D01*
X16406786Y-13395214D01*
X16435357Y-13409500D01*
X16549643Y-13709500D02*
X16563928Y-13695214D01*
X16592500Y-13652357D01*
X16606786Y-13623786D01*
X16621071Y-13580929D01*
X16635357Y-13509500D01*
X16635357Y-13452357D01*
X16621071Y-13380929D01*
X16606786Y-13338071D01*
X16592500Y-13309500D01*
X16563928Y-13266643D01*
X16549643Y-13252357D01*
M02*
